%!PS-Adobe-3.0 EPSF-3.0
%%Creator: (MATLAB, The Mathworks, Inc. Version 9.2.0.538062 \(R2017a\). Operating System: Linux)
%%Title: /home/nicola/Scrivania/RESEARCH/Projects/TrimBot2020/RESEARCH/Speedup/evaluation_V100/v100-tranerr.eps
%%CreationDate: 2019-09-25T19:18:54
%%Pages: (atend)
%%BoundingBox: 0 0 731 344
%%LanguageLevel: 3
%%EndComments
%%BeginProlog
%%BeginResource: procset (Apache XML Graphics Std ProcSet) 1.2 0
%%Version: 1.2 0
%%Copyright: (Copyright 2001-2003,2010 The Apache Software Foundation. License terms: http://www.apache.org/licenses/LICENSE-2.0)
/bd{bind def}bind def
/ld{load def}bd
/GR/grestore ld
/M/moveto ld
/LJ/setlinejoin ld
/C/curveto ld
/f/fill ld
/LW/setlinewidth ld
/GC/setgray ld
/t/show ld
/N/newpath ld
/CT/concat ld
/cp/closepath ld
/S/stroke ld
/L/lineto ld
/CC/setcmykcolor ld
/A/ashow ld
/GS/gsave ld
/RC/setrgbcolor ld
/RM/rmoveto ld
/ML/setmiterlimit ld
/re {4 2 roll M
1 index 0 rlineto
0 exch rlineto
neg 0 rlineto
cp } bd
/_ctm matrix def
/_tm matrix def
/BT { _ctm currentmatrix pop matrix _tm copy pop 0 0 moveto } bd
/ET { _ctm setmatrix } bd
/iTm { _ctm setmatrix _tm concat } bd
/Tm { _tm astore pop iTm 0 0 moveto } bd
/ux 0.0 def
/uy 0.0 def
/F {
  /Tp exch def
  /Tf exch def
  Tf findfont Tp scalefont setfont
  /cf Tf def  /cs Tp def
} bd
/ULS {currentpoint /uy exch def /ux exch def} bd
/ULE {
  /Tcx currentpoint pop def
  gsave
  newpath
  cf findfont cs scalefont dup
  /FontMatrix get 0 get /Ts exch def /FontInfo get dup
  /UnderlinePosition get Ts mul /To exch def
  /UnderlineThickness get Ts mul /Tt exch def
  ux uy To add moveto  Tcx uy To add lineto
  Tt setlinewidth stroke
  grestore
} bd
/OLE {
  /Tcx currentpoint pop def
  gsave
  newpath
  cf findfont cs scalefont dup
  /FontMatrix get 0 get /Ts exch def /FontInfo get dup
  /UnderlinePosition get Ts mul /To exch def
  /UnderlineThickness get Ts mul /Tt exch def
  ux uy To add cs add moveto Tcx uy To add cs add lineto
  Tt setlinewidth stroke
  grestore
} bd
/SOE {
  /Tcx currentpoint pop def
  gsave
  newpath
  cf findfont cs scalefont dup
  /FontMatrix get 0 get /Ts exch def /FontInfo get dup
  /UnderlinePosition get Ts mul /To exch def
  /UnderlineThickness get Ts mul /Tt exch def
  ux uy To add cs 10 mul 26 idiv add moveto Tcx uy To add cs 10 mul 26 idiv add lineto
  Tt setlinewidth stroke
  grestore
} bd
/QT {
/Y22 exch store
/X22 exch store
/Y21 exch store
/X21 exch store
currentpoint
/Y21 load 2 mul add 3 div exch
/X21 load 2 mul add 3 div exch
/X21 load 2 mul /X22 load add 3 div
/Y21 load 2 mul /Y22 load add 3 div
/X22 load /Y22 load curveto
} bd
/SSPD {
dup length /d exch dict def
{
/v exch def
/k exch def
currentpagedevice k known {
/cpdv currentpagedevice k get def
v cpdv ne {
/upd false def
/nullv v type /nulltype eq def
/nullcpdv cpdv type /nulltype eq def
nullv nullcpdv or
{
/upd true def
} {
/sametype v type cpdv type eq def
sametype {
v type /arraytype eq {
/vlen v length def
/cpdvlen cpdv length def
vlen cpdvlen eq {
0 1 vlen 1 sub {
/i exch def
/obj v i get def
/cpdobj cpdv i get def
obj cpdobj ne {
/upd true def
exit
} if
} for
} {
/upd true def
} ifelse
} {
v type /dicttype eq {
v {
/dv exch def
/dk exch def
/cpddv cpdv dk get def
dv cpddv ne {
/upd true def
exit
} if
} forall
} {
/upd true def
} ifelse
} ifelse
} if
} ifelse
upd true eq {
d k v put
} if
} if
} if
} forall
d length 0 gt {
d setpagedevice
} if
} bd
/RE { % /NewFontName [NewEncodingArray] /FontName RE -
  findfont dup length dict begin
  {
    1 index /FID ne
    {def} {pop pop} ifelse
  } forall
  /Encoding exch def
  /FontName 1 index def
  currentdict definefont pop
  end
} bind def
%%EndResource
%%BeginResource: procset (Apache XML Graphics EPS ProcSet) 1.0 0
%%Version: 1.0 0
%%Copyright: (Copyright 2002-2003 The Apache Software Foundation. License terms: http://www.apache.org/licenses/LICENSE-2.0)
/BeginEPSF { %def
/b4_Inc_state save def         % Save state for cleanup
/dict_count countdictstack def % Count objects on dict stack
/op_count count 1 sub def      % Count objects on operand stack
userdict begin                 % Push userdict on dict stack
/showpage { } def              % Redefine showpage, { } = null proc
0 setgray 0 setlinecap         % Prepare graphics state
1 setlinewidth 0 setlinejoin
10 setmiterlimit [ ] 0 setdash newpath
/languagelevel where           % If level not equal to 1 then
{pop languagelevel             % set strokeadjust and
1 ne                           % overprint to their defaults.
{false setstrokeadjust false setoverprint
} if
} if
} bd
/EndEPSF { %def
count op_count sub {pop} repeat            % Clean up stacks
countdictstack dict_count sub {end} repeat
b4_Inc_state restore
} bd
%%EndResource
%FOPBeginFontDict
%%IncludeResource: font Courier-Bold
%%IncludeResource: font Helvetica
%%IncludeResource: font Courier-BoldOblique
%%IncludeResource: font Courier-Oblique
%%IncludeResource: font Times-Roman
%%IncludeResource: font Helvetica-BoldOblique
%%IncludeResource: font Helvetica-Bold
%%IncludeResource: font Helvetica-Oblique
%%IncludeResource: font Times-BoldItalic
%%IncludeResource: font Courier
%%IncludeResource: font Times-Italic
%%IncludeResource: font Times-Bold
%%IncludeResource: font Symbol
%%IncludeResource: font ZapfDingbats
%FOPEndFontDict
%%BeginResource: encoding WinAnsiEncoding
/WinAnsiEncoding [
/.notdef /.notdef /.notdef /.notdef /.notdef
/.notdef /.notdef /.notdef /.notdef /.notdef
/.notdef /.notdef /.notdef /.notdef /.notdef
/.notdef /.notdef /.notdef /.notdef /.notdef
/.notdef /.notdef /.notdef /.notdef /.notdef
/.notdef /.notdef /.notdef /.notdef /.notdef
/.notdef /.notdef /space /exclam /quotedbl
/numbersign /dollar /percent /ampersand /quotesingle
/parenleft /parenright /asterisk /plus /comma
/hyphen /period /slash /zero /one
/two /three /four /five /six
/seven /eight /nine /colon /semicolon
/less /equal /greater /question /at
/A /B /C /D /E
/F /G /H /I /J
/K /L /M /N /O
/P /Q /R /S /T
/U /V /W /X /Y
/Z /bracketleft /backslash /bracketright /asciicircum
/underscore /quoteleft /a /b /c
/d /e /f /g /h
/i /j /k /l /m
/n /o /p /q /r
/s /t /u /v /w
/x /y /z /braceleft /bar
/braceright /asciitilde /bullet /Euro /bullet
/quotesinglbase /florin /quotedblbase /ellipsis /dagger
/daggerdbl /circumflex /perthousand /Scaron /guilsinglleft
/OE /bullet /Zcaron /bullet /bullet
/quoteleft /quoteright /quotedblleft /quotedblright /bullet
/endash /emdash /asciitilde /trademark /scaron
/guilsinglright /oe /bullet /zcaron /Ydieresis
/space /exclamdown /cent /sterling /currency
/yen /brokenbar /section /dieresis /copyright
/ordfeminine /guillemotleft /logicalnot /sfthyphen /registered
/macron /degree /plusminus /twosuperior /threesuperior
/acute /mu /paragraph /middot /cedilla
/onesuperior /ordmasculine /guillemotright /onequarter /onehalf
/threequarters /questiondown /Agrave /Aacute /Acircumflex
/Atilde /Adieresis /Aring /AE /Ccedilla
/Egrave /Eacute /Ecircumflex /Edieresis /Igrave
/Iacute /Icircumflex /Idieresis /Eth /Ntilde
/Ograve /Oacute /Ocircumflex /Otilde /Odieresis
/multiply /Oslash /Ugrave /Uacute /Ucircumflex
/Udieresis /Yacute /Thorn /germandbls /agrave
/aacute /acircumflex /atilde /adieresis /aring
/ae /ccedilla /egrave /eacute /ecircumflex
/edieresis /igrave /iacute /icircumflex /idieresis
/eth /ntilde /ograve /oacute /ocircumflex
/otilde /odieresis /divide /oslash /ugrave
/uacute /ucircumflex /udieresis /yacute /thorn
/ydieresis
] def
%%EndResource
%FOPBeginFontReencode
/Courier-Bold findfont
dup length dict begin
  {1 index /FID ne {def} {pop pop} ifelse} forall
  /Encoding WinAnsiEncoding def
  currentdict
end
/Courier-Bold exch definefont pop
/Helvetica findfont
dup length dict begin
  {1 index /FID ne {def} {pop pop} ifelse} forall
  /Encoding WinAnsiEncoding def
  currentdict
end
/Helvetica exch definefont pop
/Courier-BoldOblique findfont
dup length dict begin
  {1 index /FID ne {def} {pop pop} ifelse} forall
  /Encoding WinAnsiEncoding def
  currentdict
end
/Courier-BoldOblique exch definefont pop
/Courier-Oblique findfont
dup length dict begin
  {1 index /FID ne {def} {pop pop} ifelse} forall
  /Encoding WinAnsiEncoding def
  currentdict
end
/Courier-Oblique exch definefont pop
/Times-Roman findfont
dup length dict begin
  {1 index /FID ne {def} {pop pop} ifelse} forall
  /Encoding WinAnsiEncoding def
  currentdict
end
/Times-Roman exch definefont pop
/Helvetica-BoldOblique findfont
dup length dict begin
  {1 index /FID ne {def} {pop pop} ifelse} forall
  /Encoding WinAnsiEncoding def
  currentdict
end
/Helvetica-BoldOblique exch definefont pop
/Helvetica-Bold findfont
dup length dict begin
  {1 index /FID ne {def} {pop pop} ifelse} forall
  /Encoding WinAnsiEncoding def
  currentdict
end
/Helvetica-Bold exch definefont pop
/Helvetica-Oblique findfont
dup length dict begin
  {1 index /FID ne {def} {pop pop} ifelse} forall
  /Encoding WinAnsiEncoding def
  currentdict
end
/Helvetica-Oblique exch definefont pop
/Times-BoldItalic findfont
dup length dict begin
  {1 index /FID ne {def} {pop pop} ifelse} forall
  /Encoding WinAnsiEncoding def
  currentdict
end
/Times-BoldItalic exch definefont pop
/Courier findfont
dup length dict begin
  {1 index /FID ne {def} {pop pop} ifelse} forall
  /Encoding WinAnsiEncoding def
  currentdict
end
/Courier exch definefont pop
/Times-Italic findfont
dup length dict begin
  {1 index /FID ne {def} {pop pop} ifelse} forall
  /Encoding WinAnsiEncoding def
  currentdict
end
/Times-Italic exch definefont pop
/Times-Bold findfont
dup length dict begin
  {1 index /FID ne {def} {pop pop} ifelse} forall
  /Encoding WinAnsiEncoding def
  currentdict
end
/Times-Bold exch definefont pop
%FOPEndFontReencode
%%EndProlog
%%Page: 1 1
%%PageBoundingBox: 0 0 731 344
%%BeginPageSetup
[1 0 0 -1 0 344] CT
%%EndPageSetup
GS
[0.75 0 0 0.75 0 0.5] CT
N
0 0 M
975 0 L
975 458 L
0 458 L
0 0 L
cp
clip
1 GC
N
0 0 975 458 re
f
GR
GS
[0.75 0 0 0.75 0 0.5] CT
1 GC
N
0 0 975 458 re
f
GR
GS
[0.75 0 0 0.75 0 0.5] CT
1 GC
N
127 188 M
882 188 L
882 34 L
127 34 L
cp
f
GR
GS
[0.75 0 0 0.75 378.37537 23.93749] CT
/Helvetica-Bold 14.667 F
GS
[1 0 0 1 0 0] CT
-126.5 -4 moveto 
1 -1 scale
(Comparison of rotation errors) t 
GR
GR
GS
[0.75 0 0 0.75 0 0.5] CT
0.149 GC
1 LJ
0.667 LW
N
127 188 M
882 188 L
S
GR
GS
[0.75 0 0 0.75 0 0.5] CT
0.929 0.694 0.125 RC
N
143.473 188 M
147.133 188 L
147.133 163.037 L
143.473 163.037 L
cp
f
GR
GS
[0.75 0 0 0.75 0 0.5] CT
0.929 0.694 0.125 RC
N
168.639 188 M
172.3 188 L
172.3 177.495 L
168.639 177.495 L
cp
f
GR
GS
[0.75 0 0 0.75 0 0.5] CT
0.929 0.694 0.125 RC
N
193.806 188 M
197.467 188 L
197.467 175.512 L
193.806 175.512 L
cp
f
GR
GS
[0.75 0 0 0.75 0 0.5] CT
0.929 0.694 0.125 RC
N
218.973 188 M
222.633 188 L
222.633 62.544 L
218.973 62.544 L
cp
f
GR
GS
[0.75 0 0 0.75 0 0.5] CT
0.929 0.694 0.125 RC
N
244.139 188 M
247.8 188 L
247.8 115.798 L
244.139 115.798 L
cp
f
GR
GS
[0.75 0 0 0.75 0 0.5] CT
0.929 0.694 0.125 RC
N
269.306 188 M
272.967 188 L
272.967 128.668 L
269.306 128.668 L
cp
f
GR
GS
[0.75 0 0 0.75 0 0.5] CT
0.929 0.694 0.125 RC
N
294.473 188 M
298.133 188 L
298.133 183.281 L
294.473 183.281 L
cp
f
GR
GS
[0.75 0 0 0.75 0 0.5] CT
0.929 0.694 0.125 RC
N
319.639 188 M
323.3 188 L
323.3 186.965 L
319.639 186.965 L
cp
f
GR
GS
[0.75 0 0 0.75 0 0.5] CT
0.929 0.694 0.125 RC
N
344.806 188 M
348.467 188 L
348.467 170.281 L
344.806 170.281 L
cp
f
GR
GS
[0.75 0 0 0.75 0 0.5] CT
0.929 0.694 0.125 RC
N
369.973 188 M
373.633 188 L
373.633 115.969 L
369.973 115.969 L
cp
f
GR
GS
[0.75 0 0 0.75 0 0.5] CT
0.929 0.694 0.125 RC
N
395.139 188 M
398.8 188 L
398.8 136.528 L
395.139 136.528 L
cp
f
GR
GS
[0.75 0 0 0.75 0 0.5] CT
0.929 0.694 0.125 RC
N
420.306 188 M
423.967 188 L
423.967 164.694 L
420.306 164.694 L
cp
f
GR
GS
[0.75 0 0 0.75 0 0.5] CT
0.929 0.694 0.125 RC
N
445.473 188 M
449.133 188 L
449.133 154.923 L
445.473 154.923 L
cp
f
GR
GS
[0.75 0 0 0.75 0 0.5] CT
0.929 0.694 0.125 RC
N
470.639 188 M
474.3 188 L
474.3 177.018 L
470.639 177.018 L
cp
f
GR
GS
[0.75 0 0 0.75 0 0.5] CT
0.929 0.694 0.125 RC
N
495.806 188 M
499.467 188 L
499.467 181.844 L
495.806 181.844 L
cp
f
GR
GS
[0.75 0 0 0.75 0 0.5] CT
0.929 0.694 0.125 RC
N
520.973 188 M
524.633 188 L
524.633 123.49 L
520.973 123.49 L
cp
f
GR
GS
[0.75 0 0 0.75 0 0.5] CT
0.929 0.694 0.125 RC
N
546.139 188 M
549.8 188 L
549.8 187.967 L
546.139 187.967 L
cp
f
GR
GS
[0.75 0 0 0.75 0 0.5] CT
0.929 0.694 0.125 RC
N
571.306 188 M
574.967 188 L
574.967 113.014 L
571.306 113.014 L
cp
f
GR
GS
[0.75 0 0 0.75 0 0.5] CT
0.929 0.694 0.125 RC
N
596.473 188 M
600.133 188 L
600.133 187.967 L
596.473 187.967 L
cp
f
GR
GS
[0.75 0 0 0.75 0 0.5] CT
0.929 0.694 0.125 RC
N
621.639 188 M
625.3 188 L
625.3 187.671 L
621.639 187.671 L
cp
f
GR
GS
[0.75 0 0 0.75 0 0.5] CT
0.929 0.694 0.125 RC
N
646.806 188 M
650.467 188 L
650.467 131.022 L
646.806 131.022 L
cp
f
GR
GS
[0.75 0 0 0.75 0 0.5] CT
0.929 0.694 0.125 RC
N
671.973 188 M
675.633 188 L
675.633 163.153 L
671.973 163.153 L
cp
f
GR
GS
[0.75 0 0 0.75 0 0.5] CT
0.929 0.694 0.125 RC
N
697.139 188 M
700.8 188 L
700.8 115.22 L
697.139 115.22 L
cp
f
GR
GS
[0.75 0 0 0.75 0 0.5] CT
0.929 0.694 0.125 RC
N
722.306 188 M
725.967 188 L
725.967 123.803 L
722.306 123.803 L
cp
f
GR
GS
[0.75 0 0 0.75 0 0.5] CT
0.929 0.694 0.125 RC
N
747.473 188 M
751.133 188 L
751.133 139.363 L
747.473 139.363 L
cp
f
GR
GS
[0.75 0 0 0.75 0 0.5] CT
0.929 0.694 0.125 RC
N
772.639 188 M
776.3 188 L
776.3 151.27 L
772.639 151.27 L
cp
f
GR
GS
[0.75 0 0 0.75 0 0.5] CT
0.929 0.694 0.125 RC
N
797.806 188 M
801.467 188 L
801.467 170.926 L
797.806 170.926 L
cp
f
GR
GS
[0.75 0 0 0.75 0 0.5] CT
0.929 0.694 0.125 RC
N
822.973 188 M
826.633 188 L
826.633 159 L
822.973 159 L
cp
f
GR
GS
[0.75 0 0 0.75 0 0.5] CT
0.929 0.694 0.125 RC
N
848.139 188 M
851.8 188 L
851.8 160.806 L
848.139 160.806 L
cp
f
GR
GS
[0.75 0 0 0.75 0 0.5] CT
10.0 ML
0.667 LW
N
143.473 188 M
143.473 163.037 L
147.133 163.037 L
147.133 188 L
cp
S
GR
GS
[0.75 0 0 0.75 0 0.5] CT
10.0 ML
0.667 LW
N
168.639 188 M
168.639 177.495 L
172.3 177.495 L
172.3 188 L
cp
S
GR
GS
[0.75 0 0 0.75 0 0.5] CT
10.0 ML
0.667 LW
N
193.806 188 M
193.806 175.512 L
197.467 175.512 L
197.467 188 L
cp
S
GR
GS
[0.75 0 0 0.75 0 0.5] CT
10.0 ML
0.667 LW
N
218.973 188 M
218.973 62.544 L
222.633 62.544 L
222.633 188 L
cp
S
GR
GS
[0.75 0 0 0.75 0 0.5] CT
10.0 ML
0.667 LW
N
244.139 188 M
244.139 115.798 L
247.8 115.798 L
247.8 188 L
cp
S
GR
GS
[0.75 0 0 0.75 0 0.5] CT
10.0 ML
0.667 LW
N
269.306 188 M
269.306 128.668 L
272.967 128.668 L
272.967 188 L
cp
S
GR
GS
[0.75 0 0 0.75 0 0.5] CT
10.0 ML
0.667 LW
N
294.473 188 M
294.473 183.281 L
298.133 183.281 L
298.133 188 L
cp
S
GR
GS
[0.75 0 0 0.75 0 0.5] CT
10.0 ML
0.667 LW
N
319.639 188 M
319.639 186.965 L
323.3 186.965 L
323.3 188 L
cp
S
GR
GS
[0.75 0 0 0.75 0 0.5] CT
10.0 ML
0.667 LW
N
344.806 188 M
344.806 170.281 L
348.467 170.281 L
348.467 188 L
cp
S
GR
GS
[0.75 0 0 0.75 0 0.5] CT
10.0 ML
0.667 LW
N
369.973 188 M
369.973 115.969 L
373.633 115.969 L
373.633 188 L
cp
S
GR
GS
[0.75 0 0 0.75 0 0.5] CT
10.0 ML
0.667 LW
N
395.139 188 M
395.139 136.528 L
398.8 136.528 L
398.8 188 L
cp
S
GR
GS
[0.75 0 0 0.75 0 0.5] CT
10.0 ML
0.667 LW
N
420.306 188 M
420.306 164.694 L
423.967 164.694 L
423.967 188 L
cp
S
GR
GS
[0.75 0 0 0.75 0 0.5] CT
10.0 ML
0.667 LW
N
445.473 188 M
445.473 154.923 L
449.133 154.923 L
449.133 188 L
cp
S
GR
GS
[0.75 0 0 0.75 0 0.5] CT
10.0 ML
0.667 LW
N
470.639 188 M
470.639 177.018 L
474.3 177.018 L
474.3 188 L
cp
S
GR
GS
[0.75 0 0 0.75 0 0.5] CT
10.0 ML
0.667 LW
N
495.806 188 M
495.806 181.844 L
499.467 181.844 L
499.467 188 L
cp
S
GR
GS
[0.75 0 0 0.75 0 0.5] CT
10.0 ML
0.667 LW
N
520.973 188 M
520.973 123.49 L
524.633 123.49 L
524.633 188 L
cp
S
GR
GS
[0.75 0 0 0.75 0 0.5] CT
10.0 ML
0.667 LW
N
546.139 188 M
546.139 187.967 L
549.8 187.967 L
549.8 188 L
cp
S
GR
GS
[0.75 0 0 0.75 0 0.5] CT
10.0 ML
0.667 LW
N
571.306 188 M
571.306 113.014 L
574.967 113.014 L
574.967 188 L
cp
S
GR
GS
[0.75 0 0 0.75 0 0.5] CT
10.0 ML
0.667 LW
N
596.473 188 M
596.473 187.967 L
600.133 187.967 L
600.133 188 L
cp
S
GR
GS
[0.75 0 0 0.75 0 0.5] CT
10.0 ML
0.667 LW
N
621.639 188 M
621.639 187.671 L
625.3 187.671 L
625.3 188 L
cp
S
GR
GS
[0.75 0 0 0.75 0 0.5] CT
10.0 ML
0.667 LW
N
646.806 188 M
646.806 131.022 L
650.467 131.022 L
650.467 188 L
cp
S
GR
GS
[0.75 0 0 0.75 0 0.5] CT
10.0 ML
0.667 LW
N
671.973 188 M
671.973 163.153 L
675.633 163.153 L
675.633 188 L
cp
S
GR
GS
[0.75 0 0 0.75 0 0.5] CT
10.0 ML
0.667 LW
N
697.139 188 M
697.139 115.22 L
700.8 115.22 L
700.8 188 L
cp
S
GR
GS
[0.75 0 0 0.75 0 0.5] CT
10.0 ML
0.667 LW
N
722.306 188 M
722.306 123.803 L
725.967 123.803 L
725.967 188 L
cp
S
GR
GS
[0.75 0 0 0.75 0 0.5] CT
10.0 ML
0.667 LW
N
747.473 188 M
747.473 139.363 L
751.133 139.363 L
751.133 188 L
cp
S
GR
GS
[0.75 0 0 0.75 0 0.5] CT
10.0 ML
0.667 LW
N
772.639 188 M
772.639 151.27 L
776.3 151.27 L
776.3 188 L
cp
S
GR
GS
[0.75 0 0 0.75 0 0.5] CT
10.0 ML
0.667 LW
N
797.806 188 M
797.806 170.926 L
801.467 170.926 L
801.467 188 L
cp
S
GR
GS
[0.75 0 0 0.75 0 0.5] CT
10.0 ML
0.667 LW
N
822.973 188 M
822.973 159 L
826.633 159 L
826.633 188 L
cp
S
GR
GS
[0.75 0 0 0.75 0 0.5] CT
10.0 ML
0.667 LW
N
848.139 188 M
848.139 160.806 L
851.8 160.806 L
851.8 188 L
cp
S
GR
GS
[0.75 0 0 0.75 0 0.5] CT
0.302 0.745 0.933 RC
N
148.048 188 M
151.709 188 L
151.709 163.036 L
148.048 163.036 L
cp
f
GR
GS
[0.75 0 0 0.75 0 0.5] CT
0.302 0.745 0.933 RC
N
173.215 188 M
176.876 188 L
176.876 177.491 L
173.215 177.491 L
cp
f
GR
GS
[0.75 0 0 0.75 0 0.5] CT
0.302 0.745 0.933 RC
N
198.382 188 M
202.042 188 L
202.042 175.506 L
198.382 175.506 L
cp
f
GR
GS
[0.75 0 0 0.75 0 0.5] CT
0.302 0.745 0.933 RC
N
223.548 188 M
227.209 188 L
227.209 60.609 L
223.548 60.609 L
cp
f
GR
GS
[0.75 0 0 0.75 0 0.5] CT
0.302 0.745 0.933 RC
N
248.715 188 M
252.376 188 L
252.376 115.808 L
248.715 115.808 L
cp
f
GR
GS
[0.75 0 0 0.75 0 0.5] CT
0.302 0.745 0.933 RC
N
273.882 188 M
277.542 188 L
277.542 130.642 L
273.882 130.642 L
cp
f
GR
GS
[0.75 0 0 0.75 0 0.5] CT
0.302 0.745 0.933 RC
N
299.048 188 M
302.709 188 L
302.709 183.351 L
299.048 183.351 L
cp
f
GR
GS
[0.75 0 0 0.75 0 0.5] CT
0.302 0.745 0.933 RC
N
324.215 188 M
327.876 188 L
327.876 186.85 L
324.215 186.85 L
cp
f
GR
GS
[0.75 0 0 0.75 0 0.5] CT
0.302 0.745 0.933 RC
N
349.382 188 M
353.042 188 L
353.042 171.728 L
349.382 171.728 L
cp
f
GR
GS
[0.75 0 0 0.75 0 0.5] CT
0.302 0.745 0.933 RC
N
374.548 188 M
378.209 188 L
378.209 117.627 L
374.548 117.627 L
cp
f
GR
GS
[0.75 0 0 0.75 0 0.5] CT
0.302 0.745 0.933 RC
N
399.715 188 M
403.376 188 L
403.376 136.507 L
399.715 136.507 L
cp
f
GR
GS
[0.75 0 0 0.75 0 0.5] CT
0.302 0.745 0.933 RC
N
424.882 188 M
428.542 188 L
428.542 164.697 L
424.882 164.697 L
cp
f
GR
GS
[0.75 0 0 0.75 0 0.5] CT
0.302 0.745 0.933 RC
N
450.048 188 M
453.709 188 L
453.709 155.043 L
450.048 155.043 L
cp
f
GR
GS
[0.75 0 0 0.75 0 0.5] CT
0.302 0.745 0.933 RC
N
475.215 188 M
478.876 188 L
478.876 176.541 L
475.215 176.541 L
cp
f
GR
GS
[0.75 0 0 0.75 0 0.5] CT
0.302 0.745 0.933 RC
N
500.382 188 M
504.042 188 L
504.042 181.858 L
500.382 181.858 L
cp
f
GR
GS
[0.75 0 0 0.75 0 0.5] CT
0.302 0.745 0.933 RC
N
525.548 188 M
529.209 188 L
529.209 124.416 L
525.548 124.416 L
cp
f
GR
GS
[0.75 0 0 0.75 0 0.5] CT
0.302 0.745 0.933 RC
N
550.715 188 M
554.376 188 L
554.376 174.081 L
550.715 174.081 L
cp
f
GR
GS
[0.75 0 0 0.75 0 0.5] CT
0.302 0.745 0.933 RC
N
575.882 188 M
579.542 188 L
579.542 112.247 L
575.882 112.247 L
cp
f
GR
GS
[0.75 0 0 0.75 0 0.5] CT
0.302 0.745 0.933 RC
N
601.048 188 M
604.709 188 L
604.709 183.097 L
601.048 183.097 L
cp
f
GR
GS
[0.75 0 0 0.75 0 0.5] CT
0.302 0.745 0.933 RC
N
626.215 188 M
629.876 188 L
629.876 184.279 L
626.215 184.279 L
cp
f
GR
GS
[0.75 0 0 0.75 0 0.5] CT
0.302 0.745 0.933 RC
N
651.382 188 M
655.042 188 L
655.042 131.018 L
651.382 131.018 L
cp
f
GR
GS
[0.75 0 0 0.75 0 0.5] CT
0.302 0.745 0.933 RC
N
676.548 188 M
680.209 188 L
680.209 163.151 L
676.548 163.151 L
cp
f
GR
GS
[0.75 0 0 0.75 0 0.5] CT
0.302 0.745 0.933 RC
N
701.715 188 M
705.376 188 L
705.376 115.225 L
701.715 115.225 L
cp
f
GR
GS
[0.75 0 0 0.75 0 0.5] CT
0.302 0.745 0.933 RC
N
726.882 188 M
730.542 188 L
730.542 123.573 L
726.882 123.573 L
cp
f
GR
GS
[0.75 0 0 0.75 0 0.5] CT
0.302 0.745 0.933 RC
N
752.048 188 M
755.709 188 L
755.709 139.341 L
752.048 139.341 L
cp
f
GR
GS
[0.75 0 0 0.75 0 0.5] CT
0.302 0.745 0.933 RC
N
777.215 188 M
780.876 188 L
780.876 151.269 L
777.215 151.269 L
cp
f
GR
GS
[0.75 0 0 0.75 0 0.5] CT
0.302 0.745 0.933 RC
N
802.382 188 M
806.042 188 L
806.042 170.923 L
802.382 170.923 L
cp
f
GR
GS
[0.75 0 0 0.75 0 0.5] CT
0.302 0.745 0.933 RC
N
827.548 188 M
831.209 188 L
831.209 159 L
827.548 159 L
cp
f
GR
GS
[0.75 0 0 0.75 0 0.5] CT
0.302 0.745 0.933 RC
N
852.715 188 M
856.376 188 L
856.376 160.813 L
852.715 160.813 L
cp
f
GR
GS
[0.75 0 0 0.75 0 0.5] CT
10.0 ML
0.667 LW
N
148.048 188 M
148.048 163.036 L
151.709 163.036 L
151.709 188 L
cp
S
GR
GS
[0.75 0 0 0.75 0 0.5] CT
10.0 ML
0.667 LW
N
173.215 188 M
173.215 177.491 L
176.876 177.491 L
176.876 188 L
cp
S
GR
GS
[0.75 0 0 0.75 0 0.5] CT
10.0 ML
0.667 LW
N
198.382 188 M
198.382 175.506 L
202.042 175.506 L
202.042 188 L
cp
S
GR
GS
[0.75 0 0 0.75 0 0.5] CT
10.0 ML
0.667 LW
N
223.548 188 M
223.548 60.609 L
227.209 60.609 L
227.209 188 L
cp
S
GR
GS
[0.75 0 0 0.75 0 0.5] CT
10.0 ML
0.667 LW
N
248.715 188 M
248.715 115.808 L
252.376 115.808 L
252.376 188 L
cp
S
GR
GS
[0.75 0 0 0.75 0 0.5] CT
10.0 ML
0.667 LW
N
273.882 188 M
273.882 130.642 L
277.542 130.642 L
277.542 188 L
cp
S
GR
GS
[0.75 0 0 0.75 0 0.5] CT
10.0 ML
0.667 LW
N
299.048 188 M
299.048 183.351 L
302.709 183.351 L
302.709 188 L
cp
S
GR
GS
[0.75 0 0 0.75 0 0.5] CT
10.0 ML
0.667 LW
N
324.215 188 M
324.215 186.85 L
327.876 186.85 L
327.876 188 L
cp
S
GR
GS
[0.75 0 0 0.75 0 0.5] CT
10.0 ML
0.667 LW
N
349.382 188 M
349.382 171.728 L
353.042 171.728 L
353.042 188 L
cp
S
GR
GS
[0.75 0 0 0.75 0 0.5] CT
10.0 ML
0.667 LW
N
374.548 188 M
374.548 117.627 L
378.209 117.627 L
378.209 188 L
cp
S
GR
GS
[0.75 0 0 0.75 0 0.5] CT
10.0 ML
0.667 LW
N
399.715 188 M
399.715 136.507 L
403.376 136.507 L
403.376 188 L
cp
S
GR
GS
[0.75 0 0 0.75 0 0.5] CT
10.0 ML
0.667 LW
N
424.882 188 M
424.882 164.697 L
428.542 164.697 L
428.542 188 L
cp
S
GR
GS
[0.75 0 0 0.75 0 0.5] CT
10.0 ML
0.667 LW
N
450.048 188 M
450.048 155.043 L
453.709 155.043 L
453.709 188 L
cp
S
GR
GS
[0.75 0 0 0.75 0 0.5] CT
10.0 ML
0.667 LW
N
475.215 188 M
475.215 176.541 L
478.876 176.541 L
478.876 188 L
cp
S
GR
GS
[0.75 0 0 0.75 0 0.5] CT
10.0 ML
0.667 LW
N
500.382 188 M
500.382 181.858 L
504.042 181.858 L
504.042 188 L
cp
S
GR
GS
[0.75 0 0 0.75 0 0.5] CT
10.0 ML
0.667 LW
N
525.548 188 M
525.548 124.416 L
529.209 124.416 L
529.209 188 L
cp
S
GR
GS
[0.75 0 0 0.75 0 0.5] CT
10.0 ML
0.667 LW
N
550.715 188 M
550.715 174.081 L
554.376 174.081 L
554.376 188 L
cp
S
GR
GS
[0.75 0 0 0.75 0 0.5] CT
10.0 ML
0.667 LW
N
575.882 188 M
575.882 112.247 L
579.542 112.247 L
579.542 188 L
cp
S
GR
GS
[0.75 0 0 0.75 0 0.5] CT
10.0 ML
0.667 LW
N
601.048 188 M
601.048 183.097 L
604.709 183.097 L
604.709 188 L
cp
S
GR
GS
[0.75 0 0 0.75 0 0.5] CT
10.0 ML
0.667 LW
N
626.215 188 M
626.215 184.279 L
629.876 184.279 L
629.876 188 L
cp
S
GR
GS
[0.75 0 0 0.75 0 0.5] CT
10.0 ML
0.667 LW
N
651.382 188 M
651.382 131.018 L
655.042 131.018 L
655.042 188 L
cp
S
GR
GS
[0.75 0 0 0.75 0 0.5] CT
10.0 ML
0.667 LW
N
676.548 188 M
676.548 163.151 L
680.209 163.151 L
680.209 188 L
cp
S
GR
GS
[0.75 0 0 0.75 0 0.5] CT
10.0 ML
0.667 LW
N
701.715 188 M
701.715 115.225 L
705.376 115.225 L
705.376 188 L
cp
S
GR
GS
[0.75 0 0 0.75 0 0.5] CT
10.0 ML
0.667 LW
N
726.882 188 M
726.882 123.573 L
730.542 123.573 L
730.542 188 L
cp
S
GR
GS
[0.75 0 0 0.75 0 0.5] CT
10.0 ML
0.667 LW
N
752.048 188 M
752.048 139.341 L
755.709 139.341 L
755.709 188 L
cp
S
GR
GS
[0.75 0 0 0.75 0 0.5] CT
10.0 ML
0.667 LW
N
777.215 188 M
777.215 151.269 L
780.876 151.269 L
780.876 188 L
cp
S
GR
GS
[0.75 0 0 0.75 0 0.5] CT
10.0 ML
0.667 LW
N
802.382 188 M
802.382 170.923 L
806.042 170.923 L
806.042 188 L
cp
S
GR
GS
[0.75 0 0 0.75 0 0.5] CT
10.0 ML
0.667 LW
N
827.548 188 M
827.548 159 L
831.209 159 L
831.209 188 L
cp
S
GR
GS
[0.75 0 0 0.75 0 0.5] CT
10.0 ML
0.667 LW
N
852.715 188 M
852.715 160.813 L
856.376 160.813 L
856.376 188 L
cp
S
GR
GS
[0.75 0 0 0.75 0 0.5] CT
0.635 0.078 0.184 RC
N
152.624 188 M
156.285 188 L
156.285 163.036 L
152.624 163.036 L
cp
f
GR
GS
[0.75 0 0 0.75 0 0.5] CT
0.635 0.078 0.184 RC
N
177.791 188 M
181.452 188 L
181.452 177.491 L
177.791 177.491 L
cp
f
GR
GS
[0.75 0 0 0.75 0 0.5] CT
0.635 0.078 0.184 RC
N
202.958 188 M
206.618 188 L
206.618 175.508 L
202.958 175.508 L
cp
f
GR
GS
[0.75 0 0 0.75 0 0.5] CT
0.635 0.078 0.184 RC
N
228.124 188 M
231.785 188 L
231.785 60.608 L
228.124 60.608 L
cp
f
GR
GS
[0.75 0 0 0.75 0 0.5] CT
0.635 0.078 0.184 RC
N
253.291 188 M
256.952 188 L
256.952 115.808 L
253.291 115.808 L
cp
f
GR
GS
[0.75 0 0 0.75 0 0.5] CT
0.635 0.078 0.184 RC
N
278.458 188 M
282.118 188 L
282.118 130.646 L
278.458 130.646 L
cp
f
GR
GS
[0.75 0 0 0.75 0 0.5] CT
0.635 0.078 0.184 RC
N
303.624 188 M
307.285 188 L
307.285 183.262 L
303.624 183.262 L
cp
f
GR
GS
[0.75 0 0 0.75 0 0.5] CT
0.635 0.078 0.184 RC
N
328.791 188 M
332.452 188 L
332.452 186.919 L
328.791 186.919 L
cp
f
GR
GS
[0.75 0 0 0.75 0 0.5] CT
0.635 0.078 0.184 RC
N
353.958 188 M
357.618 188 L
357.618 171.729 L
353.958 171.729 L
cp
f
GR
GS
[0.75 0 0 0.75 0 0.5] CT
0.635 0.078 0.184 RC
N
379.124 188 M
382.785 188 L
382.785 117.632 L
379.124 117.632 L
cp
f
GR
GS
[0.75 0 0 0.75 0 0.5] CT
0.635 0.078 0.184 RC
N
404.291 188 M
407.952 188 L
407.952 136.507 L
404.291 136.507 L
cp
f
GR
GS
[0.75 0 0 0.75 0 0.5] CT
0.635 0.078 0.184 RC
N
429.458 188 M
433.118 188 L
433.118 164.697 L
429.458 164.697 L
cp
f
GR
GS
[0.75 0 0 0.75 0 0.5] CT
0.635 0.078 0.184 RC
N
454.624 188 M
458.285 188 L
458.285 155.05 L
454.624 155.05 L
cp
f
GR
GS
[0.75 0 0 0.75 0 0.5] CT
0.635 0.078 0.184 RC
N
479.791 188 M
483.452 188 L
483.452 176.584 L
479.791 176.584 L
cp
f
GR
GS
[0.75 0 0 0.75 0 0.5] CT
0.635 0.078 0.184 RC
N
504.958 188 M
508.618 188 L
508.618 181.858 L
504.958 181.858 L
cp
f
GR
GS
[0.75 0 0 0.75 0 0.5] CT
0.635 0.078 0.184 RC
N
530.124 188 M
533.785 188 L
533.785 124.416 L
530.124 124.416 L
cp
f
GR
GS
[0.75 0 0 0.75 0 0.5] CT
0.635 0.078 0.184 RC
N
555.291 188 M
558.952 188 L
558.952 174.094 L
555.291 174.094 L
cp
f
GR
GS
[0.75 0 0 0.75 0 0.5] CT
0.635 0.078 0.184 RC
N
580.458 188 M
584.118 188 L
584.118 112.242 L
580.458 112.242 L
cp
f
GR
GS
[0.75 0 0 0.75 0 0.5] CT
0.635 0.078 0.184 RC
N
605.624 188 M
609.285 188 L
609.285 183.113 L
605.624 183.113 L
cp
f
GR
GS
[0.75 0 0 0.75 0 0.5] CT
0.635 0.078 0.184 RC
N
630.791 188 M
634.452 188 L
634.452 184.321 L
630.791 184.321 L
cp
f
GR
GS
[0.75 0 0 0.75 0 0.5] CT
0.635 0.078 0.184 RC
N
655.958 188 M
659.618 188 L
659.618 131.018 L
655.958 131.018 L
cp
f
GR
GS
[0.75 0 0 0.75 0 0.5] CT
0.635 0.078 0.184 RC
N
681.124 188 M
684.785 188 L
684.785 163.151 L
681.124 163.151 L
cp
f
GR
GS
[0.75 0 0 0.75 0 0.5] CT
0.635 0.078 0.184 RC
N
706.291 188 M
709.952 188 L
709.952 115.225 L
706.291 115.225 L
cp
f
GR
GS
[0.75 0 0 0.75 0 0.5] CT
0.635 0.078 0.184 RC
N
731.458 188 M
735.118 188 L
735.118 123.574 L
731.458 123.574 L
cp
f
GR
GS
[0.75 0 0 0.75 0 0.5] CT
0.635 0.078 0.184 RC
N
756.624 188 M
760.285 188 L
760.285 139.342 L
756.624 139.342 L
cp
f
GR
GS
[0.75 0 0 0.75 0 0.5] CT
0.635 0.078 0.184 RC
N
781.791 188 M
785.452 188 L
785.452 151.272 L
781.791 151.272 L
cp
f
GR
GS
[0.75 0 0 0.75 0 0.5] CT
0.635 0.078 0.184 RC
N
806.958 188 M
810.618 188 L
810.618 170.923 L
806.958 170.923 L
cp
f
GR
GS
[0.75 0 0 0.75 0 0.5] CT
0.635 0.078 0.184 RC
N
832.124 188 M
835.785 188 L
835.785 159.001 L
832.124 159.001 L
cp
f
GR
GS
[0.75 0 0 0.75 0 0.5] CT
0.635 0.078 0.184 RC
N
857.291 188 M
860.952 188 L
860.952 160.813 L
857.291 160.813 L
cp
f
GR
GS
[0.75 0 0 0.75 0 0.5] CT
10.0 ML
0.667 LW
N
152.624 188 M
152.624 163.036 L
156.285 163.036 L
156.285 188 L
cp
S
GR
GS
[0.75 0 0 0.75 0 0.5] CT
10.0 ML
0.667 LW
N
177.791 188 M
177.791 177.491 L
181.452 177.491 L
181.452 188 L
cp
S
GR
GS
[0.75 0 0 0.75 0 0.5] CT
10.0 ML
0.667 LW
N
202.958 188 M
202.958 175.508 L
206.618 175.508 L
206.618 188 L
cp
S
GR
GS
[0.75 0 0 0.75 0 0.5] CT
10.0 ML
0.667 LW
N
228.124 188 M
228.124 60.608 L
231.785 60.608 L
231.785 188 L
cp
S
GR
GS
[0.75 0 0 0.75 0 0.5] CT
10.0 ML
0.667 LW
N
253.291 188 M
253.291 115.808 L
256.952 115.808 L
256.952 188 L
cp
S
GR
GS
[0.75 0 0 0.75 0 0.5] CT
10.0 ML
0.667 LW
N
278.458 188 M
278.458 130.646 L
282.118 130.646 L
282.118 188 L
cp
S
GR
GS
[0.75 0 0 0.75 0 0.5] CT
10.0 ML
0.667 LW
N
303.624 188 M
303.624 183.262 L
307.285 183.262 L
307.285 188 L
cp
S
GR
GS
[0.75 0 0 0.75 0 0.5] CT
10.0 ML
0.667 LW
N
328.791 188 M
328.791 186.919 L
332.452 186.919 L
332.452 188 L
cp
S
GR
GS
[0.75 0 0 0.75 0 0.5] CT
10.0 ML
0.667 LW
N
353.958 188 M
353.958 171.729 L
357.618 171.729 L
357.618 188 L
cp
S
GR
GS
[0.75 0 0 0.75 0 0.5] CT
10.0 ML
0.667 LW
N
379.124 188 M
379.124 117.632 L
382.785 117.632 L
382.785 188 L
cp
S
GR
GS
[0.75 0 0 0.75 0 0.5] CT
10.0 ML
0.667 LW
N
404.291 188 M
404.291 136.507 L
407.952 136.507 L
407.952 188 L
cp
S
GR
GS
[0.75 0 0 0.75 0 0.5] CT
10.0 ML
0.667 LW
N
429.458 188 M
429.458 164.697 L
433.118 164.697 L
433.118 188 L
cp
S
GR
GS
[0.75 0 0 0.75 0 0.5] CT
10.0 ML
0.667 LW
N
454.624 188 M
454.624 155.05 L
458.285 155.05 L
458.285 188 L
cp
S
GR
GS
[0.75 0 0 0.75 0 0.5] CT
10.0 ML
0.667 LW
N
479.791 188 M
479.791 176.584 L
483.452 176.584 L
483.452 188 L
cp
S
GR
GS
[0.75 0 0 0.75 0 0.5] CT
10.0 ML
0.667 LW
N
504.958 188 M
504.958 181.858 L
508.618 181.858 L
508.618 188 L
cp
S
GR
GS
[0.75 0 0 0.75 0 0.5] CT
10.0 ML
0.667 LW
N
530.124 188 M
530.124 124.416 L
533.785 124.416 L
533.785 188 L
cp
S
GR
GS
[0.75 0 0 0.75 0 0.5] CT
10.0 ML
0.667 LW
N
555.291 188 M
555.291 174.094 L
558.952 174.094 L
558.952 188 L
cp
S
GR
GS
[0.75 0 0 0.75 0 0.5] CT
10.0 ML
0.667 LW
N
580.458 188 M
580.458 112.242 L
584.118 112.242 L
584.118 188 L
cp
S
GR
GS
[0.75 0 0 0.75 0 0.5] CT
10.0 ML
0.667 LW
N
605.624 188 M
605.624 183.113 L
609.285 183.113 L
609.285 188 L
cp
S
GR
GS
[0.75 0 0 0.75 0 0.5] CT
10.0 ML
0.667 LW
N
630.791 188 M
630.791 184.321 L
634.452 184.321 L
634.452 188 L
cp
S
GR
GS
[0.75 0 0 0.75 0 0.5] CT
10.0 ML
0.667 LW
N
655.958 188 M
655.958 131.018 L
659.618 131.018 L
659.618 188 L
cp
S
GR
GS
[0.75 0 0 0.75 0 0.5] CT
10.0 ML
0.667 LW
N
681.124 188 M
681.124 163.151 L
684.785 163.151 L
684.785 188 L
cp
S
GR
GS
[0.75 0 0 0.75 0 0.5] CT
10.0 ML
0.667 LW
N
706.291 188 M
706.291 115.225 L
709.952 115.225 L
709.952 188 L
cp
S
GR
GS
[0.75 0 0 0.75 0 0.5] CT
10.0 ML
0.667 LW
N
731.458 188 M
731.458 123.574 L
735.118 123.574 L
735.118 188 L
cp
S
GR
GS
[0.75 0 0 0.75 0 0.5] CT
10.0 ML
0.667 LW
N
756.624 188 M
756.624 139.342 L
760.285 139.342 L
760.285 188 L
cp
S
GR
GS
[0.75 0 0 0.75 0 0.5] CT
10.0 ML
0.667 LW
N
781.791 188 M
781.791 151.272 L
785.452 151.272 L
785.452 188 L
cp
S
GR
GS
[0.75 0 0 0.75 0 0.5] CT
10.0 ML
0.667 LW
N
806.958 188 M
806.958 170.923 L
810.618 170.923 L
810.618 188 L
cp
S
GR
GS
[0.75 0 0 0.75 0 0.5] CT
10.0 ML
0.667 LW
N
832.124 188 M
832.124 159.001 L
835.785 159.001 L
835.785 188 L
cp
S
GR
GS
[0.75 0 0 0.75 0 0.5] CT
10.0 ML
0.667 LW
N
857.291 188 M
857.291 160.813 L
860.952 160.813 L
860.952 188 L
cp
S
GR
GS
[0.75 0 0 0.75 0 0.5] CT
0.467 0.675 0.188 RC
N
157.2 188 M
160.861 188 L
160.861 163.155 L
157.2 163.155 L
cp
f
GR
GS
[0.75 0 0 0.75 0 0.5] CT
0.467 0.675 0.188 RC
N
182.367 188 M
186.027 188 L
186.027 177.421 L
182.367 177.421 L
cp
f
GR
GS
[0.75 0 0 0.75 0 0.5] CT
0.467 0.675 0.188 RC
N
207.533 188 M
211.194 188 L
211.194 175.515 L
207.533 175.515 L
cp
f
GR
GS
[0.75 0 0 0.75 0 0.5] CT
0.467 0.675 0.188 RC
N
232.7 188 M
236.361 188 L
236.361 60.684 L
232.7 60.684 L
cp
f
GR
GS
[0.75 0 0 0.75 0 0.5] CT
0.467 0.675 0.188 RC
N
257.867 188 M
261.527 188 L
261.527 116.169 L
257.867 116.169 L
cp
f
GR
GS
[0.75 0 0 0.75 0 0.5] CT
0.467 0.675 0.188 RC
N
283.033 188 M
286.694 188 L
286.694 130.526 L
283.033 130.526 L
cp
f
GR
GS
[0.75 0 0 0.75 0 0.5] CT
0.467 0.675 0.188 RC
N
308.2 188 M
311.861 188 L
311.861 183.082 L
308.2 183.082 L
cp
f
GR
GS
[0.75 0 0 0.75 0 0.5] CT
0.467 0.675 0.188 RC
N
333.367 188 M
337.027 188 L
337.027 186.996 L
333.367 186.996 L
cp
f
GR
GS
[0.75 0 0 0.75 0 0.5] CT
0.467 0.675 0.188 RC
N
358.533 188 M
362.194 188 L
362.194 171.472 L
358.533 171.472 L
cp
f
GR
GS
[0.75 0 0 0.75 0 0.5] CT
0.467 0.675 0.188 RC
N
383.7 188 M
387.361 188 L
387.361 117.44 L
383.7 117.44 L
cp
f
GR
GS
[0.75 0 0 0.75 0 0.5] CT
0.467 0.675 0.188 RC
N
408.867 188 M
412.527 188 L
412.527 136.412 L
408.867 136.412 L
cp
f
GR
GS
[0.75 0 0 0.75 0 0.5] CT
0.467 0.675 0.188 RC
N
434.033 188 M
437.694 188 L
437.694 164.699 L
434.033 164.699 L
cp
f
GR
GS
[0.75 0 0 0.75 0 0.5] CT
0.467 0.675 0.188 RC
N
459.2 188 M
462.861 188 L
462.861 155.145 L
459.2 155.145 L
cp
f
GR
GS
[0.75 0 0 0.75 0 0.5] CT
0.467 0.675 0.188 RC
N
484.367 188 M
488.027 188 L
488.027 176.642 L
484.367 176.642 L
cp
f
GR
GS
[0.75 0 0 0.75 0 0.5] CT
0.467 0.675 0.188 RC
N
509.533 188 M
513.194 188 L
513.194 181.872 L
509.533 181.872 L
cp
f
GR
GS
[0.75 0 0 0.75 0 0.5] CT
0.467 0.675 0.188 RC
N
534.7 188 M
538.361 188 L
538.361 124.379 L
534.7 124.379 L
cp
f
GR
GS
[0.75 0 0 0.75 0 0.5] CT
0.467 0.675 0.188 RC
N
559.867 188 M
563.527 188 L
563.527 173.584 L
559.867 173.584 L
cp
f
GR
GS
[0.75 0 0 0.75 0 0.5] CT
0.467 0.675 0.188 RC
N
585.033 188 M
588.694 188 L
588.694 112.389 L
585.033 112.389 L
cp
f
GR
GS
[0.75 0 0 0.75 0 0.5] CT
0.467 0.675 0.188 RC
N
610.2 188 M
613.861 188 L
613.861 181.63 L
610.2 181.63 L
cp
f
GR
GS
[0.75 0 0 0.75 0 0.5] CT
0.467 0.675 0.188 RC
N
635.367 188 M
639.027 188 L
639.027 185.631 L
635.367 185.631 L
cp
f
GR
GS
[0.75 0 0 0.75 0 0.5] CT
0.467 0.675 0.188 RC
N
660.533 188 M
664.194 188 L
664.194 130.968 L
660.533 130.968 L
cp
f
GR
GS
[0.75 0 0 0.75 0 0.5] CT
0.467 0.675 0.188 RC
N
685.7 188 M
689.361 188 L
689.361 126.463 L
685.7 126.463 L
cp
f
GR
GS
[0.75 0 0 0.75 0 0.5] CT
0.467 0.675 0.188 RC
N
710.867 188 M
714.527 188 L
714.527 115.244 L
710.867 115.244 L
cp
f
GR
GS
[0.75 0 0 0.75 0 0.5] CT
0.467 0.675 0.188 RC
N
736.033 188 M
739.694 188 L
739.694 123.588 L
736.033 123.588 L
cp
f
GR
GS
[0.75 0 0 0.75 0 0.5] CT
0.467 0.675 0.188 RC
N
761.2 188 M
764.861 188 L
764.861 139.26 L
761.2 139.26 L
cp
f
GR
GS
[0.75 0 0 0.75 0 0.5] CT
0.467 0.675 0.188 RC
N
786.367 188 M
790.027 188 L
790.027 151.41 L
786.367 151.41 L
cp
f
GR
GS
[0.75 0 0 0.75 0 0.5] CT
0.467 0.675 0.188 RC
N
811.533 188 M
815.194 188 L
815.194 171.022 L
811.533 171.022 L
cp
f
GR
GS
[0.75 0 0 0.75 0 0.5] CT
0.467 0.675 0.188 RC
N
836.7 188 M
840.361 188 L
840.361 130.844 L
836.7 130.844 L
cp
f
GR
GS
[0.75 0 0 0.75 0 0.5] CT
0.467 0.675 0.188 RC
N
861.867 188 M
865.527 188 L
865.527 160.81 L
861.867 160.81 L
cp
f
GR
GS
[0.75 0 0 0.75 0 0.5] CT
10.0 ML
0.667 LW
N
157.2 188 M
157.2 163.155 L
160.861 163.155 L
160.861 188 L
cp
S
GR
GS
[0.75 0 0 0.75 0 0.5] CT
10.0 ML
0.667 LW
N
182.367 188 M
182.367 177.421 L
186.027 177.421 L
186.027 188 L
cp
S
GR
GS
[0.75 0 0 0.75 0 0.5] CT
10.0 ML
0.667 LW
N
207.533 188 M
207.533 175.515 L
211.194 175.515 L
211.194 188 L
cp
S
GR
GS
[0.75 0 0 0.75 0 0.5] CT
10.0 ML
0.667 LW
N
232.7 188 M
232.7 60.684 L
236.361 60.684 L
236.361 188 L
cp
S
GR
GS
[0.75 0 0 0.75 0 0.5] CT
10.0 ML
0.667 LW
N
257.867 188 M
257.867 116.169 L
261.527 116.169 L
261.527 188 L
cp
S
GR
GS
[0.75 0 0 0.75 0 0.5] CT
10.0 ML
0.667 LW
N
283.033 188 M
283.033 130.526 L
286.694 130.526 L
286.694 188 L
cp
S
GR
GS
[0.75 0 0 0.75 0 0.5] CT
10.0 ML
0.667 LW
N
308.2 188 M
308.2 183.082 L
311.861 183.082 L
311.861 188 L
cp
S
GR
GS
[0.75 0 0 0.75 0 0.5] CT
10.0 ML
0.667 LW
N
333.367 188 M
333.367 186.996 L
337.027 186.996 L
337.027 188 L
cp
S
GR
GS
[0.75 0 0 0.75 0 0.5] CT
10.0 ML
0.667 LW
N
358.533 188 M
358.533 171.472 L
362.194 171.472 L
362.194 188 L
cp
S
GR
GS
[0.75 0 0 0.75 0 0.5] CT
10.0 ML
0.667 LW
N
383.7 188 M
383.7 117.44 L
387.361 117.44 L
387.361 188 L
cp
S
GR
GS
[0.75 0 0 0.75 0 0.5] CT
10.0 ML
0.667 LW
N
408.867 188 M
408.867 136.412 L
412.527 136.412 L
412.527 188 L
cp
S
GR
GS
[0.75 0 0 0.75 0 0.5] CT
10.0 ML
0.667 LW
N
434.033 188 M
434.033 164.699 L
437.694 164.699 L
437.694 188 L
cp
S
GR
GS
[0.75 0 0 0.75 0 0.5] CT
10.0 ML
0.667 LW
N
459.2 188 M
459.2 155.145 L
462.861 155.145 L
462.861 188 L
cp
S
GR
GS
[0.75 0 0 0.75 0 0.5] CT
10.0 ML
0.667 LW
N
484.367 188 M
484.367 176.642 L
488.027 176.642 L
488.027 188 L
cp
S
GR
GS
[0.75 0 0 0.75 0 0.5] CT
10.0 ML
0.667 LW
N
509.533 188 M
509.533 181.872 L
513.194 181.872 L
513.194 188 L
cp
S
GR
GS
[0.75 0 0 0.75 0 0.5] CT
10.0 ML
0.667 LW
N
534.7 188 M
534.7 124.379 L
538.361 124.379 L
538.361 188 L
cp
S
GR
GS
[0.75 0 0 0.75 0 0.5] CT
10.0 ML
0.667 LW
N
559.867 188 M
559.867 173.584 L
563.527 173.584 L
563.527 188 L
cp
S
GR
GS
[0.75 0 0 0.75 0 0.5] CT
10.0 ML
0.667 LW
N
585.033 188 M
585.033 112.389 L
588.694 112.389 L
588.694 188 L
cp
S
GR
GS
[0.75 0 0 0.75 0 0.5] CT
10.0 ML
0.667 LW
N
610.2 188 M
610.2 181.63 L
613.861 181.63 L
613.861 188 L
cp
S
GR
GS
[0.75 0 0 0.75 0 0.5] CT
10.0 ML
0.667 LW
N
635.367 188 M
635.367 185.631 L
639.027 185.631 L
639.027 188 L
cp
S
GR
GS
[0.75 0 0 0.75 0 0.5] CT
10.0 ML
0.667 LW
N
660.533 188 M
660.533 130.968 L
664.194 130.968 L
664.194 188 L
cp
S
GR
GS
[0.75 0 0 0.75 0 0.5] CT
10.0 ML
0.667 LW
N
685.7 188 M
685.7 126.463 L
689.361 126.463 L
689.361 188 L
cp
S
GR
GS
[0.75 0 0 0.75 0 0.5] CT
10.0 ML
0.667 LW
N
710.867 188 M
710.867 115.244 L
714.527 115.244 L
714.527 188 L
cp
S
GR
GS
[0.75 0 0 0.75 0 0.5] CT
10.0 ML
0.667 LW
N
736.033 188 M
736.033 123.588 L
739.694 123.588 L
739.694 188 L
cp
S
GR
GS
[0.75 0 0 0.75 0 0.5] CT
10.0 ML
0.667 LW
N
761.2 188 M
761.2 139.26 L
764.861 139.26 L
764.861 188 L
cp
S
GR
GS
[0.75 0 0 0.75 0 0.5] CT
10.0 ML
0.667 LW
N
786.367 188 M
786.367 151.41 L
790.027 151.41 L
790.027 188 L
cp
S
GR
GS
[0.75 0 0 0.75 0 0.5] CT
10.0 ML
0.667 LW
N
811.533 188 M
811.533 171.022 L
815.194 171.022 L
815.194 188 L
cp
S
GR
GS
[0.75 0 0 0.75 0 0.5] CT
10.0 ML
0.667 LW
N
836.7 188 M
836.7 130.844 L
840.361 130.844 L
840.361 188 L
cp
S
GR
GS
[0.75 0 0 0.75 0 0.5] CT
10.0 ML
0.667 LW
N
861.867 188 M
861.867 160.81 L
865.527 160.81 L
865.527 188 L
cp
S
GR
GS
[0.75 0 0 0.75 0 0.5] CT
0.149 GC
2 setlinecap
1 LJ
0.667 LW
N
127 188 M
882 188 L
S
GR
GS
[0.75 0 0 0.75 0 0.5] CT
0.149 GC
2 setlinecap
1 LJ
0.667 LW
N
127 34 M
882 34 L
S
GR
GS
[0.75 0 0 0.75 0 0.5] CT
0.149 GC
2 setlinecap
1 LJ
0.667 LW
N
152.167 188 M
152.167 180.45 L
S
GR
GS
[0.75 0 0 0.75 0 0.5] CT
0.149 GC
2 setlinecap
1 LJ
0.667 LW
N
177.333 188 M
177.333 180.45 L
S
GR
GS
[0.75 0 0 0.75 0 0.5] CT
0.149 GC
2 setlinecap
1 LJ
0.667 LW
N
202.5 188 M
202.5 180.45 L
S
GR
GS
[0.75 0 0 0.75 0 0.5] CT
0.149 GC
2 setlinecap
1 LJ
0.667 LW
N
227.667 188 M
227.667 180.45 L
S
GR
GS
[0.75 0 0 0.75 0 0.5] CT
0.149 GC
2 setlinecap
1 LJ
0.667 LW
N
252.833 188 M
252.833 180.45 L
S
GR
GS
[0.75 0 0 0.75 0 0.5] CT
0.149 GC
2 setlinecap
1 LJ
0.667 LW
N
278 188 M
278 180.45 L
S
GR
GS
[0.75 0 0 0.75 0 0.5] CT
0.149 GC
2 setlinecap
1 LJ
0.667 LW
N
303.167 188 M
303.167 180.45 L
S
GR
GS
[0.75 0 0 0.75 0 0.5] CT
0.149 GC
2 setlinecap
1 LJ
0.667 LW
N
328.333 188 M
328.333 180.45 L
S
GR
GS
[0.75 0 0 0.75 0 0.5] CT
0.149 GC
2 setlinecap
1 LJ
0.667 LW
N
353.5 188 M
353.5 180.45 L
S
GR
GS
[0.75 0 0 0.75 0 0.5] CT
0.149 GC
2 setlinecap
1 LJ
0.667 LW
N
378.667 188 M
378.667 180.45 L
S
GR
GS
[0.75 0 0 0.75 0 0.5] CT
0.149 GC
2 setlinecap
1 LJ
0.667 LW
N
403.833 188 M
403.833 180.45 L
S
GR
GS
[0.75 0 0 0.75 0 0.5] CT
0.149 GC
2 setlinecap
1 LJ
0.667 LW
N
429 188 M
429 180.45 L
S
GR
GS
[0.75 0 0 0.75 0 0.5] CT
0.149 GC
2 setlinecap
1 LJ
0.667 LW
N
454.167 188 M
454.167 180.45 L
S
GR
GS
[0.75 0 0 0.75 0 0.5] CT
0.149 GC
2 setlinecap
1 LJ
0.667 LW
N
479.333 188 M
479.333 180.45 L
S
GR
GS
[0.75 0 0 0.75 0 0.5] CT
0.149 GC
2 setlinecap
1 LJ
0.667 LW
N
504.5 188 M
504.5 180.45 L
S
GR
GS
[0.75 0 0 0.75 0 0.5] CT
0.149 GC
2 setlinecap
1 LJ
0.667 LW
N
529.667 188 M
529.667 180.45 L
S
GR
GS
[0.75 0 0 0.75 0 0.5] CT
0.149 GC
2 setlinecap
1 LJ
0.667 LW
N
554.833 188 M
554.833 180.45 L
S
GR
GS
[0.75 0 0 0.75 0 0.5] CT
0.149 GC
2 setlinecap
1 LJ
0.667 LW
N
580 188 M
580 180.45 L
S
GR
GS
[0.75 0 0 0.75 0 0.5] CT
0.149 GC
2 setlinecap
1 LJ
0.667 LW
N
605.167 188 M
605.167 180.45 L
S
GR
GS
[0.75 0 0 0.75 0 0.5] CT
0.149 GC
2 setlinecap
1 LJ
0.667 LW
N
630.333 188 M
630.333 180.45 L
S
GR
GS
[0.75 0 0 0.75 0 0.5] CT
0.149 GC
2 setlinecap
1 LJ
0.667 LW
N
655.5 188 M
655.5 180.45 L
S
GR
GS
[0.75 0 0 0.75 0 0.5] CT
0.149 GC
2 setlinecap
1 LJ
0.667 LW
N
680.667 188 M
680.667 180.45 L
S
GR
GS
[0.75 0 0 0.75 0 0.5] CT
0.149 GC
2 setlinecap
1 LJ
0.667 LW
N
705.833 188 M
705.833 180.45 L
S
GR
GS
[0.75 0 0 0.75 0 0.5] CT
0.149 GC
2 setlinecap
1 LJ
0.667 LW
N
731 188 M
731 180.45 L
S
GR
GS
[0.75 0 0 0.75 0 0.5] CT
0.149 GC
2 setlinecap
1 LJ
0.667 LW
N
756.167 188 M
756.167 180.45 L
S
GR
GS
[0.75 0 0 0.75 0 0.5] CT
0.149 GC
2 setlinecap
1 LJ
0.667 LW
N
781.333 188 M
781.333 180.45 L
S
GR
GS
[0.75 0 0 0.75 0 0.5] CT
0.149 GC
2 setlinecap
1 LJ
0.667 LW
N
806.5 188 M
806.5 180.45 L
S
GR
GS
[0.75 0 0 0.75 0 0.5] CT
0.149 GC
2 setlinecap
1 LJ
0.667 LW
N
831.667 188 M
831.667 180.45 L
S
GR
GS
[0.75 0 0 0.75 0 0.5] CT
0.149 GC
2 setlinecap
1 LJ
0.667 LW
N
856.833 188 M
856.833 180.45 L
S
GR
GS
[0.75 0 0 0.75 0 0.5] CT
0.149 GC
2 setlinecap
1 LJ
0.667 LW
N
152.167 34 M
152.167 41.55 L
S
GR
GS
[0.75 0 0 0.75 0 0.5] CT
0.149 GC
2 setlinecap
1 LJ
0.667 LW
N
177.333 34 M
177.333 41.55 L
S
GR
GS
[0.75 0 0 0.75 0 0.5] CT
0.149 GC
2 setlinecap
1 LJ
0.667 LW
N
202.5 34 M
202.5 41.55 L
S
GR
GS
[0.75 0 0 0.75 0 0.5] CT
0.149 GC
2 setlinecap
1 LJ
0.667 LW
N
227.667 34 M
227.667 41.55 L
S
GR
GS
[0.75 0 0 0.75 0 0.5] CT
0.149 GC
2 setlinecap
1 LJ
0.667 LW
N
252.833 34 M
252.833 41.55 L
S
GR
GS
[0.75 0 0 0.75 0 0.5] CT
0.149 GC
2 setlinecap
1 LJ
0.667 LW
N
278 34 M
278 41.55 L
S
GR
GS
[0.75 0 0 0.75 0 0.5] CT
0.149 GC
2 setlinecap
1 LJ
0.667 LW
N
303.167 34 M
303.167 41.55 L
S
GR
GS
[0.75 0 0 0.75 0 0.5] CT
0.149 GC
2 setlinecap
1 LJ
0.667 LW
N
328.333 34 M
328.333 41.55 L
S
GR
GS
[0.75 0 0 0.75 0 0.5] CT
0.149 GC
2 setlinecap
1 LJ
0.667 LW
N
353.5 34 M
353.5 41.55 L
S
GR
GS
[0.75 0 0 0.75 0 0.5] CT
0.149 GC
2 setlinecap
1 LJ
0.667 LW
N
378.667 34 M
378.667 41.55 L
S
GR
GS
[0.75 0 0 0.75 0 0.5] CT
0.149 GC
2 setlinecap
1 LJ
0.667 LW
N
403.833 34 M
403.833 41.55 L
S
GR
GS
[0.75 0 0 0.75 0 0.5] CT
0.149 GC
2 setlinecap
1 LJ
0.667 LW
N
429 34 M
429 41.55 L
S
GR
GS
[0.75 0 0 0.75 0 0.5] CT
0.149 GC
2 setlinecap
1 LJ
0.667 LW
N
454.167 34 M
454.167 41.55 L
S
GR
GS
[0.75 0 0 0.75 0 0.5] CT
0.149 GC
2 setlinecap
1 LJ
0.667 LW
N
479.333 34 M
479.333 41.55 L
S
GR
GS
[0.75 0 0 0.75 0 0.5] CT
0.149 GC
2 setlinecap
1 LJ
0.667 LW
N
504.5 34 M
504.5 41.55 L
S
GR
GS
[0.75 0 0 0.75 0 0.5] CT
0.149 GC
2 setlinecap
1 LJ
0.667 LW
N
529.667 34 M
529.667 41.55 L
S
GR
GS
[0.75 0 0 0.75 0 0.5] CT
0.149 GC
2 setlinecap
1 LJ
0.667 LW
N
554.833 34 M
554.833 41.55 L
S
GR
GS
[0.75 0 0 0.75 0 0.5] CT
0.149 GC
2 setlinecap
1 LJ
0.667 LW
N
580 34 M
580 41.55 L
S
GR
GS
[0.75 0 0 0.75 0 0.5] CT
0.149 GC
2 setlinecap
1 LJ
0.667 LW
N
605.167 34 M
605.167 41.55 L
S
GR
GS
[0.75 0 0 0.75 0 0.5] CT
0.149 GC
2 setlinecap
1 LJ
0.667 LW
N
630.333 34 M
630.333 41.55 L
S
GR
GS
[0.75 0 0 0.75 0 0.5] CT
0.149 GC
2 setlinecap
1 LJ
0.667 LW
N
655.5 34 M
655.5 41.55 L
S
GR
GS
[0.75 0 0 0.75 0 0.5] CT
0.149 GC
2 setlinecap
1 LJ
0.667 LW
N
680.667 34 M
680.667 41.55 L
S
GR
GS
[0.75 0 0 0.75 0 0.5] CT
0.149 GC
2 setlinecap
1 LJ
0.667 LW
N
705.833 34 M
705.833 41.55 L
S
GR
GS
[0.75 0 0 0.75 0 0.5] CT
0.149 GC
2 setlinecap
1 LJ
0.667 LW
N
731 34 M
731 41.55 L
S
GR
GS
[0.75 0 0 0.75 0 0.5] CT
0.149 GC
2 setlinecap
1 LJ
0.667 LW
N
756.167 34 M
756.167 41.55 L
S
GR
GS
[0.75 0 0 0.75 0 0.5] CT
0.149 GC
2 setlinecap
1 LJ
0.667 LW
N
781.333 34 M
781.333 41.55 L
S
GR
GS
[0.75 0 0 0.75 0 0.5] CT
0.149 GC
2 setlinecap
1 LJ
0.667 LW
N
806.5 34 M
806.5 41.55 L
S
GR
GS
[0.75 0 0 0.75 0 0.5] CT
0.149 GC
2 setlinecap
1 LJ
0.667 LW
N
831.667 34 M
831.667 41.55 L
S
GR
GS
[0.75 0 0 0.75 0 0.5] CT
0.149 GC
2 setlinecap
1 LJ
0.667 LW
N
856.833 34 M
856.833 41.55 L
S
GR
GS
[0.75 0 0 0.75 114.125 145.5] CT
0.149 GC
/Helvetica 13.333 F
GS
[1 0 0 1 0 0] CT
-4.5 13 moveto 
1 -1 scale
(1) t 
GR
GR
GS
[0.75 0 0 0.75 133 145.5] CT
0.149 GC
/Helvetica 13.333 F
GS
[1 0 0 1 0 0] CT
-4.5 13 moveto 
1 -1 scale
(2) t 
GR
GR
GS
[0.75 0 0 0.75 151.875 145.5] CT
0.149 GC
/Helvetica 13.333 F
GS
[1 0 0 1 0 0] CT
-4.5 13 moveto 
1 -1 scale
(3) t 
GR
GR
GS
[0.75 0 0 0.75 170.75 145.5] CT
0.149 GC
/Helvetica 13.333 F
GS
[1 0 0 1 0 0] CT
-4.5 13 moveto 
1 -1 scale
(4) t 
GR
GR
GS
[0.75 0 0 0.75 189.625 145.5] CT
0.149 GC
/Helvetica 13.333 F
GS
[1 0 0 1 0 0] CT
-4.5 13 moveto 
1 -1 scale
(5) t 
GR
GR
GS
[0.75 0 0 0.75 208.5 145.5] CT
0.149 GC
/Helvetica 13.333 F
GS
[1 0 0 1 0 0] CT
-4.5 13 moveto 
1 -1 scale
(6) t 
GR
GR
GS
[0.75 0 0 0.75 227.37499 145.5] CT
0.149 GC
/Helvetica 13.333 F
GS
[1 0 0 1 0 0] CT
-4.5 13 moveto 
1 -1 scale
(7) t 
GR
GR
GS
[0.75 0 0 0.75 246.25001 145.5] CT
0.149 GC
/Helvetica 13.333 F
GS
[1 0 0 1 0 0] CT
-4.5 13 moveto 
1 -1 scale
(8) t 
GR
GR
GS
[0.75 0 0 0.75 265.125 145.5] CT
0.149 GC
/Helvetica 13.333 F
GS
[1 0 0 1 0 0] CT
-4.5 13 moveto 
1 -1 scale
(9) t 
GR
GR
GS
[0.75 0 0 0.75 283.99999 145.5] CT
0.149 GC
/Helvetica 13.333 F
GS
[1 0 0 1 0 0] CT
-8.5 13 moveto 
1 -1 scale
(10) t 
GR
GR
GS
[0.75 0 0 0.75 302.87501 145.5] CT
0.149 GC
/Helvetica 13.333 F
GS
[1 0 0 1 0 0] CT
-8.5 13 moveto 
1 -1 scale
(11) t 
GR
GR
GS
[0.75 0 0 0.75 321.75 145.5] CT
0.149 GC
/Helvetica 13.333 F
GS
[1 0 0 1 0 0] CT
-8.5 13 moveto 
1 -1 scale
(12) t 
GR
GR
GS
[0.75 0 0 0.75 340.62499 145.5] CT
0.149 GC
/Helvetica 13.333 F
GS
[1 0 0 1 0 0] CT
-8.5 13 moveto 
1 -1 scale
(13) t 
GR
GR
GS
[0.75 0 0 0.75 359.50001 145.5] CT
0.149 GC
/Helvetica 13.333 F
GS
[1 0 0 1 0 0] CT
-8.5 13 moveto 
1 -1 scale
(14) t 
GR
GR
GS
[0.75 0 0 0.75 378.375 145.5] CT
0.149 GC
/Helvetica 13.333 F
GS
[1 0 0 1 0 0] CT
-8.5 13 moveto 
1 -1 scale
(15) t 
GR
GR
GS
[0.75 0 0 0.75 397.25002 145.5] CT
0.149 GC
/Helvetica 13.333 F
GS
[1 0 0 1 0 0] CT
-8.5 13 moveto 
1 -1 scale
(16) t 
GR
GR
GS
[0.75 0 0 0.75 416.12498 145.5] CT
0.149 GC
/Helvetica 13.333 F
GS
[1 0 0 1 0 0] CT
-8.5 13 moveto 
1 -1 scale
(17) t 
GR
GR
GS
[0.75 0 0 0.75 435 145.5] CT
0.149 GC
/Helvetica 13.333 F
GS
[1 0 0 1 0 0] CT
-8.5 13 moveto 
1 -1 scale
(18) t 
GR
GR
GS
[0.75 0 0 0.75 453.87502 145.5] CT
0.149 GC
/Helvetica 13.333 F
GS
[1 0 0 1 0 0] CT
-8.5 13 moveto 
1 -1 scale
(19) t 
GR
GR
GS
[0.75 0 0 0.75 472.74998 145.5] CT
0.149 GC
/Helvetica 13.333 F
GS
[1 0 0 1 0 0] CT
-8.5 13 moveto 
1 -1 scale
(20) t 
GR
GR
GS
[0.75 0 0 0.75 491.625 145.5] CT
0.149 GC
/Helvetica 13.333 F
GS
[1 0 0 1 0 0] CT
-8.5 13 moveto 
1 -1 scale
(21) t 
GR
GR
GS
[0.75 0 0 0.75 510.50002 145.5] CT
0.149 GC
/Helvetica 13.333 F
GS
[1 0 0 1 0 0] CT
-8.5 13 moveto 
1 -1 scale
(22) t 
GR
GR
GS
[0.75 0 0 0.75 529.37498 145.5] CT
0.149 GC
/Helvetica 13.333 F
GS
[1 0 0 1 0 0] CT
-8.5 13 moveto 
1 -1 scale
(23) t 
GR
GR
GS
[0.75 0 0 0.75 548.25 145.5] CT
0.149 GC
/Helvetica 13.333 F
GS
[1 0 0 1 0 0] CT
-8.5 13 moveto 
1 -1 scale
(24) t 
GR
GR
GS
[0.75 0 0 0.75 567.12502 145.5] CT
0.149 GC
/Helvetica 13.333 F
GS
[1 0 0 1 0 0] CT
-8.5 13 moveto 
1 -1 scale
(25) t 
GR
GR
GS
[0.75 0 0 0.75 585.99998 145.5] CT
0.149 GC
/Helvetica 13.333 F
GS
[1 0 0 1 0 0] CT
-8.5 13 moveto 
1 -1 scale
(27) t 
GR
GR
GS
[0.75 0 0 0.75 604.875 145.5] CT
0.149 GC
/Helvetica 13.333 F
GS
[1 0 0 1 0 0] CT
-8.5 13 moveto 
1 -1 scale
(28) t 
GR
GR
GS
[0.75 0 0 0.75 623.75002 145.5] CT
0.149 GC
/Helvetica 13.333 F
GS
[1 0 0 1 0 0] CT
-8.5 13 moveto 
1 -1 scale
(29) t 
GR
GR
GS
[0.75 0 0 0.75 642.62498 145.5] CT
0.149 GC
/Helvetica 13.333 F
GS
[1 0 0 1 0 0] CT
-8.5 13 moveto 
1 -1 scale
(30) t 
GR
GR
GS
[0.75 0 0 0.75 378.37527 159.25] CT
0.149 GC
/Helvetica 14.667 F
GS
[1 0 0 1 0 0] CT
-45.5 14 moveto 
1 -1 scale
(Point clouds) t 
GR
GR
GS
[0.75 0 0 0.75 0 0.5] CT
0.149 GC
2 setlinecap
1 LJ
0.667 LW
N
127 188 M
127 34 L
S
GR
GS
[0.75 0 0 0.75 0 0.5] CT
0.149 GC
2 setlinecap
1 LJ
0.667 LW
N
882 188 M
882 34 L
S
GR
GS
[0.75 0 0 0.75 0 0.5] CT
0.149 GC
2 setlinecap
1 LJ
0.667 LW
N
127 188 M
134.55 188 L
S
GR
GS
[0.75 0 0 0.75 0 0.5] CT
0.149 GC
2 setlinecap
1 LJ
0.667 LW
N
127 149.5 M
134.55 149.5 L
S
GR
GS
[0.75 0 0 0.75 0 0.5] CT
0.149 GC
2 setlinecap
1 LJ
0.667 LW
N
127 111 M
134.55 111 L
S
GR
GS
[0.75 0 0 0.75 0 0.5] CT
0.149 GC
2 setlinecap
1 LJ
0.667 LW
N
127 72.5 M
134.55 72.5 L
S
GR
GS
[0.75 0 0 0.75 0 0.5] CT
0.149 GC
2 setlinecap
1 LJ
0.667 LW
N
127 34 M
134.55 34 L
S
GR
GS
[0.75 0 0 0.75 0 0.5] CT
0.149 GC
2 setlinecap
1 LJ
0.667 LW
N
882 188 M
874.45 188 L
S
GR
GS
[0.75 0 0 0.75 0 0.5] CT
0.149 GC
2 setlinecap
1 LJ
0.667 LW
N
882 149.5 M
874.45 149.5 L
S
GR
GS
[0.75 0 0 0.75 0 0.5] CT
0.149 GC
2 setlinecap
1 LJ
0.667 LW
N
882 111 M
874.45 111 L
S
GR
GS
[0.75 0 0 0.75 0 0.5] CT
0.149 GC
2 setlinecap
1 LJ
0.667 LW
N
882 72.5 M
874.45 72.5 L
S
GR
GS
[0.75 0 0 0.75 0 0.5] CT
0.149 GC
2 setlinecap
1 LJ
0.667 LW
N
882 34 M
874.45 34 L
S
GR
GS
[0.75 0 0 0.75 91.25 141.5] CT
0.149 GC
/Helvetica 13.333 F
GS
[1 0 0 1 0 0] CT
-9 4.5 moveto 
1 -1 scale
(0) t 
GR
GR
GS
[0.75 0 0 0.75 91.25 112.625] CT
0.149 GC
/Helvetica 13.333 F
GS
[1 0 0 1 0 0] CT
-29 4.5 moveto 
1 -1 scale
(0.05) t 
GR
GR
GS
[0.75 0 0 0.75 91.25 83.75] CT
0.149 GC
/Helvetica 13.333 F
GS
[1 0 0 1 0 0] CT
-21 4.5 moveto 
1 -1 scale
(0.1) t 
GR
GR
GS
[0.75 0 0 0.75 91.25 54.87499] CT
0.149 GC
/Helvetica 13.333 F
GS
[1 0 0 1 0 0] CT
-29 4.5 moveto 
1 -1 scale
(0.15) t 
GR
GR
GS
[0.75 0 0 0.75 91.25 26] CT
0.149 GC
/Helvetica 13.333 F
GS
[1 0 0 1 0 0] CT
-21 4.5 moveto 
1 -1 scale
(0.2) t 
GR
GR
GS
[0 -0.75 0.75 0 59.25 94.25] CT
0.149 GC
/Helvetica 14.667 F
GS
[1 0 0 1 0 0] CT
0 0 moveto 
1 -1 scale
(err) t 
GR
GR
GS
[0 -0.75 0.75 0 64.5 77.75] CT
0.149 GC
/Helvetica 11.733 F
GS
[1 0 0 1 0 0] CT
0 0 moveto 
1 -1 scale
(r) t 
GR
GR
GS
[0.75 0 0 0.75 0 0.5] CT
1 GC
N
773 113 M
773 47 L
869 47 L
869 113 L
cp
f
GR
GS
[0.75 0 0 0.75 615 42.92939] CT
/Helvetica 12 F
GS
[1 0 0 1 0 0] CT
0 4.5 moveto 
1 -1 scale
(original) t 
GR
GR
GS
[0.75 0 0 0.75 0 0.5] CT
0.929 0.694 0.125 RC
N
777 62.366 M
777 50.779 L
817 50.779 L
817 62.366 L
cp
f
GR
GS
[0.75 0 0 0.75 0 0.5] CT
10.0 ML
0.667 LW
N
777 62.366 M
777 50.779 L
817 50.779 L
817 62.366 L
cp
S
GR
GS
[0.75 0 0 0.75 615 54.64313] CT
/Helvetica 12 F
GS
[1 0 0 1 0 0] CT
0 4.5 moveto 
1 -1 scale
(v2) t 
GR
GR
GS
[0.75 0 0 0.75 0 0.5] CT
0.302 0.745 0.933 RC
N
777 77.985 M
777 66.397 L
817 66.397 L
817 77.985 L
cp
f
GR
GS
[0.75 0 0 0.75 0 0.5] CT
10.0 ML
0.667 LW
N
777 77.985 M
777 66.397 L
817 66.397 L
817 77.985 L
cp
S
GR
GS
[0.75 0 0 0.75 615 66.35687] CT
/Helvetica 12 F
GS
[1 0 0 1 0 0] CT
0 4.5 moveto 
1 -1 scale
(v2.1) t 
GR
GR
GS
[0.75 0 0 0.75 0 0.5] CT
0.635 0.078 0.184 RC
N
777 93.603 M
777 82.015 L
817 82.015 L
817 93.603 L
cp
f
GR
GS
[0.75 0 0 0.75 0 0.5] CT
10.0 ML
0.667 LW
N
777 93.603 M
777 82.015 L
817 82.015 L
817 93.603 L
cp
S
GR
GS
[0.75 0 0 0.75 615 78.07061] CT
/Helvetica 12 F
GS
[1 0 0 1 0 0] CT
0 4.5 moveto 
1 -1 scale
(v3) t 
GR
GR
GS
[0.75 0 0 0.75 0 0.5] CT
0.467 0.675 0.188 RC
N
777 109.221 M
777 97.634 L
817 97.634 L
817 109.221 L
cp
f
GR
GS
[0.75 0 0 0.75 0 0.5] CT
10.0 ML
0.667 LW
N
777 109.221 M
777 97.634 L
817 97.634 L
817 109.221 L
cp
S
GR
GS
[0.75 0 0 0.75 0 0.5] CT
0.149 GC
10.0 ML
0.667 LW
N
773 113 M
773 47 L
869 47 L
869 113 L
cp
S
GR
GS
[0.75 0 0 0.75 0 0.5] CT
1 GC
N
127 405 M
882 405 L
882 251 L
127 251 L
cp
f
GR
GS
[0.75 0 0 0.75 0 0.5] CT
0.149 GC
1 LJ
0.667 LW
N
127 289.5 M
882 289.5 L
S
GR
GS
[0.75 0 0 0.75 0 0.5] CT
0.302 0.745 0.933 RC
N
144.337 289.5 M
148.811 289.5 L
148.811 289.504 L
144.337 289.504 L
cp
f
GR
GS
[0.75 0 0 0.75 0 0.5] CT
0.302 0.745 0.933 RC
N
169.504 289.5 M
173.978 289.5 L
173.978 289.509 L
169.504 289.509 L
cp
f
GR
GS
[0.75 0 0 0.75 0 0.5] CT
0.302 0.745 0.933 RC
N
194.67 289.5 M
199.144 289.5 L
199.144 289.515 L
194.67 289.515 L
cp
f
GR
GS
[0.75 0 0 0.75 0 0.5] CT
0.302 0.745 0.933 RC
N
219.837 289.5 M
224.311 289.5 L
224.311 294.338 L
219.837 294.338 L
cp
f
GR
GS
[0.75 0 0 0.75 0 0.5] CT
0.302 0.745 0.933 RC
N
245.004 289.5 M
249.478 289.5 L
249.478 289.474 L
245.004 289.474 L
cp
f
GR
GS
[0.75 0 0 0.75 0 0.5] CT
0.302 0.745 0.933 RC
N
270.17 289.5 M
274.644 289.5 L
274.644 284.566 L
270.17 284.566 L
cp
f
GR
GS
[0.75 0 0 0.75 0 0.5] CT
0.302 0.745 0.933 RC
N
295.337 289.5 M
299.811 289.5 L
299.811 289.325 L
295.337 289.325 L
cp
f
GR
GS
[0.75 0 0 0.75 0 0.5] CT
0.302 0.745 0.933 RC
N
320.504 289.5 M
324.978 289.5 L
324.978 289.789 L
320.504 289.789 L
cp
f
GR
GS
[0.75 0 0 0.75 0 0.5] CT
0.302 0.745 0.933 RC
N
345.67 289.5 M
350.144 289.5 L
350.144 285.882 L
345.67 285.882 L
cp
f
GR
GS
[0.75 0 0 0.75 0 0.5] CT
0.302 0.745 0.933 RC
N
370.837 289.5 M
375.311 289.5 L
375.311 285.355 L
370.837 285.355 L
cp
f
GR
GS
[0.75 0 0 0.75 0 0.5] CT
0.302 0.745 0.933 RC
N
396.004 289.5 M
400.478 289.5 L
400.478 289.553 L
396.004 289.553 L
cp
f
GR
GS
[0.75 0 0 0.75 0 0.5] CT
0.302 0.745 0.933 RC
N
421.17 289.5 M
425.644 289.5 L
425.644 289.495 L
421.17 289.495 L
cp
f
GR
GS
[0.75 0 0 0.75 0 0.5] CT
0.302 0.745 0.933 RC
N
446.337 289.5 M
450.811 289.5 L
450.811 289.199 L
446.337 289.199 L
cp
f
GR
GS
[0.75 0 0 0.75 0 0.5] CT
0.302 0.745 0.933 RC
N
471.504 289.5 M
475.978 289.5 L
475.978 290.694 L
471.504 290.694 L
cp
f
GR
GS
[0.75 0 0 0.75 0 0.5] CT
0.302 0.745 0.933 RC
N
496.67 289.5 M
501.144 289.5 L
501.144 289.465 L
496.67 289.465 L
cp
f
GR
GS
[0.75 0 0 0.75 0 0.5] CT
0.302 0.745 0.933 RC
N
521.837 289.5 M
526.311 289.5 L
526.311 287.185 L
521.837 287.185 L
cp
f
GR
GS
[0.75 0 0 0.75 0 0.5] CT
0.302 0.745 0.933 RC
N
547.004 289.5 M
551.478 289.5 L
551.478 324.216 L
547.004 324.216 L
cp
f
GR
GS
[0.75 0 0 0.75 0 0.5] CT
0.302 0.745 0.933 RC
N
572.17 289.5 M
576.644 289.5 L
576.644 291.417 L
572.17 291.417 L
cp
f
GR
GS
[0.75 0 0 0.75 0 0.5] CT
0.302 0.745 0.933 RC
N
597.337 289.5 M
601.811 289.5 L
601.811 301.675 L
597.337 301.675 L
cp
f
GR
GS
[0.75 0 0 0.75 0 0.5] CT
0.302 0.745 0.933 RC
N
622.504 289.5 M
626.978 289.5 L
626.978 297.978 L
622.504 297.978 L
cp
f
GR
GS
[0.75 0 0 0.75 0 0.5] CT
0.302 0.745 0.933 RC
N
647.67 289.5 M
652.144 289.5 L
652.144 289.511 L
647.67 289.511 L
cp
f
GR
GS
[0.75 0 0 0.75 0 0.5] CT
0.302 0.745 0.933 RC
N
672.837 289.5 M
677.311 289.5 L
677.311 289.504 L
672.837 289.504 L
cp
f
GR
GS
[0.75 0 0 0.75 0 0.5] CT
0.302 0.745 0.933 RC
N
698.004 289.5 M
702.478 289.5 L
702.478 289.488 L
698.004 289.488 L
cp
f
GR
GS
[0.75 0 0 0.75 0 0.5] CT
0.302 0.745 0.933 RC
N
723.17 289.5 M
727.644 289.5 L
727.644 290.077 L
723.17 290.077 L
cp
f
GR
GS
[0.75 0 0 0.75 0 0.5] CT
0.302 0.745 0.933 RC
N
748.337 289.5 M
752.811 289.5 L
752.811 289.555 L
748.337 289.555 L
cp
f
GR
GS
[0.75 0 0 0.75 0 0.5] CT
0.302 0.745 0.933 RC
N
773.504 289.5 M
777.978 289.5 L
777.978 289.502 L
773.504 289.502 L
cp
f
GR
GS
[0.75 0 0 0.75 0 0.5] CT
0.302 0.745 0.933 RC
N
798.67 289.5 M
803.144 289.5 L
803.144 289.506 L
798.67 289.506 L
cp
f
GR
GS
[0.75 0 0 0.75 0 0.5] CT
0.302 0.745 0.933 RC
N
823.837 289.5 M
828.311 289.5 L
828.311 289.5 L
823.837 289.5 L
cp
f
GR
GS
[0.75 0 0 0.75 0 0.5] CT
0.302 0.745 0.933 RC
N
849.004 289.5 M
853.478 289.5 L
853.478 289.484 L
849.004 289.484 L
cp
f
GR
GS
[0.75 0 0 0.75 0 0.5] CT
10.0 ML
0.667 LW
N
144.337 289.5 M
144.337 289.504 L
148.811 289.504 L
148.811 289.5 L
cp
S
GR
GS
[0.75 0 0 0.75 0 0.5] CT
10.0 ML
0.667 LW
N
169.504 289.5 M
169.504 289.509 L
173.978 289.509 L
173.978 289.5 L
cp
S
GR
GS
[0.75 0 0 0.75 0 0.5] CT
10.0 ML
0.667 LW
N
194.67 289.5 M
194.67 289.515 L
199.144 289.515 L
199.144 289.5 L
cp
S
GR
GS
[0.75 0 0 0.75 0 0.5] CT
10.0 ML
0.667 LW
N
219.837 289.5 M
219.837 294.338 L
224.311 294.338 L
224.311 289.5 L
cp
S
GR
GS
[0.75 0 0 0.75 0 0.5] CT
10.0 ML
0.667 LW
N
245.004 289.5 M
245.004 289.474 L
249.478 289.474 L
249.478 289.5 L
cp
S
GR
GS
[0.75 0 0 0.75 0 0.5] CT
10.0 ML
0.667 LW
N
270.17 289.5 M
270.17 284.566 L
274.644 284.566 L
274.644 289.5 L
cp
S
GR
GS
[0.75 0 0 0.75 0 0.5] CT
10.0 ML
0.667 LW
N
295.337 289.5 M
295.337 289.325 L
299.811 289.325 L
299.811 289.5 L
cp
S
GR
GS
[0.75 0 0 0.75 0 0.5] CT
10.0 ML
0.667 LW
N
320.504 289.5 M
320.504 289.789 L
324.978 289.789 L
324.978 289.5 L
cp
S
GR
GS
[0.75 0 0 0.75 0 0.5] CT
10.0 ML
0.667 LW
N
345.67 289.5 M
345.67 285.882 L
350.144 285.882 L
350.144 289.5 L
cp
S
GR
GS
[0.75 0 0 0.75 0 0.5] CT
10.0 ML
0.667 LW
N
370.837 289.5 M
370.837 285.355 L
375.311 285.355 L
375.311 289.5 L
cp
S
GR
GS
[0.75 0 0 0.75 0 0.5] CT
10.0 ML
0.667 LW
N
396.004 289.5 M
396.004 289.553 L
400.478 289.553 L
400.478 289.5 L
cp
S
GR
GS
[0.75 0 0 0.75 0 0.5] CT
10.0 ML
0.667 LW
N
421.17 289.5 M
421.17 289.495 L
425.644 289.495 L
425.644 289.5 L
cp
S
GR
GS
[0.75 0 0 0.75 0 0.5] CT
10.0 ML
0.667 LW
N
446.337 289.5 M
446.337 289.199 L
450.811 289.199 L
450.811 289.5 L
cp
S
GR
GS
[0.75 0 0 0.75 0 0.5] CT
10.0 ML
0.667 LW
N
471.504 289.5 M
471.504 290.694 L
475.978 290.694 L
475.978 289.5 L
cp
S
GR
GS
[0.75 0 0 0.75 0 0.5] CT
10.0 ML
0.667 LW
N
496.67 289.5 M
496.67 289.465 L
501.144 289.465 L
501.144 289.5 L
cp
S
GR
GS
[0.75 0 0 0.75 0 0.5] CT
10.0 ML
0.667 LW
N
521.837 289.5 M
521.837 287.185 L
526.311 287.185 L
526.311 289.5 L
cp
S
GR
GS
[0.75 0 0 0.75 0 0.5] CT
10.0 ML
0.667 LW
N
547.004 289.5 M
547.004 324.216 L
551.478 324.216 L
551.478 289.5 L
cp
S
GR
GS
[0.75 0 0 0.75 0 0.5] CT
10.0 ML
0.667 LW
N
572.17 289.5 M
572.17 291.417 L
576.644 291.417 L
576.644 289.5 L
cp
S
GR
GS
[0.75 0 0 0.75 0 0.5] CT
10.0 ML
0.667 LW
N
597.337 289.5 M
597.337 301.675 L
601.811 301.675 L
601.811 289.5 L
cp
S
GR
GS
[0.75 0 0 0.75 0 0.5] CT
10.0 ML
0.667 LW
N
622.504 289.5 M
622.504 297.978 L
626.978 297.978 L
626.978 289.5 L
cp
S
GR
GS
[0.75 0 0 0.75 0 0.5] CT
10.0 ML
0.667 LW
N
647.67 289.5 M
647.67 289.511 L
652.144 289.511 L
652.144 289.5 L
cp
S
GR
GS
[0.75 0 0 0.75 0 0.5] CT
10.0 ML
0.667 LW
N
672.837 289.5 M
672.837 289.504 L
677.311 289.504 L
677.311 289.5 L
cp
S
GR
GS
[0.75 0 0 0.75 0 0.5] CT
10.0 ML
0.667 LW
N
698.004 289.5 M
698.004 289.488 L
702.478 289.488 L
702.478 289.5 L
cp
S
GR
GS
[0.75 0 0 0.75 0 0.5] CT
10.0 ML
0.667 LW
N
723.17 289.5 M
723.17 290.077 L
727.644 290.077 L
727.644 289.5 L
cp
S
GR
GS
[0.75 0 0 0.75 0 0.5] CT
10.0 ML
0.667 LW
N
748.337 289.5 M
748.337 289.555 L
752.811 289.555 L
752.811 289.5 L
cp
S
GR
GS
[0.75 0 0 0.75 0 0.5] CT
10.0 ML
0.667 LW
N
773.504 289.5 M
773.504 289.502 L
777.978 289.502 L
777.978 289.5 L
cp
S
GR
GS
[0.75 0 0 0.75 0 0.5] CT
10.0 ML
0.667 LW
N
798.67 289.5 M
798.67 289.506 L
803.144 289.506 L
803.144 289.5 L
cp
S
GR
GS
[0.75 0 0 0.75 0 0.5] CT
10.0 ML
0.667 LW
N
823.837 289.5 M
823.837 289.5 L
828.311 289.5 L
828.311 289.5 L
cp
S
GR
GS
[0.75 0 0 0.75 0 0.5] CT
10.0 ML
0.667 LW
N
849.004 289.5 M
849.004 289.484 L
853.478 289.484 L
853.478 289.5 L
cp
S
GR
GS
[0.75 0 0 0.75 0 0.5] CT
0.635 0.078 0.184 RC
N
149.93 289.5 M
154.404 289.5 L
154.404 289.503 L
149.93 289.503 L
cp
f
GR
GS
[0.75 0 0 0.75 0 0.5] CT
0.635 0.078 0.184 RC
N
175.096 289.5 M
179.57 289.5 L
179.57 289.51 L
175.096 289.51 L
cp
f
GR
GS
[0.75 0 0 0.75 0 0.5] CT
0.635 0.078 0.184 RC
N
200.263 289.5 M
204.737 289.5 L
204.737 289.509 L
200.263 289.509 L
cp
f
GR
GS
[0.75 0 0 0.75 0 0.5] CT
0.635 0.078 0.184 RC
N
225.43 289.5 M
229.904 289.5 L
229.904 294.341 L
225.43 294.341 L
cp
f
GR
GS
[0.75 0 0 0.75 0 0.5] CT
0.635 0.078 0.184 RC
N
250.596 289.5 M
255.07 289.5 L
255.07 289.473 L
250.596 289.473 L
cp
f
GR
GS
[0.75 0 0 0.75 0 0.5] CT
0.635 0.078 0.184 RC
N
275.763 289.5 M
280.237 289.5 L
280.237 284.557 L
275.763 284.557 L
cp
f
GR
GS
[0.75 0 0 0.75 0 0.5] CT
0.635 0.078 0.184 RC
N
300.93 289.5 M
305.404 289.5 L
305.404 289.546 L
300.93 289.546 L
cp
f
GR
GS
[0.75 0 0 0.75 0 0.5] CT
0.635 0.078 0.184 RC
N
326.096 289.5 M
330.57 289.5 L
330.57 289.617 L
326.096 289.617 L
cp
f
GR
GS
[0.75 0 0 0.75 0 0.5] CT
0.635 0.078 0.184 RC
N
351.263 289.5 M
355.737 289.5 L
355.737 285.881 L
351.263 285.881 L
cp
f
GR
GS
[0.75 0 0 0.75 0 0.5] CT
0.635 0.078 0.184 RC
N
376.43 289.5 M
380.904 289.5 L
380.904 285.342 L
376.43 285.342 L
cp
f
GR
GS
[0.75 0 0 0.75 0 0.5] CT
0.635 0.078 0.184 RC
N
401.596 289.5 M
406.07 289.5 L
406.07 289.553 L
401.596 289.553 L
cp
f
GR
GS
[0.75 0 0 0.75 0 0.5] CT
0.635 0.078 0.184 RC
N
426.763 289.5 M
431.237 289.5 L
431.237 289.495 L
426.763 289.495 L
cp
f
GR
GS
[0.75 0 0 0.75 0 0.5] CT
0.635 0.078 0.184 RC
N
451.93 289.5 M
456.404 289.5 L
456.404 289.182 L
451.93 289.182 L
cp
f
GR
GS
[0.75 0 0 0.75 0 0.5] CT
0.635 0.078 0.184 RC
N
477.096 289.5 M
481.57 289.5 L
481.57 290.586 L
477.096 290.586 L
cp
f
GR
GS
[0.75 0 0 0.75 0 0.5] CT
0.635 0.078 0.184 RC
N
502.263 289.5 M
506.737 289.5 L
506.737 289.465 L
502.263 289.465 L
cp
f
GR
GS
[0.75 0 0 0.75 0 0.5] CT
0.635 0.078 0.184 RC
N
527.43 289.5 M
531.904 289.5 L
531.904 287.185 L
527.43 287.185 L
cp
f
GR
GS
[0.75 0 0 0.75 0 0.5] CT
0.635 0.078 0.184 RC
N
552.596 289.5 M
557.07 289.5 L
557.07 324.184 L
552.596 324.184 L
cp
f
GR
GS
[0.75 0 0 0.75 0 0.5] CT
0.635 0.078 0.184 RC
N
577.763 289.5 M
582.237 289.5 L
582.237 291.428 L
577.763 291.428 L
cp
f
GR
GS
[0.75 0 0 0.75 0 0.5] CT
0.635 0.078 0.184 RC
N
602.93 289.5 M
607.404 289.5 L
607.404 301.634 L
602.93 301.634 L
cp
f
GR
GS
[0.75 0 0 0.75 0 0.5] CT
0.635 0.078 0.184 RC
N
628.096 289.5 M
632.57 289.5 L
632.57 297.874 L
628.096 297.874 L
cp
f
GR
GS
[0.75 0 0 0.75 0 0.5] CT
0.635 0.078 0.184 RC
N
653.263 289.5 M
657.737 289.5 L
657.737 289.51 L
653.263 289.51 L
cp
f
GR
GS
[0.75 0 0 0.75 0 0.5] CT
0.635 0.078 0.184 RC
N
678.43 289.5 M
682.904 289.5 L
682.904 289.504 L
678.43 289.504 L
cp
f
GR
GS
[0.75 0 0 0.75 0 0.5] CT
0.635 0.078 0.184 RC
N
703.596 289.5 M
708.07 289.5 L
708.07 289.487 L
703.596 289.487 L
cp
f
GR
GS
[0.75 0 0 0.75 0 0.5] CT
0.635 0.078 0.184 RC
N
728.763 289.5 M
733.237 289.5 L
733.237 290.074 L
728.763 290.074 L
cp
f
GR
GS
[0.75 0 0 0.75 0 0.5] CT
0.635 0.078 0.184 RC
N
753.93 289.5 M
758.404 289.5 L
758.404 289.555 L
753.93 289.555 L
cp
f
GR
GS
[0.75 0 0 0.75 0 0.5] CT
0.635 0.078 0.184 RC
N
779.096 289.5 M
783.57 289.5 L
783.57 289.497 L
779.096 289.497 L
cp
f
GR
GS
[0.75 0 0 0.75 0 0.5] CT
0.635 0.078 0.184 RC
N
804.263 289.5 M
808.737 289.5 L
808.737 289.506 L
804.263 289.506 L
cp
f
GR
GS
[0.75 0 0 0.75 0 0.5] CT
0.635 0.078 0.184 RC
N
829.43 289.5 M
833.904 289.5 L
833.904 289.5 L
829.43 289.5 L
cp
f
GR
GS
[0.75 0 0 0.75 0 0.5] CT
0.635 0.078 0.184 RC
N
854.596 289.5 M
859.07 289.5 L
859.07 289.484 L
854.596 289.484 L
cp
f
GR
GS
[0.75 0 0 0.75 0 0.5] CT
10.0 ML
0.667 LW
N
149.93 289.5 M
149.93 289.503 L
154.404 289.503 L
154.404 289.5 L
cp
S
GR
GS
[0.75 0 0 0.75 0 0.5] CT
10.0 ML
0.667 LW
N
175.096 289.5 M
175.096 289.51 L
179.57 289.51 L
179.57 289.5 L
cp
S
GR
GS
[0.75 0 0 0.75 0 0.5] CT
10.0 ML
0.667 LW
N
200.263 289.5 M
200.263 289.509 L
204.737 289.509 L
204.737 289.5 L
cp
S
GR
GS
[0.75 0 0 0.75 0 0.5] CT
10.0 ML
0.667 LW
N
225.43 289.5 M
225.43 294.341 L
229.904 294.341 L
229.904 289.5 L
cp
S
GR
GS
[0.75 0 0 0.75 0 0.5] CT
10.0 ML
0.667 LW
N
250.596 289.5 M
250.596 289.473 L
255.07 289.473 L
255.07 289.5 L
cp
S
GR
GS
[0.75 0 0 0.75 0 0.5] CT
10.0 ML
0.667 LW
N
275.763 289.5 M
275.763 284.557 L
280.237 284.557 L
280.237 289.5 L
cp
S
GR
GS
[0.75 0 0 0.75 0 0.5] CT
10.0 ML
0.667 LW
N
300.93 289.5 M
300.93 289.546 L
305.404 289.546 L
305.404 289.5 L
cp
S
GR
GS
[0.75 0 0 0.75 0 0.5] CT
10.0 ML
0.667 LW
N
326.096 289.5 M
326.096 289.617 L
330.57 289.617 L
330.57 289.5 L
cp
S
GR
GS
[0.75 0 0 0.75 0 0.5] CT
10.0 ML
0.667 LW
N
351.263 289.5 M
351.263 285.881 L
355.737 285.881 L
355.737 289.5 L
cp
S
GR
GS
[0.75 0 0 0.75 0 0.5] CT
10.0 ML
0.667 LW
N
376.43 289.5 M
376.43 285.342 L
380.904 285.342 L
380.904 289.5 L
cp
S
GR
GS
[0.75 0 0 0.75 0 0.5] CT
10.0 ML
0.667 LW
N
401.596 289.5 M
401.596 289.553 L
406.07 289.553 L
406.07 289.5 L
cp
S
GR
GS
[0.75 0 0 0.75 0 0.5] CT
10.0 ML
0.667 LW
N
426.763 289.5 M
426.763 289.495 L
431.237 289.495 L
431.237 289.5 L
cp
S
GR
GS
[0.75 0 0 0.75 0 0.5] CT
10.0 ML
0.667 LW
N
451.93 289.5 M
451.93 289.182 L
456.404 289.182 L
456.404 289.5 L
cp
S
GR
GS
[0.75 0 0 0.75 0 0.5] CT
10.0 ML
0.667 LW
N
477.096 289.5 M
477.096 290.586 L
481.57 290.586 L
481.57 289.5 L
cp
S
GR
GS
[0.75 0 0 0.75 0 0.5] CT
10.0 ML
0.667 LW
N
502.263 289.5 M
502.263 289.465 L
506.737 289.465 L
506.737 289.5 L
cp
S
GR
GS
[0.75 0 0 0.75 0 0.5] CT
10.0 ML
0.667 LW
N
527.43 289.5 M
527.43 287.185 L
531.904 287.185 L
531.904 289.5 L
cp
S
GR
GS
[0.75 0 0 0.75 0 0.5] CT
10.0 ML
0.667 LW
N
552.596 289.5 M
552.596 324.184 L
557.07 324.184 L
557.07 289.5 L
cp
S
GR
GS
[0.75 0 0 0.75 0 0.5] CT
10.0 ML
0.667 LW
N
577.763 289.5 M
577.763 291.428 L
582.237 291.428 L
582.237 289.5 L
cp
S
GR
GS
[0.75 0 0 0.75 0 0.5] CT
10.0 ML
0.667 LW
N
602.93 289.5 M
602.93 301.634 L
607.404 301.634 L
607.404 289.5 L
cp
S
GR
GS
[0.75 0 0 0.75 0 0.5] CT
10.0 ML
0.667 LW
N
628.096 289.5 M
628.096 297.874 L
632.57 297.874 L
632.57 289.5 L
cp
S
GR
GS
[0.75 0 0 0.75 0 0.5] CT
10.0 ML
0.667 LW
N
653.263 289.5 M
653.263 289.51 L
657.737 289.51 L
657.737 289.5 L
cp
S
GR
GS
[0.75 0 0 0.75 0 0.5] CT
10.0 ML
0.667 LW
N
678.43 289.5 M
678.43 289.504 L
682.904 289.504 L
682.904 289.5 L
cp
S
GR
GS
[0.75 0 0 0.75 0 0.5] CT
10.0 ML
0.667 LW
N
703.596 289.5 M
703.596 289.487 L
708.07 289.487 L
708.07 289.5 L
cp
S
GR
GS
[0.75 0 0 0.75 0 0.5] CT
10.0 ML
0.667 LW
N
728.763 289.5 M
728.763 290.074 L
733.237 290.074 L
733.237 289.5 L
cp
S
GR
GS
[0.75 0 0 0.75 0 0.5] CT
10.0 ML
0.667 LW
N
753.93 289.5 M
753.93 289.555 L
758.404 289.555 L
758.404 289.5 L
cp
S
GR
GS
[0.75 0 0 0.75 0 0.5] CT
10.0 ML
0.667 LW
N
779.096 289.5 M
779.096 289.497 L
783.57 289.497 L
783.57 289.5 L
cp
S
GR
GS
[0.75 0 0 0.75 0 0.5] CT
10.0 ML
0.667 LW
N
804.263 289.5 M
804.263 289.506 L
808.737 289.506 L
808.737 289.5 L
cp
S
GR
GS
[0.75 0 0 0.75 0 0.5] CT
10.0 ML
0.667 LW
N
829.43 289.5 M
829.43 289.5 L
833.904 289.5 L
833.904 289.5 L
cp
S
GR
GS
[0.75 0 0 0.75 0 0.5] CT
10.0 ML
0.667 LW
N
854.596 289.5 M
854.596 289.484 L
859.07 289.484 L
859.07 289.5 L
cp
S
GR
GS
[0.75 0 0 0.75 0 0.5] CT
0.467 0.675 0.188 RC
N
155.522 289.5 M
159.996 289.5 L
159.996 289.207 L
155.522 289.207 L
cp
f
GR
GS
[0.75 0 0 0.75 0 0.5] CT
0.467 0.675 0.188 RC
N
180.689 289.5 M
185.163 289.5 L
185.163 289.684 L
180.689 289.684 L
cp
f
GR
GS
[0.75 0 0 0.75 0 0.5] CT
0.467 0.675 0.188 RC
N
205.856 289.5 M
210.33 289.5 L
210.33 289.493 L
205.856 289.493 L
cp
f
GR
GS
[0.75 0 0 0.75 0 0.5] CT
0.467 0.675 0.188 RC
N
231.022 289.5 M
235.496 289.5 L
235.496 294.151 L
231.022 294.151 L
cp
f
GR
GS
[0.75 0 0 0.75 0 0.5] CT
0.467 0.675 0.188 RC
N
256.189 289.5 M
260.663 289.5 L
260.663 288.571 L
256.189 288.571 L
cp
f
GR
GS
[0.75 0 0 0.75 0 0.5] CT
0.467 0.675 0.188 RC
N
281.356 289.5 M
285.83 289.5 L
285.83 284.855 L
281.356 284.855 L
cp
f
GR
GS
[0.75 0 0 0.75 0 0.5] CT
0.467 0.675 0.188 RC
N
306.522 289.5 M
310.996 289.5 L
310.996 289.997 L
306.522 289.997 L
cp
f
GR
GS
[0.75 0 0 0.75 0 0.5] CT
0.467 0.675 0.188 RC
N
331.689 289.5 M
336.163 289.5 L
336.163 289.423 L
331.689 289.423 L
cp
f
GR
GS
[0.75 0 0 0.75 0 0.5] CT
0.467 0.675 0.188 RC
N
356.856 289.5 M
361.33 289.5 L
361.33 286.523 L
356.856 286.523 L
cp
f
GR
GS
[0.75 0 0 0.75 0 0.5] CT
0.467 0.675 0.188 RC
N
382.022 289.5 M
386.496 289.5 L
386.496 285.821 L
382.022 285.821 L
cp
f
GR
GS
[0.75 0 0 0.75 0 0.5] CT
0.467 0.675 0.188 RC
N
407.189 289.5 M
411.663 289.5 L
411.663 289.79 L
407.189 289.79 L
cp
f
GR
GS
[0.75 0 0 0.75 0 0.5] CT
0.467 0.675 0.188 RC
N
432.356 289.5 M
436.83 289.5 L
436.83 289.488 L
432.356 289.488 L
cp
f
GR
GS
[0.75 0 0 0.75 0 0.5] CT
0.467 0.675 0.188 RC
N
457.522 289.5 M
461.996 289.5 L
461.996 288.944 L
457.522 288.944 L
cp
f
GR
GS
[0.75 0 0 0.75 0 0.5] CT
0.467 0.675 0.188 RC
N
482.689 289.5 M
487.163 289.5 L
487.163 290.441 L
482.689 290.441 L
cp
f
GR
GS
[0.75 0 0 0.75 0 0.5] CT
0.467 0.675 0.188 RC
N
507.856 289.5 M
512.33 289.5 L
512.33 289.43 L
507.856 289.43 L
cp
f
GR
GS
[0.75 0 0 0.75 0 0.5] CT
0.467 0.675 0.188 RC
N
533.022 289.5 M
537.496 289.5 L
537.496 287.279 L
533.022 287.279 L
cp
f
GR
GS
[0.75 0 0 0.75 0 0.5] CT
0.467 0.675 0.188 RC
N
558.189 289.5 M
562.663 289.5 L
562.663 325.457 L
558.189 325.457 L
cp
f
GR
GS
[0.75 0 0 0.75 0 0.5] CT
0.467 0.675 0.188 RC
N
583.356 289.5 M
587.83 289.5 L
587.83 291.062 L
583.356 291.062 L
cp
f
GR
GS
[0.75 0 0 0.75 0 0.5] CT
0.467 0.675 0.188 RC
N
608.522 289.5 M
612.996 289.5 L
612.996 305.342 L
608.522 305.342 L
cp
f
GR
GS
[0.75 0 0 0.75 0 0.5] CT
0.467 0.675 0.188 RC
N
633.689 289.5 M
638.163 289.5 L
638.163 294.6 L
633.689 294.6 L
cp
f
GR
GS
[0.75 0 0 0.75 0 0.5] CT
0.467 0.675 0.188 RC
N
658.856 289.5 M
663.33 289.5 L
663.33 289.634 L
658.856 289.634 L
cp
f
GR
GS
[0.75 0 0 0.75 0 0.5] CT
0.467 0.675 0.188 RC
N
684.022 289.5 M
688.496 289.5 L
688.496 381.226 L
684.022 381.226 L
cp
f
GR
GS
[0.75 0 0 0.75 0 0.5] CT
0.467 0.675 0.188 RC
N
709.189 289.5 M
713.663 289.5 L
713.663 289.44 L
709.189 289.44 L
cp
f
GR
GS
[0.75 0 0 0.75 0 0.5] CT
0.467 0.675 0.188 RC
N
734.356 289.5 M
738.83 289.5 L
738.83 290.039 L
734.356 290.039 L
cp
f
GR
GS
[0.75 0 0 0.75 0 0.5] CT
0.467 0.675 0.188 RC
N
759.522 289.5 M
763.996 289.5 L
763.996 289.757 L
759.522 289.757 L
cp
f
GR
GS
[0.75 0 0 0.75 0 0.5] CT
0.467 0.675 0.188 RC
N
784.689 289.5 M
789.163 289.5 L
789.163 289.152 L
784.689 289.152 L
cp
f
GR
GS
[0.75 0 0 0.75 0 0.5] CT
0.467 0.675 0.188 RC
N
809.856 289.5 M
814.33 289.5 L
814.33 289.26 L
809.856 289.26 L
cp
f
GR
GS
[0.75 0 0 0.75 0 0.5] CT
0.467 0.675 0.188 RC
N
835.022 289.5 M
839.496 289.5 L
839.496 359.891 L
835.022 359.891 L
cp
f
GR
GS
[0.75 0 0 0.75 0 0.5] CT
0.467 0.675 0.188 RC
N
860.189 289.5 M
864.663 289.5 L
864.663 289.49 L
860.189 289.49 L
cp
f
GR
GS
[0.75 0 0 0.75 0 0.5] CT
10.0 ML
0.667 LW
N
155.522 289.5 M
155.522 289.207 L
159.996 289.207 L
159.996 289.5 L
cp
S
GR
GS
[0.75 0 0 0.75 0 0.5] CT
10.0 ML
0.667 LW
N
180.689 289.5 M
180.689 289.684 L
185.163 289.684 L
185.163 289.5 L
cp
S
GR
GS
[0.75 0 0 0.75 0 0.5] CT
10.0 ML
0.667 LW
N
205.856 289.5 M
205.856 289.493 L
210.33 289.493 L
210.33 289.5 L
cp
S
GR
GS
[0.75 0 0 0.75 0 0.5] CT
10.0 ML
0.667 LW
N
231.022 289.5 M
231.022 294.151 L
235.496 294.151 L
235.496 289.5 L
cp
S
GR
GS
[0.75 0 0 0.75 0 0.5] CT
10.0 ML
0.667 LW
N
256.189 289.5 M
256.189 288.571 L
260.663 288.571 L
260.663 289.5 L
cp
S
GR
GS
[0.75 0 0 0.75 0 0.5] CT
10.0 ML
0.667 LW
N
281.356 289.5 M
281.356 284.855 L
285.83 284.855 L
285.83 289.5 L
cp
S
GR
GS
[0.75 0 0 0.75 0 0.5] CT
10.0 ML
0.667 LW
N
306.522 289.5 M
306.522 289.997 L
310.996 289.997 L
310.996 289.5 L
cp
S
GR
GS
[0.75 0 0 0.75 0 0.5] CT
10.0 ML
0.667 LW
N
331.689 289.5 M
331.689 289.423 L
336.163 289.423 L
336.163 289.5 L
cp
S
GR
GS
[0.75 0 0 0.75 0 0.5] CT
10.0 ML
0.667 LW
N
356.856 289.5 M
356.856 286.523 L
361.33 286.523 L
361.33 289.5 L
cp
S
GR
GS
[0.75 0 0 0.75 0 0.5] CT
10.0 ML
0.667 LW
N
382.022 289.5 M
382.022 285.821 L
386.496 285.821 L
386.496 289.5 L
cp
S
GR
GS
[0.75 0 0 0.75 0 0.5] CT
10.0 ML
0.667 LW
N
407.189 289.5 M
407.189 289.79 L
411.663 289.79 L
411.663 289.5 L
cp
S
GR
GS
[0.75 0 0 0.75 0 0.5] CT
10.0 ML
0.667 LW
N
432.356 289.5 M
432.356 289.488 L
436.83 289.488 L
436.83 289.5 L
cp
S
GR
GS
[0.75 0 0 0.75 0 0.5] CT
10.0 ML
0.667 LW
N
457.522 289.5 M
457.522 288.944 L
461.996 288.944 L
461.996 289.5 L
cp
S
GR
GS
[0.75 0 0 0.75 0 0.5] CT
10.0 ML
0.667 LW
N
482.689 289.5 M
482.689 290.441 L
487.163 290.441 L
487.163 289.5 L
cp
S
GR
GS
[0.75 0 0 0.75 0 0.5] CT
10.0 ML
0.667 LW
N
507.856 289.5 M
507.856 289.43 L
512.33 289.43 L
512.33 289.5 L
cp
S
GR
GS
[0.75 0 0 0.75 0 0.5] CT
10.0 ML
0.667 LW
N
533.022 289.5 M
533.022 287.279 L
537.496 287.279 L
537.496 289.5 L
cp
S
GR
GS
[0.75 0 0 0.75 0 0.5] CT
10.0 ML
0.667 LW
N
558.189 289.5 M
558.189 325.457 L
562.663 325.457 L
562.663 289.5 L
cp
S
GR
GS
[0.75 0 0 0.75 0 0.5] CT
10.0 ML
0.667 LW
N
583.356 289.5 M
583.356 291.062 L
587.83 291.062 L
587.83 289.5 L
cp
S
GR
GS
[0.75 0 0 0.75 0 0.5] CT
10.0 ML
0.667 LW
N
608.522 289.5 M
608.522 305.342 L
612.996 305.342 L
612.996 289.5 L
cp
S
GR
GS
[0.75 0 0 0.75 0 0.5] CT
10.0 ML
0.667 LW
N
633.689 289.5 M
633.689 294.6 L
638.163 294.6 L
638.163 289.5 L
cp
S
GR
GS
[0.75 0 0 0.75 0 0.5] CT
10.0 ML
0.667 LW
N
658.856 289.5 M
658.856 289.634 L
663.33 289.634 L
663.33 289.5 L
cp
S
GR
GS
[0.75 0 0 0.75 0 0.5] CT
10.0 ML
0.667 LW
N
684.022 289.5 M
684.022 381.226 L
688.496 381.226 L
688.496 289.5 L
cp
S
GR
GS
[0.75 0 0 0.75 0 0.5] CT
10.0 ML
0.667 LW
N
709.189 289.5 M
709.189 289.44 L
713.663 289.44 L
713.663 289.5 L
cp
S
GR
GS
[0.75 0 0 0.75 0 0.5] CT
10.0 ML
0.667 LW
N
734.356 289.5 M
734.356 290.039 L
738.83 290.039 L
738.83 289.5 L
cp
S
GR
GS
[0.75 0 0 0.75 0 0.5] CT
10.0 ML
0.667 LW
N
759.522 289.5 M
759.522 289.757 L
763.996 289.757 L
763.996 289.5 L
cp
S
GR
GS
[0.75 0 0 0.75 0 0.5] CT
10.0 ML
0.667 LW
N
784.689 289.5 M
784.689 289.152 L
789.163 289.152 L
789.163 289.5 L
cp
S
GR
GS
[0.75 0 0 0.75 0 0.5] CT
10.0 ML
0.667 LW
N
809.856 289.5 M
809.856 289.26 L
814.33 289.26 L
814.33 289.5 L
cp
S
GR
GS
[0.75 0 0 0.75 0 0.5] CT
10.0 ML
0.667 LW
N
835.022 289.5 M
835.022 359.891 L
839.496 359.891 L
839.496 289.5 L
cp
S
GR
GS
[0.75 0 0 0.75 0 0.5] CT
10.0 ML
0.667 LW
N
860.189 289.5 M
860.189 289.49 L
864.663 289.49 L
864.663 289.5 L
cp
S
GR
GS
[0.75 0 0 0.75 0 0.5] CT
0.149 GC
2 setlinecap
1 LJ
0.667 LW
N
127 405 M
882 405 L
S
GR
GS
[0.75 0 0 0.75 0 0.5] CT
0.149 GC
2 setlinecap
1 LJ
0.667 LW
N
127 251 M
882 251 L
S
GR
GS
[0.75 0 0 0.75 0 0.5] CT
0.149 GC
2 setlinecap
1 LJ
0.667 LW
N
152.167 405 M
152.167 397.45 L
S
GR
GS
[0.75 0 0 0.75 0 0.5] CT
0.149 GC
2 setlinecap
1 LJ
0.667 LW
N
177.333 405 M
177.333 397.45 L
S
GR
GS
[0.75 0 0 0.75 0 0.5] CT
0.149 GC
2 setlinecap
1 LJ
0.667 LW
N
202.5 405 M
202.5 397.45 L
S
GR
GS
[0.75 0 0 0.75 0 0.5] CT
0.149 GC
2 setlinecap
1 LJ
0.667 LW
N
227.667 405 M
227.667 397.45 L
S
GR
GS
[0.75 0 0 0.75 0 0.5] CT
0.149 GC
2 setlinecap
1 LJ
0.667 LW
N
252.833 405 M
252.833 397.45 L
S
GR
GS
[0.75 0 0 0.75 0 0.5] CT
0.149 GC
2 setlinecap
1 LJ
0.667 LW
N
278 405 M
278 397.45 L
S
GR
GS
[0.75 0 0 0.75 0 0.5] CT
0.149 GC
2 setlinecap
1 LJ
0.667 LW
N
303.167 405 M
303.167 397.45 L
S
GR
GS
[0.75 0 0 0.75 0 0.5] CT
0.149 GC
2 setlinecap
1 LJ
0.667 LW
N
328.333 405 M
328.333 397.45 L
S
GR
GS
[0.75 0 0 0.75 0 0.5] CT
0.149 GC
2 setlinecap
1 LJ
0.667 LW
N
353.5 405 M
353.5 397.45 L
S
GR
GS
[0.75 0 0 0.75 0 0.5] CT
0.149 GC
2 setlinecap
1 LJ
0.667 LW
N
378.667 405 M
378.667 397.45 L
S
GR
GS
[0.75 0 0 0.75 0 0.5] CT
0.149 GC
2 setlinecap
1 LJ
0.667 LW
N
403.833 405 M
403.833 397.45 L
S
GR
GS
[0.75 0 0 0.75 0 0.5] CT
0.149 GC
2 setlinecap
1 LJ
0.667 LW
N
429 405 M
429 397.45 L
S
GR
GS
[0.75 0 0 0.75 0 0.5] CT
0.149 GC
2 setlinecap
1 LJ
0.667 LW
N
454.167 405 M
454.167 397.45 L
S
GR
GS
[0.75 0 0 0.75 0 0.5] CT
0.149 GC
2 setlinecap
1 LJ
0.667 LW
N
479.333 405 M
479.333 397.45 L
S
GR
GS
[0.75 0 0 0.75 0 0.5] CT
0.149 GC
2 setlinecap
1 LJ
0.667 LW
N
504.5 405 M
504.5 397.45 L
S
GR
GS
[0.75 0 0 0.75 0 0.5] CT
0.149 GC
2 setlinecap
1 LJ
0.667 LW
N
529.667 405 M
529.667 397.45 L
S
GR
GS
[0.75 0 0 0.75 0 0.5] CT
0.149 GC
2 setlinecap
1 LJ
0.667 LW
N
554.833 405 M
554.833 397.45 L
S
GR
GS
[0.75 0 0 0.75 0 0.5] CT
0.149 GC
2 setlinecap
1 LJ
0.667 LW
N
580 405 M
580 397.45 L
S
GR
GS
[0.75 0 0 0.75 0 0.5] CT
0.149 GC
2 setlinecap
1 LJ
0.667 LW
N
605.167 405 M
605.167 397.45 L
S
GR
GS
[0.75 0 0 0.75 0 0.5] CT
0.149 GC
2 setlinecap
1 LJ
0.667 LW
N
630.333 405 M
630.333 397.45 L
S
GR
GS
[0.75 0 0 0.75 0 0.5] CT
0.149 GC
2 setlinecap
1 LJ
0.667 LW
N
655.5 405 M
655.5 397.45 L
S
GR
GS
[0.75 0 0 0.75 0 0.5] CT
0.149 GC
2 setlinecap
1 LJ
0.667 LW
N
680.667 405 M
680.667 397.45 L
S
GR
GS
[0.75 0 0 0.75 0 0.5] CT
0.149 GC
2 setlinecap
1 LJ
0.667 LW
N
705.833 405 M
705.833 397.45 L
S
GR
GS
[0.75 0 0 0.75 0 0.5] CT
0.149 GC
2 setlinecap
1 LJ
0.667 LW
N
731 405 M
731 397.45 L
S
GR
GS
[0.75 0 0 0.75 0 0.5] CT
0.149 GC
2 setlinecap
1 LJ
0.667 LW
N
756.167 405 M
756.167 397.45 L
S
GR
GS
[0.75 0 0 0.75 0 0.5] CT
0.149 GC
2 setlinecap
1 LJ
0.667 LW
N
781.333 405 M
781.333 397.45 L
S
GR
GS
[0.75 0 0 0.75 0 0.5] CT
0.149 GC
2 setlinecap
1 LJ
0.667 LW
N
806.5 405 M
806.5 397.45 L
S
GR
GS
[0.75 0 0 0.75 0 0.5] CT
0.149 GC
2 setlinecap
1 LJ
0.667 LW
N
831.667 405 M
831.667 397.45 L
S
GR
GS
[0.75 0 0 0.75 0 0.5] CT
0.149 GC
2 setlinecap
1 LJ
0.667 LW
N
856.833 405 M
856.833 397.45 L
S
GR
GS
[0.75 0 0 0.75 0 0.5] CT
0.149 GC
2 setlinecap
1 LJ
0.667 LW
N
152.167 251 M
152.167 258.55 L
S
GR
GS
[0.75 0 0 0.75 0 0.5] CT
0.149 GC
2 setlinecap
1 LJ
0.667 LW
N
177.333 251 M
177.333 258.55 L
S
GR
GS
[0.75 0 0 0.75 0 0.5] CT
0.149 GC
2 setlinecap
1 LJ
0.667 LW
N
202.5 251 M
202.5 258.55 L
S
GR
GS
[0.75 0 0 0.75 0 0.5] CT
0.149 GC
2 setlinecap
1 LJ
0.667 LW
N
227.667 251 M
227.667 258.55 L
S
GR
GS
[0.75 0 0 0.75 0 0.5] CT
0.149 GC
2 setlinecap
1 LJ
0.667 LW
N
252.833 251 M
252.833 258.55 L
S
GR
GS
[0.75 0 0 0.75 0 0.5] CT
0.149 GC
2 setlinecap
1 LJ
0.667 LW
N
278 251 M
278 258.55 L
S
GR
GS
[0.75 0 0 0.75 0 0.5] CT
0.149 GC
2 setlinecap
1 LJ
0.667 LW
N
303.167 251 M
303.167 258.55 L
S
GR
GS
[0.75 0 0 0.75 0 0.5] CT
0.149 GC
2 setlinecap
1 LJ
0.667 LW
N
328.333 251 M
328.333 258.55 L
S
GR
GS
[0.75 0 0 0.75 0 0.5] CT
0.149 GC
2 setlinecap
1 LJ
0.667 LW
N
353.5 251 M
353.5 258.55 L
S
GR
GS
[0.75 0 0 0.75 0 0.5] CT
0.149 GC
2 setlinecap
1 LJ
0.667 LW
N
378.667 251 M
378.667 258.55 L
S
GR
GS
[0.75 0 0 0.75 0 0.5] CT
0.149 GC
2 setlinecap
1 LJ
0.667 LW
N
403.833 251 M
403.833 258.55 L
S
GR
GS
[0.75 0 0 0.75 0 0.5] CT
0.149 GC
2 setlinecap
1 LJ
0.667 LW
N
429 251 M
429 258.55 L
S
GR
GS
[0.75 0 0 0.75 0 0.5] CT
0.149 GC
2 setlinecap
1 LJ
0.667 LW
N
454.167 251 M
454.167 258.55 L
S
GR
GS
[0.75 0 0 0.75 0 0.5] CT
0.149 GC
2 setlinecap
1 LJ
0.667 LW
N
479.333 251 M
479.333 258.55 L
S
GR
GS
[0.75 0 0 0.75 0 0.5] CT
0.149 GC
2 setlinecap
1 LJ
0.667 LW
N
504.5 251 M
504.5 258.55 L
S
GR
GS
[0.75 0 0 0.75 0 0.5] CT
0.149 GC
2 setlinecap
1 LJ
0.667 LW
N
529.667 251 M
529.667 258.55 L
S
GR
GS
[0.75 0 0 0.75 0 0.5] CT
0.149 GC
2 setlinecap
1 LJ
0.667 LW
N
554.833 251 M
554.833 258.55 L
S
GR
GS
[0.75 0 0 0.75 0 0.5] CT
0.149 GC
2 setlinecap
1 LJ
0.667 LW
N
580 251 M
580 258.55 L
S
GR
GS
[0.75 0 0 0.75 0 0.5] CT
0.149 GC
2 setlinecap
1 LJ
0.667 LW
N
605.167 251 M
605.167 258.55 L
S
GR
GS
[0.75 0 0 0.75 0 0.5] CT
0.149 GC
2 setlinecap
1 LJ
0.667 LW
N
630.333 251 M
630.333 258.55 L
S
GR
GS
[0.75 0 0 0.75 0 0.5] CT
0.149 GC
2 setlinecap
1 LJ
0.667 LW
N
655.5 251 M
655.5 258.55 L
S
GR
GS
[0.75 0 0 0.75 0 0.5] CT
0.149 GC
2 setlinecap
1 LJ
0.667 LW
N
680.667 251 M
680.667 258.55 L
S
GR
GS
[0.75 0 0 0.75 0 0.5] CT
0.149 GC
2 setlinecap
1 LJ
0.667 LW
N
705.833 251 M
705.833 258.55 L
S
GR
GS
[0.75 0 0 0.75 0 0.5] CT
0.149 GC
2 setlinecap
1 LJ
0.667 LW
N
731 251 M
731 258.55 L
S
GR
GS
[0.75 0 0 0.75 0 0.5] CT
0.149 GC
2 setlinecap
1 LJ
0.667 LW
N
756.167 251 M
756.167 258.55 L
S
GR
GS
[0.75 0 0 0.75 0 0.5] CT
0.149 GC
2 setlinecap
1 LJ
0.667 LW
N
781.333 251 M
781.333 258.55 L
S
GR
GS
[0.75 0 0 0.75 0 0.5] CT
0.149 GC
2 setlinecap
1 LJ
0.667 LW
N
806.5 251 M
806.5 258.55 L
S
GR
GS
[0.75 0 0 0.75 0 0.5] CT
0.149 GC
2 setlinecap
1 LJ
0.667 LW
N
831.667 251 M
831.667 258.55 L
S
GR
GS
[0.75 0 0 0.75 0 0.5] CT
0.149 GC
2 setlinecap
1 LJ
0.667 LW
N
856.833 251 M
856.833 258.55 L
S
GR
GS
[0.75 0 0 0.75 114.125 308.25001] CT
0.149 GC
/Helvetica 13.333 F
GS
[1 0 0 1 0 0] CT
-4.5 13 moveto 
1 -1 scale
(1) t 
GR
GR
GS
[0.75 0 0 0.75 133 308.25001] CT
0.149 GC
/Helvetica 13.333 F
GS
[1 0 0 1 0 0] CT
-4.5 13 moveto 
1 -1 scale
(2) t 
GR
GR
GS
[0.75 0 0 0.75 151.875 308.25001] CT
0.149 GC
/Helvetica 13.333 F
GS
[1 0 0 1 0 0] CT
-4.5 13 moveto 
1 -1 scale
(3) t 
GR
GR
GS
[0.75 0 0 0.75 170.75 308.25001] CT
0.149 GC
/Helvetica 13.333 F
GS
[1 0 0 1 0 0] CT
-4.5 13 moveto 
1 -1 scale
(4) t 
GR
GR
GS
[0.75 0 0 0.75 189.625 308.25001] CT
0.149 GC
/Helvetica 13.333 F
GS
[1 0 0 1 0 0] CT
-4.5 13 moveto 
1 -1 scale
(5) t 
GR
GR
GS
[0.75 0 0 0.75 208.5 308.25001] CT
0.149 GC
/Helvetica 13.333 F
GS
[1 0 0 1 0 0] CT
-4.5 13 moveto 
1 -1 scale
(6) t 
GR
GR
GS
[0.75 0 0 0.75 227.37499 308.25001] CT
0.149 GC
/Helvetica 13.333 F
GS
[1 0 0 1 0 0] CT
-4.5 13 moveto 
1 -1 scale
(7) t 
GR
GR
GS
[0.75 0 0 0.75 246.25001 308.25001] CT
0.149 GC
/Helvetica 13.333 F
GS
[1 0 0 1 0 0] CT
-4.5 13 moveto 
1 -1 scale
(8) t 
GR
GR
GS
[0.75 0 0 0.75 265.125 308.25001] CT
0.149 GC
/Helvetica 13.333 F
GS
[1 0 0 1 0 0] CT
-4.5 13 moveto 
1 -1 scale
(9) t 
GR
GR
GS
[0.75 0 0 0.75 283.99999 308.25001] CT
0.149 GC
/Helvetica 13.333 F
GS
[1 0 0 1 0 0] CT
-8.5 13 moveto 
1 -1 scale
(10) t 
GR
GR
GS
[0.75 0 0 0.75 302.87501 308.25001] CT
0.149 GC
/Helvetica 13.333 F
GS
[1 0 0 1 0 0] CT
-8.5 13 moveto 
1 -1 scale
(11) t 
GR
GR
GS
[0.75 0 0 0.75 321.75 308.25001] CT
0.149 GC
/Helvetica 13.333 F
GS
[1 0 0 1 0 0] CT
-8.5 13 moveto 
1 -1 scale
(12) t 
GR
GR
GS
[0.75 0 0 0.75 340.62499 308.25001] CT
0.149 GC
/Helvetica 13.333 F
GS
[1 0 0 1 0 0] CT
-8.5 13 moveto 
1 -1 scale
(13) t 
GR
GR
GS
[0.75 0 0 0.75 359.50001 308.25001] CT
0.149 GC
/Helvetica 13.333 F
GS
[1 0 0 1 0 0] CT
-8.5 13 moveto 
1 -1 scale
(14) t 
GR
GR
GS
[0.75 0 0 0.75 378.375 308.25001] CT
0.149 GC
/Helvetica 13.333 F
GS
[1 0 0 1 0 0] CT
-8.5 13 moveto 
1 -1 scale
(15) t 
GR
GR
GS
[0.75 0 0 0.75 397.25002 308.25001] CT
0.149 GC
/Helvetica 13.333 F
GS
[1 0 0 1 0 0] CT
-8.5 13 moveto 
1 -1 scale
(16) t 
GR
GR
GS
[0.75 0 0 0.75 416.12498 308.25001] CT
0.149 GC
/Helvetica 13.333 F
GS
[1 0 0 1 0 0] CT
-8.5 13 moveto 
1 -1 scale
(17) t 
GR
GR
GS
[0.75 0 0 0.75 435 308.25001] CT
0.149 GC
/Helvetica 13.333 F
GS
[1 0 0 1 0 0] CT
-8.5 13 moveto 
1 -1 scale
(18) t 
GR
GR
GS
[0.75 0 0 0.75 453.87502 308.25001] CT
0.149 GC
/Helvetica 13.333 F
GS
[1 0 0 1 0 0] CT
-8.5 13 moveto 
1 -1 scale
(19) t 
GR
GR
GS
[0.75 0 0 0.75 472.74998 308.25001] CT
0.149 GC
/Helvetica 13.333 F
GS
[1 0 0 1 0 0] CT
-8.5 13 moveto 
1 -1 scale
(20) t 
GR
GR
GS
[0.75 0 0 0.75 491.625 308.25001] CT
0.149 GC
/Helvetica 13.333 F
GS
[1 0 0 1 0 0] CT
-8.5 13 moveto 
1 -1 scale
(21) t 
GR
GR
GS
[0.75 0 0 0.75 510.50002 308.25001] CT
0.149 GC
/Helvetica 13.333 F
GS
[1 0 0 1 0 0] CT
-8.5 13 moveto 
1 -1 scale
(22) t 
GR
GR
GS
[0.75 0 0 0.75 529.37498 308.25001] CT
0.149 GC
/Helvetica 13.333 F
GS
[1 0 0 1 0 0] CT
-8.5 13 moveto 
1 -1 scale
(23) t 
GR
GR
GS
[0.75 0 0 0.75 548.25 308.25001] CT
0.149 GC
/Helvetica 13.333 F
GS
[1 0 0 1 0 0] CT
-8.5 13 moveto 
1 -1 scale
(24) t 
GR
GR
GS
[0.75 0 0 0.75 567.12502 308.25001] CT
0.149 GC
/Helvetica 13.333 F
GS
[1 0 0 1 0 0] CT
-8.5 13 moveto 
1 -1 scale
(25) t 
GR
GR
GS
[0.75 0 0 0.75 585.99998 308.25001] CT
0.149 GC
/Helvetica 13.333 F
GS
[1 0 0 1 0 0] CT
-8.5 13 moveto 
1 -1 scale
(27) t 
GR
GR
GS
[0.75 0 0 0.75 604.875 308.25001] CT
0.149 GC
/Helvetica 13.333 F
GS
[1 0 0 1 0 0] CT
-8.5 13 moveto 
1 -1 scale
(28) t 
GR
GR
GS
[0.75 0 0 0.75 623.75002 308.25001] CT
0.149 GC
/Helvetica 13.333 F
GS
[1 0 0 1 0 0] CT
-8.5 13 moveto 
1 -1 scale
(29) t 
GR
GR
GS
[0.75 0 0 0.75 642.62498 308.25001] CT
0.149 GC
/Helvetica 13.333 F
GS
[1 0 0 1 0 0] CT
-8.5 13 moveto 
1 -1 scale
(30) t 
GR
GR
GS
[0.75 0 0 0.75 378.37527 321.99999] CT
0.149 GC
/Helvetica 14.667 F
GS
[1 0 0 1 0 0] CT
-45.5 14 moveto 
1 -1 scale
(Point clouds) t 
GR
GR
GS
[0.75 0 0 0.75 0 0.5] CT
0.149 GC
2 setlinecap
1 LJ
0.667 LW
N
127 405 M
127 251 L
S
GR
GS
[0.75 0 0 0.75 0 0.5] CT
0.149 GC
2 setlinecap
1 LJ
0.667 LW
N
882 405 M
882 251 L
S
GR
GS
[0.75 0 0 0.75 0 0.5] CT
0.149 GC
2 setlinecap
1 LJ
0.667 LW
N
127 405 M
134.55 405 L
S
GR
GS
[0.75 0 0 0.75 0 0.5] CT
0.149 GC
2 setlinecap
1 LJ
0.667 LW
N
127 366.5 M
134.55 366.5 L
S
GR
GS
[0.75 0 0 0.75 0 0.5] CT
0.149 GC
2 setlinecap
1 LJ
0.667 LW
N
127 328 M
134.55 328 L
S
GR
GS
[0.75 0 0 0.75 0 0.5] CT
0.149 GC
2 setlinecap
1 LJ
0.667 LW
N
127 289.5 M
134.55 289.5 L
S
GR
GS
[0.75 0 0 0.75 0 0.5] CT
0.149 GC
2 setlinecap
1 LJ
0.667 LW
N
127 251 M
134.55 251 L
S
GR
GS
[0.75 0 0 0.75 0 0.5] CT
0.149 GC
2 setlinecap
1 LJ
0.667 LW
N
882 405 M
874.45 405 L
S
GR
GS
[0.75 0 0 0.75 0 0.5] CT
0.149 GC
2 setlinecap
1 LJ
0.667 LW
N
882 366.5 M
874.45 366.5 L
S
GR
GS
[0.75 0 0 0.75 0 0.5] CT
0.149 GC
2 setlinecap
1 LJ
0.667 LW
N
882 328 M
874.45 328 L
S
GR
GS
[0.75 0 0 0.75 0 0.5] CT
0.149 GC
2 setlinecap
1 LJ
0.667 LW
N
882 289.5 M
874.45 289.5 L
S
GR
GS
[0.75 0 0 0.75 0 0.5] CT
0.149 GC
2 setlinecap
1 LJ
0.667 LW
N
882 251 M
874.45 251 L
S
GR
GS
[0.75 0 0 0.75 91.25 304.25] CT
0.149 GC
/Helvetica 13.333 F
GS
[1 0 0 1 0 0] CT
-34 4.5 moveto 
1 -1 scale
(-0.06) t 
GR
GR
GS
[0.75 0 0 0.75 91.25 275.375] CT
0.149 GC
/Helvetica 13.333 F
GS
[1 0 0 1 0 0] CT
-34 4.5 moveto 
1 -1 scale
(-0.04) t 
GR
GR
GS
[0.75 0 0 0.75 91.25 246.5] CT
0.149 GC
/Helvetica 13.333 F
GS
[1 0 0 1 0 0] CT
-34 4.5 moveto 
1 -1 scale
(-0.02) t 
GR
GR
GS
[0.75 0 0 0.75 91.25 217.625] CT
0.149 GC
/Helvetica 13.333 F
GS
[1 0 0 1 0 0] CT
-9 4.5 moveto 
1 -1 scale
(0) t 
GR
GR
GS
[0.75 0 0 0.75 91.25 188.75] CT
0.149 GC
/Helvetica 13.333 F
GS
[1 0 0 1 0 0] CT
-29 4.5 moveto 
1 -1 scale
(0.02) t 
GR
GR
GS
[0 -0.75 0.75 0 62.75 246.49995] CT
0.149 GC
/Helvetica 14.667 F
GS
[1 0 0 1 0 0] CT
-32.5 -4 moveto 
1 -1 scale
(delta-err) t 
GR
GR
%%Trailer
%%Pages: 1
%%EOF
