%!PS-Adobe-3.0 EPSF-3.0
%%Creator: (MATLAB, The Mathworks, Inc. Version 9.2.0.538062 \(R2017a\). Operating System: Linux)
%%Title: /home/nicola/Scrivania/RESEARCH/Projects/TrimBot2020/RESEARCH/Speedup/evaluation_V100/gtx-tranerr.eps
%%CreationDate: 2019-09-25T19:18:39
%%Pages: (atend)
%%BoundingBox: 0 0 731 344
%%LanguageLevel: 3
%%EndComments
%%BeginProlog
%%BeginResource: procset (Apache XML Graphics Std ProcSet) 1.2 0
%%Version: 1.2 0
%%Copyright: (Copyright 2001-2003,2010 The Apache Software Foundation. License terms: http://www.apache.org/licenses/LICENSE-2.0)
/bd{bind def}bind def
/ld{load def}bd
/GR/grestore ld
/M/moveto ld
/LJ/setlinejoin ld
/C/curveto ld
/f/fill ld
/LW/setlinewidth ld
/GC/setgray ld
/t/show ld
/N/newpath ld
/CT/concat ld
/cp/closepath ld
/S/stroke ld
/L/lineto ld
/CC/setcmykcolor ld
/A/ashow ld
/GS/gsave ld
/RC/setrgbcolor ld
/RM/rmoveto ld
/ML/setmiterlimit ld
/re {4 2 roll M
1 index 0 rlineto
0 exch rlineto
neg 0 rlineto
cp } bd
/_ctm matrix def
/_tm matrix def
/BT { _ctm currentmatrix pop matrix _tm copy pop 0 0 moveto } bd
/ET { _ctm setmatrix } bd
/iTm { _ctm setmatrix _tm concat } bd
/Tm { _tm astore pop iTm 0 0 moveto } bd
/ux 0.0 def
/uy 0.0 def
/F {
  /Tp exch def
  /Tf exch def
  Tf findfont Tp scalefont setfont
  /cf Tf def  /cs Tp def
} bd
/ULS {currentpoint /uy exch def /ux exch def} bd
/ULE {
  /Tcx currentpoint pop def
  gsave
  newpath
  cf findfont cs scalefont dup
  /FontMatrix get 0 get /Ts exch def /FontInfo get dup
  /UnderlinePosition get Ts mul /To exch def
  /UnderlineThickness get Ts mul /Tt exch def
  ux uy To add moveto  Tcx uy To add lineto
  Tt setlinewidth stroke
  grestore
} bd
/OLE {
  /Tcx currentpoint pop def
  gsave
  newpath
  cf findfont cs scalefont dup
  /FontMatrix get 0 get /Ts exch def /FontInfo get dup
  /UnderlinePosition get Ts mul /To exch def
  /UnderlineThickness get Ts mul /Tt exch def
  ux uy To add cs add moveto Tcx uy To add cs add lineto
  Tt setlinewidth stroke
  grestore
} bd
/SOE {
  /Tcx currentpoint pop def
  gsave
  newpath
  cf findfont cs scalefont dup
  /FontMatrix get 0 get /Ts exch def /FontInfo get dup
  /UnderlinePosition get Ts mul /To exch def
  /UnderlineThickness get Ts mul /Tt exch def
  ux uy To add cs 10 mul 26 idiv add moveto Tcx uy To add cs 10 mul 26 idiv add lineto
  Tt setlinewidth stroke
  grestore
} bd
/QT {
/Y22 exch store
/X22 exch store
/Y21 exch store
/X21 exch store
currentpoint
/Y21 load 2 mul add 3 div exch
/X21 load 2 mul add 3 div exch
/X21 load 2 mul /X22 load add 3 div
/Y21 load 2 mul /Y22 load add 3 div
/X22 load /Y22 load curveto
} bd
/SSPD {
dup length /d exch dict def
{
/v exch def
/k exch def
currentpagedevice k known {
/cpdv currentpagedevice k get def
v cpdv ne {
/upd false def
/nullv v type /nulltype eq def
/nullcpdv cpdv type /nulltype eq def
nullv nullcpdv or
{
/upd true def
} {
/sametype v type cpdv type eq def
sametype {
v type /arraytype eq {
/vlen v length def
/cpdvlen cpdv length def
vlen cpdvlen eq {
0 1 vlen 1 sub {
/i exch def
/obj v i get def
/cpdobj cpdv i get def
obj cpdobj ne {
/upd true def
exit
} if
} for
} {
/upd true def
} ifelse
} {
v type /dicttype eq {
v {
/dv exch def
/dk exch def
/cpddv cpdv dk get def
dv cpddv ne {
/upd true def
exit
} if
} forall
} {
/upd true def
} ifelse
} ifelse
} if
} ifelse
upd true eq {
d k v put
} if
} if
} if
} forall
d length 0 gt {
d setpagedevice
} if
} bd
/RE { % /NewFontName [NewEncodingArray] /FontName RE -
  findfont dup length dict begin
  {
    1 index /FID ne
    {def} {pop pop} ifelse
  } forall
  /Encoding exch def
  /FontName 1 index def
  currentdict definefont pop
  end
} bind def
%%EndResource
%%BeginResource: procset (Apache XML Graphics EPS ProcSet) 1.0 0
%%Version: 1.0 0
%%Copyright: (Copyright 2002-2003 The Apache Software Foundation. License terms: http://www.apache.org/licenses/LICENSE-2.0)
/BeginEPSF { %def
/b4_Inc_state save def         % Save state for cleanup
/dict_count countdictstack def % Count objects on dict stack
/op_count count 1 sub def      % Count objects on operand stack
userdict begin                 % Push userdict on dict stack
/showpage { } def              % Redefine showpage, { } = null proc
0 setgray 0 setlinecap         % Prepare graphics state
1 setlinewidth 0 setlinejoin
10 setmiterlimit [ ] 0 setdash newpath
/languagelevel where           % If level not equal to 1 then
{pop languagelevel             % set strokeadjust and
1 ne                           % overprint to their defaults.
{false setstrokeadjust false setoverprint
} if
} if
} bd
/EndEPSF { %def
count op_count sub {pop} repeat            % Clean up stacks
countdictstack dict_count sub {end} repeat
b4_Inc_state restore
} bd
%%EndResource
%FOPBeginFontDict
%%IncludeResource: font Courier-Bold
%%IncludeResource: font Helvetica
%%IncludeResource: font Courier-BoldOblique
%%IncludeResource: font Courier-Oblique
%%IncludeResource: font Times-Roman
%%IncludeResource: font Helvetica-BoldOblique
%%IncludeResource: font Helvetica-Bold
%%IncludeResource: font Helvetica-Oblique
%%IncludeResource: font Times-BoldItalic
%%IncludeResource: font Courier
%%IncludeResource: font Times-Italic
%%IncludeResource: font Times-Bold
%%IncludeResource: font Symbol
%%IncludeResource: font ZapfDingbats
%FOPEndFontDict
%%BeginResource: encoding WinAnsiEncoding
/WinAnsiEncoding [
/.notdef /.notdef /.notdef /.notdef /.notdef
/.notdef /.notdef /.notdef /.notdef /.notdef
/.notdef /.notdef /.notdef /.notdef /.notdef
/.notdef /.notdef /.notdef /.notdef /.notdef
/.notdef /.notdef /.notdef /.notdef /.notdef
/.notdef /.notdef /.notdef /.notdef /.notdef
/.notdef /.notdef /space /exclam /quotedbl
/numbersign /dollar /percent /ampersand /quotesingle
/parenleft /parenright /asterisk /plus /comma
/hyphen /period /slash /zero /one
/two /three /four /five /six
/seven /eight /nine /colon /semicolon
/less /equal /greater /question /at
/A /B /C /D /E
/F /G /H /I /J
/K /L /M /N /O
/P /Q /R /S /T
/U /V /W /X /Y
/Z /bracketleft /backslash /bracketright /asciicircum
/underscore /quoteleft /a /b /c
/d /e /f /g /h
/i /j /k /l /m
/n /o /p /q /r
/s /t /u /v /w
/x /y /z /braceleft /bar
/braceright /asciitilde /bullet /Euro /bullet
/quotesinglbase /florin /quotedblbase /ellipsis /dagger
/daggerdbl /circumflex /perthousand /Scaron /guilsinglleft
/OE /bullet /Zcaron /bullet /bullet
/quoteleft /quoteright /quotedblleft /quotedblright /bullet
/endash /emdash /asciitilde /trademark /scaron
/guilsinglright /oe /bullet /zcaron /Ydieresis
/space /exclamdown /cent /sterling /currency
/yen /brokenbar /section /dieresis /copyright
/ordfeminine /guillemotleft /logicalnot /sfthyphen /registered
/macron /degree /plusminus /twosuperior /threesuperior
/acute /mu /paragraph /middot /cedilla
/onesuperior /ordmasculine /guillemotright /onequarter /onehalf
/threequarters /questiondown /Agrave /Aacute /Acircumflex
/Atilde /Adieresis /Aring /AE /Ccedilla
/Egrave /Eacute /Ecircumflex /Edieresis /Igrave
/Iacute /Icircumflex /Idieresis /Eth /Ntilde
/Ograve /Oacute /Ocircumflex /Otilde /Odieresis
/multiply /Oslash /Ugrave /Uacute /Ucircumflex
/Udieresis /Yacute /Thorn /germandbls /agrave
/aacute /acircumflex /atilde /adieresis /aring
/ae /ccedilla /egrave /eacute /ecircumflex
/edieresis /igrave /iacute /icircumflex /idieresis
/eth /ntilde /ograve /oacute /ocircumflex
/otilde /odieresis /divide /oslash /ugrave
/uacute /ucircumflex /udieresis /yacute /thorn
/ydieresis
] def
%%EndResource
%FOPBeginFontReencode
/Courier-Bold findfont
dup length dict begin
  {1 index /FID ne {def} {pop pop} ifelse} forall
  /Encoding WinAnsiEncoding def
  currentdict
end
/Courier-Bold exch definefont pop
/Helvetica findfont
dup length dict begin
  {1 index /FID ne {def} {pop pop} ifelse} forall
  /Encoding WinAnsiEncoding def
  currentdict
end
/Helvetica exch definefont pop
/Courier-BoldOblique findfont
dup length dict begin
  {1 index /FID ne {def} {pop pop} ifelse} forall
  /Encoding WinAnsiEncoding def
  currentdict
end
/Courier-BoldOblique exch definefont pop
/Courier-Oblique findfont
dup length dict begin
  {1 index /FID ne {def} {pop pop} ifelse} forall
  /Encoding WinAnsiEncoding def
  currentdict
end
/Courier-Oblique exch definefont pop
/Times-Roman findfont
dup length dict begin
  {1 index /FID ne {def} {pop pop} ifelse} forall
  /Encoding WinAnsiEncoding def
  currentdict
end
/Times-Roman exch definefont pop
/Helvetica-BoldOblique findfont
dup length dict begin
  {1 index /FID ne {def} {pop pop} ifelse} forall
  /Encoding WinAnsiEncoding def
  currentdict
end
/Helvetica-BoldOblique exch definefont pop
/Helvetica-Bold findfont
dup length dict begin
  {1 index /FID ne {def} {pop pop} ifelse} forall
  /Encoding WinAnsiEncoding def
  currentdict
end
/Helvetica-Bold exch definefont pop
/Helvetica-Oblique findfont
dup length dict begin
  {1 index /FID ne {def} {pop pop} ifelse} forall
  /Encoding WinAnsiEncoding def
  currentdict
end
/Helvetica-Oblique exch definefont pop
/Times-BoldItalic findfont
dup length dict begin
  {1 index /FID ne {def} {pop pop} ifelse} forall
  /Encoding WinAnsiEncoding def
  currentdict
end
/Times-BoldItalic exch definefont pop
/Courier findfont
dup length dict begin
  {1 index /FID ne {def} {pop pop} ifelse} forall
  /Encoding WinAnsiEncoding def
  currentdict
end
/Courier exch definefont pop
/Times-Italic findfont
dup length dict begin
  {1 index /FID ne {def} {pop pop} ifelse} forall
  /Encoding WinAnsiEncoding def
  currentdict
end
/Times-Italic exch definefont pop
/Times-Bold findfont
dup length dict begin
  {1 index /FID ne {def} {pop pop} ifelse} forall
  /Encoding WinAnsiEncoding def
  currentdict
end
/Times-Bold exch definefont pop
%FOPEndFontReencode
%%EndProlog
%%Page: 1 1
%%PageBoundingBox: 0 0 731 344
%%BeginPageSetup
[1 0 0 -1 0 344] CT
%%EndPageSetup
GS
[0.75 0 0 0.75 0 0.5] CT
N
0 0 M
975 0 L
975 458 L
0 458 L
0 0 L
cp
clip
1 GC
N
0 0 975 458 re
f
GR
GS
[0.75 0 0 0.75 0 0.5] CT
1 GC
N
0 0 975 458 re
f
GR
GS
[0.75 0 0 0.75 0 0.5] CT
1 GC
N
127 188 M
882 188 L
882 34 L
127 34 L
cp
f
GR
GS
[0.75 0 0 0.75 378.37537 23.93749] CT
/Helvetica-Bold 14.667 F
GS
[1 0 0 1 0 0] CT
-139 -4 moveto 
1 -1 scale
(Comparison of translation errors) t 
GR
GR
GS
[0.75 0 0 0.75 0 0.5] CT
0.149 GC
1 LJ
0.667 LW
N
127 188 M
882 188 L
S
GR
GS
[0.75 0 0 0.75 0 0.5] CT
0.929 0.694 0.125 RC
N
143.473 188 M
147.133 188 L
147.133 79.692 L
143.473 79.692 L
cp
f
GR
GS
[0.75 0 0 0.75 0 0.5] CT
0.929 0.694 0.125 RC
N
168.639 188 M
172.3 188 L
172.3 131.314 L
168.639 131.314 L
cp
f
GR
GS
[0.75 0 0 0.75 0 0.5] CT
0.929 0.694 0.125 RC
N
193.806 188 M
197.467 188 L
197.467 154.387 L
193.806 154.387 L
cp
f
GR
GS
[0.75 0 0 0.75 0 0.5] CT
0.929 0.694 0.125 RC
N
218.973 188 M
222.633 188 L
222.633 38.937 L
218.973 38.937 L
cp
f
GR
GS
[0.75 0 0 0.75 0 0.5] CT
0.929 0.694 0.125 RC
N
244.139 188 M
247.8 188 L
247.8 146.446 L
244.139 146.446 L
cp
f
GR
GS
[0.75 0 0 0.75 0 0.5] CT
0.929 0.694 0.125 RC
N
269.306 188 M
272.967 188 L
272.967 109.088 L
269.306 109.088 L
cp
f
GR
GS
[0.75 0 0 0.75 0 0.5] CT
0.929 0.694 0.125 RC
N
294.473 188 M
298.133 188 L
298.133 182.05 L
294.473 182.05 L
cp
f
GR
GS
[0.75 0 0 0.75 0 0.5] CT
0.929 0.694 0.125 RC
N
319.639 188 M
323.3 188 L
323.3 187.624 L
319.639 187.624 L
cp
f
GR
GS
[0.75 0 0 0.75 0 0.5] CT
0.929 0.694 0.125 RC
N
344.806 188 M
348.467 188 L
348.467 97.252 L
344.806 97.252 L
cp
f
GR
GS
[0.75 0 0 0.75 0 0.5] CT
0.929 0.694 0.125 RC
N
369.973 188 M
373.633 188 L
373.633 57.486 L
369.973 57.486 L
cp
f
GR
GS
[0.75 0 0 0.75 0 0.5] CT
0.929 0.694 0.125 RC
N
395.139 188 M
398.8 188 L
398.8 138.808 L
395.139 138.808 L
cp
f
GR
GS
[0.75 0 0 0.75 0 0.5] CT
0.929 0.694 0.125 RC
N
420.306 188 M
423.967 188 L
423.967 141.505 L
420.306 141.505 L
cp
f
GR
GS
[0.75 0 0 0.75 0 0.5] CT
0.929 0.694 0.125 RC
N
445.473 188 M
449.133 188 L
449.133 71.874 L
445.473 71.874 L
cp
f
GR
GS
[0.75 0 0 0.75 0 0.5] CT
0.929 0.694 0.125 RC
N
470.639 188 M
474.3 188 L
474.3 97.62 L
470.639 97.62 L
cp
f
GR
GS
[0.75 0 0 0.75 0 0.5] CT
0.929 0.694 0.125 RC
N
495.806 188 M
499.467 188 L
499.467 136.711 L
495.806 136.711 L
cp
f
GR
GS
[0.75 0 0 0.75 0 0.5] CT
0.929 0.694 0.125 RC
N
520.973 188 M
524.633 188 L
524.633 148.828 L
520.973 148.828 L
cp
f
GR
GS
[0.75 0 0 0.75 0 0.5] CT
0.929 0.694 0.125 RC
N
546.139 188 M
549.8 188 L
549.8 61.008 L
546.139 61.008 L
cp
f
GR
GS
[0.75 0 0 0.75 0 0.5] CT
0.929 0.694 0.125 RC
N
571.306 188 M
574.967 188 L
574.967 58.465 L
571.306 58.465 L
cp
f
GR
GS
[0.75 0 0 0.75 0 0.5] CT
0.929 0.694 0.125 RC
N
596.473 188 M
600.133 188 L
600.133 99.534 L
596.473 99.534 L
cp
f
GR
GS
[0.75 0 0 0.75 0 0.5] CT
0.929 0.694 0.125 RC
N
621.639 188 M
625.3 188 L
625.3 186.9 L
621.639 186.9 L
cp
f
GR
GS
[0.75 0 0 0.75 0 0.5] CT
0.929 0.694 0.125 RC
N
646.806 188 M
650.467 188 L
650.467 137.709 L
646.806 137.709 L
cp
f
GR
GS
[0.75 0 0 0.75 0 0.5] CT
0.929 0.694 0.125 RC
N
671.973 188 M
675.633 188 L
675.633 167.232 L
671.973 167.232 L
cp
f
GR
GS
[0.75 0 0 0.75 0 0.5] CT
0.929 0.694 0.125 RC
N
697.139 188 M
700.8 188 L
700.8 46.489 L
697.139 46.489 L
cp
f
GR
GS
[0.75 0 0 0.75 0 0.5] CT
0.929 0.694 0.125 RC
N
722.306 188 M
725.967 188 L
725.967 88.484 L
722.306 88.484 L
cp
f
GR
GS
[0.75 0 0 0.75 0 0.5] CT
0.929 0.694 0.125 RC
N
747.473 188 M
751.133 188 L
751.133 129.247 L
747.473 129.247 L
cp
f
GR
GS
[0.75 0 0 0.75 0 0.5] CT
0.929 0.694 0.125 RC
N
772.639 188 M
776.3 188 L
776.3 137.261 L
772.639 137.261 L
cp
f
GR
GS
[0.75 0 0 0.75 0 0.5] CT
0.929 0.694 0.125 RC
N
797.806 188 M
801.467 188 L
801.467 122.961 L
797.806 122.961 L
cp
f
GR
GS
[0.75 0 0 0.75 0 0.5] CT
0.929 0.694 0.125 RC
N
822.973 188 M
826.633 188 L
826.633 160.627 L
822.973 160.627 L
cp
f
GR
GS
[0.75 0 0 0.75 0 0.5] CT
0.929 0.694 0.125 RC
N
848.139 188 M
851.8 188 L
851.8 129.931 L
848.139 129.931 L
cp
f
GR
GS
[0.75 0 0 0.75 0 0.5] CT
10.0 ML
0.667 LW
N
143.473 188 M
143.473 79.692 L
147.133 79.692 L
147.133 188 L
cp
S
GR
GS
[0.75 0 0 0.75 0 0.5] CT
10.0 ML
0.667 LW
N
168.639 188 M
168.639 131.314 L
172.3 131.314 L
172.3 188 L
cp
S
GR
GS
[0.75 0 0 0.75 0 0.5] CT
10.0 ML
0.667 LW
N
193.806 188 M
193.806 154.387 L
197.467 154.387 L
197.467 188 L
cp
S
GR
GS
[0.75 0 0 0.75 0 0.5] CT
10.0 ML
0.667 LW
N
218.973 188 M
218.973 38.937 L
222.633 38.937 L
222.633 188 L
cp
S
GR
GS
[0.75 0 0 0.75 0 0.5] CT
10.0 ML
0.667 LW
N
244.139 188 M
244.139 146.446 L
247.8 146.446 L
247.8 188 L
cp
S
GR
GS
[0.75 0 0 0.75 0 0.5] CT
10.0 ML
0.667 LW
N
269.306 188 M
269.306 109.088 L
272.967 109.088 L
272.967 188 L
cp
S
GR
GS
[0.75 0 0 0.75 0 0.5] CT
10.0 ML
0.667 LW
N
294.473 188 M
294.473 182.05 L
298.133 182.05 L
298.133 188 L
cp
S
GR
GS
[0.75 0 0 0.75 0 0.5] CT
10.0 ML
0.667 LW
N
319.639 188 M
319.639 187.624 L
323.3 187.624 L
323.3 188 L
cp
S
GR
GS
[0.75 0 0 0.75 0 0.5] CT
10.0 ML
0.667 LW
N
344.806 188 M
344.806 97.252 L
348.467 97.252 L
348.467 188 L
cp
S
GR
GS
[0.75 0 0 0.75 0 0.5] CT
10.0 ML
0.667 LW
N
369.973 188 M
369.973 57.486 L
373.633 57.486 L
373.633 188 L
cp
S
GR
GS
[0.75 0 0 0.75 0 0.5] CT
10.0 ML
0.667 LW
N
395.139 188 M
395.139 138.808 L
398.8 138.808 L
398.8 188 L
cp
S
GR
GS
[0.75 0 0 0.75 0 0.5] CT
10.0 ML
0.667 LW
N
420.306 188 M
420.306 141.505 L
423.967 141.505 L
423.967 188 L
cp
S
GR
GS
[0.75 0 0 0.75 0 0.5] CT
10.0 ML
0.667 LW
N
445.473 188 M
445.473 71.874 L
449.133 71.874 L
449.133 188 L
cp
S
GR
GS
[0.75 0 0 0.75 0 0.5] CT
10.0 ML
0.667 LW
N
470.639 188 M
470.639 97.62 L
474.3 97.62 L
474.3 188 L
cp
S
GR
GS
[0.75 0 0 0.75 0 0.5] CT
10.0 ML
0.667 LW
N
495.806 188 M
495.806 136.711 L
499.467 136.711 L
499.467 188 L
cp
S
GR
GS
[0.75 0 0 0.75 0 0.5] CT
10.0 ML
0.667 LW
N
520.973 188 M
520.973 148.828 L
524.633 148.828 L
524.633 188 L
cp
S
GR
GS
[0.75 0 0 0.75 0 0.5] CT
10.0 ML
0.667 LW
N
546.139 188 M
546.139 61.008 L
549.8 61.008 L
549.8 188 L
cp
S
GR
GS
[0.75 0 0 0.75 0 0.5] CT
10.0 ML
0.667 LW
N
571.306 188 M
571.306 58.465 L
574.967 58.465 L
574.967 188 L
cp
S
GR
GS
[0.75 0 0 0.75 0 0.5] CT
10.0 ML
0.667 LW
N
596.473 188 M
596.473 99.534 L
600.133 99.534 L
600.133 188 L
cp
S
GR
GS
[0.75 0 0 0.75 0 0.5] CT
10.0 ML
0.667 LW
N
621.639 188 M
621.639 186.9 L
625.3 186.9 L
625.3 188 L
cp
S
GR
GS
[0.75 0 0 0.75 0 0.5] CT
10.0 ML
0.667 LW
N
646.806 188 M
646.806 137.709 L
650.467 137.709 L
650.467 188 L
cp
S
GR
GS
[0.75 0 0 0.75 0 0.5] CT
10.0 ML
0.667 LW
N
671.973 188 M
671.973 167.232 L
675.633 167.232 L
675.633 188 L
cp
S
GR
GS
[0.75 0 0 0.75 0 0.5] CT
10.0 ML
0.667 LW
N
697.139 188 M
697.139 46.489 L
700.8 46.489 L
700.8 188 L
cp
S
GR
GS
[0.75 0 0 0.75 0 0.5] CT
10.0 ML
0.667 LW
N
722.306 188 M
722.306 88.484 L
725.967 88.484 L
725.967 188 L
cp
S
GR
GS
[0.75 0 0 0.75 0 0.5] CT
10.0 ML
0.667 LW
N
747.473 188 M
747.473 129.247 L
751.133 129.247 L
751.133 188 L
cp
S
GR
GS
[0.75 0 0 0.75 0 0.5] CT
10.0 ML
0.667 LW
N
772.639 188 M
772.639 137.261 L
776.3 137.261 L
776.3 188 L
cp
S
GR
GS
[0.75 0 0 0.75 0 0.5] CT
10.0 ML
0.667 LW
N
797.806 188 M
797.806 122.961 L
801.467 122.961 L
801.467 188 L
cp
S
GR
GS
[0.75 0 0 0.75 0 0.5] CT
10.0 ML
0.667 LW
N
822.973 188 M
822.973 160.627 L
826.633 160.627 L
826.633 188 L
cp
S
GR
GS
[0.75 0 0 0.75 0 0.5] CT
10.0 ML
0.667 LW
N
848.139 188 M
848.139 129.931 L
851.8 129.931 L
851.8 188 L
cp
S
GR
GS
[0.75 0 0 0.75 0 0.5] CT
0.302 0.745 0.933 RC
N
148.048 188 M
151.709 188 L
151.709 79.685 L
148.048 79.685 L
cp
f
GR
GS
[0.75 0 0 0.75 0 0.5] CT
0.302 0.745 0.933 RC
N
173.215 188 M
176.876 188 L
176.876 131.307 L
173.215 131.307 L
cp
f
GR
GS
[0.75 0 0 0.75 0 0.5] CT
0.302 0.745 0.933 RC
N
198.382 188 M
202.042 188 L
202.042 154.371 L
198.382 154.371 L
cp
f
GR
GS
[0.75 0 0 0.75 0 0.5] CT
0.302 0.745 0.933 RC
N
223.548 188 M
227.209 188 L
227.209 37.073 L
223.548 37.073 L
cp
f
GR
GS
[0.75 0 0 0.75 0 0.5] CT
0.302 0.745 0.933 RC
N
248.715 188 M
252.376 188 L
252.376 146.448 L
248.715 146.448 L
cp
f
GR
GS
[0.75 0 0 0.75 0 0.5] CT
0.302 0.745 0.933 RC
N
273.882 188 M
277.542 188 L
277.542 111.056 L
273.882 111.056 L
cp
f
GR
GS
[0.75 0 0 0.75 0 0.5] CT
0.302 0.745 0.933 RC
N
299.048 188 M
302.709 188 L
302.709 182.134 L
299.048 182.134 L
cp
f
GR
GS
[0.75 0 0 0.75 0 0.5] CT
0.302 0.745 0.933 RC
N
324.215 188 M
327.876 188 L
327.876 187.515 L
324.215 187.515 L
cp
f
GR
GS
[0.75 0 0 0.75 0 0.5] CT
0.302 0.745 0.933 RC
N
349.382 188 M
353.042 188 L
353.042 97.183 L
349.382 97.183 L
cp
f
GR
GS
[0.75 0 0 0.75 0 0.5] CT
0.302 0.745 0.933 RC
N
374.548 188 M
378.209 188 L
378.209 64.489 L
374.548 64.489 L
cp
f
GR
GS
[0.75 0 0 0.75 0 0.5] CT
0.302 0.745 0.933 RC
N
399.715 188 M
403.376 188 L
403.376 138.806 L
399.715 138.806 L
cp
f
GR
GS
[0.75 0 0 0.75 0 0.5] CT
0.302 0.745 0.933 RC
N
424.882 188 M
428.542 188 L
428.542 141.523 L
424.882 141.523 L
cp
f
GR
GS
[0.75 0 0 0.75 0 0.5] CT
0.302 0.745 0.933 RC
N
450.048 188 M
453.709 188 L
453.709 72.087 L
450.048 72.087 L
cp
f
GR
GS
[0.75 0 0 0.75 0 0.5] CT
0.302 0.745 0.933 RC
N
475.215 188 M
478.876 188 L
478.876 97.158 L
475.215 97.158 L
cp
f
GR
GS
[0.75 0 0 0.75 0 0.5] CT
0.302 0.745 0.933 RC
N
500.382 188 M
504.042 188 L
504.042 136.721 L
500.382 136.721 L
cp
f
GR
GS
[0.75 0 0 0.75 0 0.5] CT
0.302 0.745 0.933 RC
N
525.548 188 M
529.209 188 L
529.209 149.421 L
525.548 149.421 L
cp
f
GR
GS
[0.75 0 0 0.75 0 0.5] CT
0.302 0.745 0.933 RC
N
550.715 188 M
554.376 188 L
554.376 55.905 L
550.715 55.905 L
cp
f
GR
GS
[0.75 0 0 0.75 0 0.5] CT
0.302 0.745 0.933 RC
N
575.882 188 M
579.542 188 L
579.542 55.812 L
575.882 55.812 L
cp
f
GR
GS
[0.75 0 0 0.75 0 0.5] CT
0.302 0.745 0.933 RC
N
601.048 188 M
604.709 188 L
604.709 97.733 L
601.048 97.733 L
cp
f
GR
GS
[0.75 0 0 0.75 0 0.5] CT
0.302 0.745 0.933 RC
N
626.215 188 M
629.876 188 L
629.876 183.144 L
626.215 183.144 L
cp
f
GR
GS
[0.75 0 0 0.75 0 0.5] CT
0.302 0.745 0.933 RC
N
651.382 188 M
655.042 188 L
655.042 137.707 L
651.382 137.707 L
cp
f
GR
GS
[0.75 0 0 0.75 0 0.5] CT
0.302 0.745 0.933 RC
N
676.548 188 M
680.209 188 L
680.209 167.231 L
676.548 167.231 L
cp
f
GR
GS
[0.75 0 0 0.75 0 0.5] CT
0.302 0.745 0.933 RC
N
701.715 188 M
705.376 188 L
705.376 46.483 L
701.715 46.483 L
cp
f
GR
GS
[0.75 0 0 0.75 0 0.5] CT
0.302 0.745 0.933 RC
N
726.882 188 M
730.542 188 L
730.542 87.984 L
726.882 87.984 L
cp
f
GR
GS
[0.75 0 0 0.75 0 0.5] CT
0.302 0.745 0.933 RC
N
752.048 188 M
755.709 188 L
755.709 129.339 L
752.048 129.339 L
cp
f
GR
GS
[0.75 0 0 0.75 0 0.5] CT
0.302 0.745 0.933 RC
N
777.215 188 M
780.876 188 L
780.876 137.259 L
777.215 137.259 L
cp
f
GR
GS
[0.75 0 0 0.75 0 0.5] CT
0.302 0.745 0.933 RC
N
802.382 188 M
806.042 188 L
806.042 122.953 L
802.382 122.953 L
cp
f
GR
GS
[0.75 0 0 0.75 0 0.5] CT
0.302 0.745 0.933 RC
N
827.548 188 M
831.209 188 L
831.209 160.627 L
827.548 160.627 L
cp
f
GR
GS
[0.75 0 0 0.75 0 0.5] CT
0.302 0.745 0.933 RC
N
852.715 188 M
856.376 188 L
856.376 130.083 L
852.715 130.083 L
cp
f
GR
GS
[0.75 0 0 0.75 0 0.5] CT
10.0 ML
0.667 LW
N
148.048 188 M
148.048 79.685 L
151.709 79.685 L
151.709 188 L
cp
S
GR
GS
[0.75 0 0 0.75 0 0.5] CT
10.0 ML
0.667 LW
N
173.215 188 M
173.215 131.307 L
176.876 131.307 L
176.876 188 L
cp
S
GR
GS
[0.75 0 0 0.75 0 0.5] CT
10.0 ML
0.667 LW
N
198.382 188 M
198.382 154.371 L
202.042 154.371 L
202.042 188 L
cp
S
GR
GS
[0.75 0 0 0.75 0 0.5] CT
10.0 ML
0.667 LW
N
223.548 188 M
223.548 37.073 L
227.209 37.073 L
227.209 188 L
cp
S
GR
GS
[0.75 0 0 0.75 0 0.5] CT
10.0 ML
0.667 LW
N
248.715 188 M
248.715 146.448 L
252.376 146.448 L
252.376 188 L
cp
S
GR
GS
[0.75 0 0 0.75 0 0.5] CT
10.0 ML
0.667 LW
N
273.882 188 M
273.882 111.056 L
277.542 111.056 L
277.542 188 L
cp
S
GR
GS
[0.75 0 0 0.75 0 0.5] CT
10.0 ML
0.667 LW
N
299.048 188 M
299.048 182.134 L
302.709 182.134 L
302.709 188 L
cp
S
GR
GS
[0.75 0 0 0.75 0 0.5] CT
10.0 ML
0.667 LW
N
324.215 188 M
324.215 187.515 L
327.876 187.515 L
327.876 188 L
cp
S
GR
GS
[0.75 0 0 0.75 0 0.5] CT
10.0 ML
0.667 LW
N
349.382 188 M
349.382 97.183 L
353.042 97.183 L
353.042 188 L
cp
S
GR
GS
[0.75 0 0 0.75 0 0.5] CT
10.0 ML
0.667 LW
N
374.548 188 M
374.548 64.489 L
378.209 64.489 L
378.209 188 L
cp
S
GR
GS
[0.75 0 0 0.75 0 0.5] CT
10.0 ML
0.667 LW
N
399.715 188 M
399.715 138.806 L
403.376 138.806 L
403.376 188 L
cp
S
GR
GS
[0.75 0 0 0.75 0 0.5] CT
10.0 ML
0.667 LW
N
424.882 188 M
424.882 141.523 L
428.542 141.523 L
428.542 188 L
cp
S
GR
GS
[0.75 0 0 0.75 0 0.5] CT
10.0 ML
0.667 LW
N
450.048 188 M
450.048 72.087 L
453.709 72.087 L
453.709 188 L
cp
S
GR
GS
[0.75 0 0 0.75 0 0.5] CT
10.0 ML
0.667 LW
N
475.215 188 M
475.215 97.158 L
478.876 97.158 L
478.876 188 L
cp
S
GR
GS
[0.75 0 0 0.75 0 0.5] CT
10.0 ML
0.667 LW
N
500.382 188 M
500.382 136.721 L
504.042 136.721 L
504.042 188 L
cp
S
GR
GS
[0.75 0 0 0.75 0 0.5] CT
10.0 ML
0.667 LW
N
525.548 188 M
525.548 149.421 L
529.209 149.421 L
529.209 188 L
cp
S
GR
GS
[0.75 0 0 0.75 0 0.5] CT
10.0 ML
0.667 LW
N
550.715 188 M
550.715 55.905 L
554.376 55.905 L
554.376 188 L
cp
S
GR
GS
[0.75 0 0 0.75 0 0.5] CT
10.0 ML
0.667 LW
N
575.882 188 M
575.882 55.812 L
579.542 55.812 L
579.542 188 L
cp
S
GR
GS
[0.75 0 0 0.75 0 0.5] CT
10.0 ML
0.667 LW
N
601.048 188 M
601.048 97.733 L
604.709 97.733 L
604.709 188 L
cp
S
GR
GS
[0.75 0 0 0.75 0 0.5] CT
10.0 ML
0.667 LW
N
626.215 188 M
626.215 183.144 L
629.876 183.144 L
629.876 188 L
cp
S
GR
GS
[0.75 0 0 0.75 0 0.5] CT
10.0 ML
0.667 LW
N
651.382 188 M
651.382 137.707 L
655.042 137.707 L
655.042 188 L
cp
S
GR
GS
[0.75 0 0 0.75 0 0.5] CT
10.0 ML
0.667 LW
N
676.548 188 M
676.548 167.231 L
680.209 167.231 L
680.209 188 L
cp
S
GR
GS
[0.75 0 0 0.75 0 0.5] CT
10.0 ML
0.667 LW
N
701.715 188 M
701.715 46.483 L
705.376 46.483 L
705.376 188 L
cp
S
GR
GS
[0.75 0 0 0.75 0 0.5] CT
10.0 ML
0.667 LW
N
726.882 188 M
726.882 87.984 L
730.542 87.984 L
730.542 188 L
cp
S
GR
GS
[0.75 0 0 0.75 0 0.5] CT
10.0 ML
0.667 LW
N
752.048 188 M
752.048 129.339 L
755.709 129.339 L
755.709 188 L
cp
S
GR
GS
[0.75 0 0 0.75 0 0.5] CT
10.0 ML
0.667 LW
N
777.215 188 M
777.215 137.259 L
780.876 137.259 L
780.876 188 L
cp
S
GR
GS
[0.75 0 0 0.75 0 0.5] CT
10.0 ML
0.667 LW
N
802.382 188 M
802.382 122.953 L
806.042 122.953 L
806.042 188 L
cp
S
GR
GS
[0.75 0 0 0.75 0 0.5] CT
10.0 ML
0.667 LW
N
827.548 188 M
827.548 160.627 L
831.209 160.627 L
831.209 188 L
cp
S
GR
GS
[0.75 0 0 0.75 0 0.5] CT
10.0 ML
0.667 LW
N
852.715 188 M
852.715 130.083 L
856.376 130.083 L
856.376 188 L
cp
S
GR
GS
[0.75 0 0 0.75 0 0.5] CT
0.635 0.078 0.184 RC
N
152.624 188 M
156.285 188 L
156.285 79.686 L
152.624 79.686 L
cp
f
GR
GS
[0.75 0 0 0.75 0 0.5] CT
0.635 0.078 0.184 RC
N
177.791 188 M
181.452 188 L
181.452 131.307 L
177.791 131.307 L
cp
f
GR
GS
[0.75 0 0 0.75 0 0.5] CT
0.635 0.078 0.184 RC
N
202.958 188 M
206.618 188 L
206.618 154.377 L
202.958 154.377 L
cp
f
GR
GS
[0.75 0 0 0.75 0 0.5] CT
0.635 0.078 0.184 RC
N
228.124 188 M
231.785 188 L
231.785 37.072 L
228.124 37.072 L
cp
f
GR
GS
[0.75 0 0 0.75 0 0.5] CT
0.635 0.078 0.184 RC
N
253.291 188 M
256.952 188 L
256.952 146.449 L
253.291 146.449 L
cp
f
GR
GS
[0.75 0 0 0.75 0 0.5] CT
0.635 0.078 0.184 RC
N
278.458 188 M
282.118 188 L
282.118 111.059 L
278.458 111.059 L
cp
f
GR
GS
[0.75 0 0 0.75 0 0.5] CT
0.635 0.078 0.184 RC
N
303.624 188 M
307.285 188 L
307.285 182.036 L
303.624 182.036 L
cp
f
GR
GS
[0.75 0 0 0.75 0 0.5] CT
0.635 0.078 0.184 RC
N
328.791 188 M
332.452 188 L
332.452 187.544 L
328.791 187.544 L
cp
f
GR
GS
[0.75 0 0 0.75 0 0.5] CT
0.635 0.078 0.184 RC
N
353.958 188 M
357.618 188 L
357.618 97.182 L
353.958 97.182 L
cp
f
GR
GS
[0.75 0 0 0.75 0 0.5] CT
0.635 0.078 0.184 RC
N
379.124 188 M
382.785 188 L
382.785 64.507 L
379.124 64.507 L
cp
f
GR
GS
[0.75 0 0 0.75 0 0.5] CT
0.635 0.078 0.184 RC
N
404.291 188 M
407.952 188 L
407.952 138.805 L
404.291 138.805 L
cp
f
GR
GS
[0.75 0 0 0.75 0 0.5] CT
0.635 0.078 0.184 RC
N
429.458 188 M
433.118 188 L
433.118 141.523 L
429.458 141.523 L
cp
f
GR
GS
[0.75 0 0 0.75 0 0.5] CT
0.635 0.078 0.184 RC
N
454.624 188 M
458.285 188 L
458.285 72.091 L
454.624 72.091 L
cp
f
GR
GS
[0.75 0 0 0.75 0 0.5] CT
0.635 0.078 0.184 RC
N
479.791 188 M
483.452 188 L
483.452 97.172 L
479.791 97.172 L
cp
f
GR
GS
[0.75 0 0 0.75 0 0.5] CT
0.635 0.078 0.184 RC
N
504.958 188 M
508.618 188 L
508.618 136.722 L
504.958 136.722 L
cp
f
GR
GS
[0.75 0 0 0.75 0 0.5] CT
0.635 0.078 0.184 RC
N
530.124 188 M
533.785 188 L
533.785 149.421 L
530.124 149.421 L
cp
f
GR
GS
[0.75 0 0 0.75 0 0.5] CT
0.635 0.078 0.184 RC
N
555.291 188 M
558.952 188 L
558.952 55.909 L
555.291 55.909 L
cp
f
GR
GS
[0.75 0 0 0.75 0 0.5] CT
0.635 0.078 0.184 RC
N
580.458 188 M
584.118 188 L
584.118 55.803 L
580.458 55.803 L
cp
f
GR
GS
[0.75 0 0 0.75 0 0.5] CT
0.635 0.078 0.184 RC
N
605.624 188 M
609.285 188 L
609.285 97.739 L
605.624 97.739 L
cp
f
GR
GS
[0.75 0 0 0.75 0 0.5] CT
0.635 0.078 0.184 RC
N
630.791 188 M
634.452 188 L
634.452 183.189 L
630.791 183.189 L
cp
f
GR
GS
[0.75 0 0 0.75 0 0.5] CT
0.635 0.078 0.184 RC
N
655.958 188 M
659.618 188 L
659.618 137.708 L
655.958 137.708 L
cp
f
GR
GS
[0.75 0 0 0.75 0 0.5] CT
0.635 0.078 0.184 RC
N
681.124 188 M
684.785 188 L
684.785 167.231 L
681.124 167.231 L
cp
f
GR
GS
[0.75 0 0 0.75 0 0.5] CT
0.635 0.078 0.184 RC
N
706.291 188 M
709.952 188 L
709.952 46.483 L
706.291 46.483 L
cp
f
GR
GS
[0.75 0 0 0.75 0 0.5] CT
0.635 0.078 0.184 RC
N
731.458 188 M
735.118 188 L
735.118 87.985 L
731.458 87.985 L
cp
f
GR
GS
[0.75 0 0 0.75 0 0.5] CT
0.635 0.078 0.184 RC
N
756.624 188 M
760.285 188 L
760.285 129.339 L
756.624 129.339 L
cp
f
GR
GS
[0.75 0 0 0.75 0 0.5] CT
0.635 0.078 0.184 RC
N
781.791 188 M
785.452 188 L
785.452 137.262 L
781.791 137.262 L
cp
f
GR
GS
[0.75 0 0 0.75 0 0.5] CT
0.635 0.078 0.184 RC
N
806.958 188 M
810.618 188 L
810.618 122.952 L
806.958 122.952 L
cp
f
GR
GS
[0.75 0 0 0.75 0 0.5] CT
0.635 0.078 0.184 RC
N
832.124 188 M
835.785 188 L
835.785 160.627 L
832.124 160.627 L
cp
f
GR
GS
[0.75 0 0 0.75 0 0.5] CT
0.635 0.078 0.184 RC
N
857.291 188 M
860.952 188 L
860.952 130.084 L
857.291 130.084 L
cp
f
GR
GS
[0.75 0 0 0.75 0 0.5] CT
10.0 ML
0.667 LW
N
152.624 188 M
152.624 79.686 L
156.285 79.686 L
156.285 188 L
cp
S
GR
GS
[0.75 0 0 0.75 0 0.5] CT
10.0 ML
0.667 LW
N
177.791 188 M
177.791 131.307 L
181.452 131.307 L
181.452 188 L
cp
S
GR
GS
[0.75 0 0 0.75 0 0.5] CT
10.0 ML
0.667 LW
N
202.958 188 M
202.958 154.377 L
206.618 154.377 L
206.618 188 L
cp
S
GR
GS
[0.75 0 0 0.75 0 0.5] CT
10.0 ML
0.667 LW
N
228.124 188 M
228.124 37.072 L
231.785 37.072 L
231.785 188 L
cp
S
GR
GS
[0.75 0 0 0.75 0 0.5] CT
10.0 ML
0.667 LW
N
253.291 188 M
253.291 146.449 L
256.952 146.449 L
256.952 188 L
cp
S
GR
GS
[0.75 0 0 0.75 0 0.5] CT
10.0 ML
0.667 LW
N
278.458 188 M
278.458 111.059 L
282.118 111.059 L
282.118 188 L
cp
S
GR
GS
[0.75 0 0 0.75 0 0.5] CT
10.0 ML
0.667 LW
N
303.624 188 M
303.624 182.036 L
307.285 182.036 L
307.285 188 L
cp
S
GR
GS
[0.75 0 0 0.75 0 0.5] CT
10.0 ML
0.667 LW
N
328.791 188 M
328.791 187.544 L
332.452 187.544 L
332.452 188 L
cp
S
GR
GS
[0.75 0 0 0.75 0 0.5] CT
10.0 ML
0.667 LW
N
353.958 188 M
353.958 97.182 L
357.618 97.182 L
357.618 188 L
cp
S
GR
GS
[0.75 0 0 0.75 0 0.5] CT
10.0 ML
0.667 LW
N
379.124 188 M
379.124 64.507 L
382.785 64.507 L
382.785 188 L
cp
S
GR
GS
[0.75 0 0 0.75 0 0.5] CT
10.0 ML
0.667 LW
N
404.291 188 M
404.291 138.805 L
407.952 138.805 L
407.952 188 L
cp
S
GR
GS
[0.75 0 0 0.75 0 0.5] CT
10.0 ML
0.667 LW
N
429.458 188 M
429.458 141.523 L
433.118 141.523 L
433.118 188 L
cp
S
GR
GS
[0.75 0 0 0.75 0 0.5] CT
10.0 ML
0.667 LW
N
454.624 188 M
454.624 72.091 L
458.285 72.091 L
458.285 188 L
cp
S
GR
GS
[0.75 0 0 0.75 0 0.5] CT
10.0 ML
0.667 LW
N
479.791 188 M
479.791 97.172 L
483.452 97.172 L
483.452 188 L
cp
S
GR
GS
[0.75 0 0 0.75 0 0.5] CT
10.0 ML
0.667 LW
N
504.958 188 M
504.958 136.722 L
508.618 136.722 L
508.618 188 L
cp
S
GR
GS
[0.75 0 0 0.75 0 0.5] CT
10.0 ML
0.667 LW
N
530.124 188 M
530.124 149.421 L
533.785 149.421 L
533.785 188 L
cp
S
GR
GS
[0.75 0 0 0.75 0 0.5] CT
10.0 ML
0.667 LW
N
555.291 188 M
555.291 55.909 L
558.952 55.909 L
558.952 188 L
cp
S
GR
GS
[0.75 0 0 0.75 0 0.5] CT
10.0 ML
0.667 LW
N
580.458 188 M
580.458 55.803 L
584.118 55.803 L
584.118 188 L
cp
S
GR
GS
[0.75 0 0 0.75 0 0.5] CT
10.0 ML
0.667 LW
N
605.624 188 M
605.624 97.739 L
609.285 97.739 L
609.285 188 L
cp
S
GR
GS
[0.75 0 0 0.75 0 0.5] CT
10.0 ML
0.667 LW
N
630.791 188 M
630.791 183.189 L
634.452 183.189 L
634.452 188 L
cp
S
GR
GS
[0.75 0 0 0.75 0 0.5] CT
10.0 ML
0.667 LW
N
655.958 188 M
655.958 137.708 L
659.618 137.708 L
659.618 188 L
cp
S
GR
GS
[0.75 0 0 0.75 0 0.5] CT
10.0 ML
0.667 LW
N
681.124 188 M
681.124 167.231 L
684.785 167.231 L
684.785 188 L
cp
S
GR
GS
[0.75 0 0 0.75 0 0.5] CT
10.0 ML
0.667 LW
N
706.291 188 M
706.291 46.483 L
709.952 46.483 L
709.952 188 L
cp
S
GR
GS
[0.75 0 0 0.75 0 0.5] CT
10.0 ML
0.667 LW
N
731.458 188 M
731.458 87.985 L
735.118 87.985 L
735.118 188 L
cp
S
GR
GS
[0.75 0 0 0.75 0 0.5] CT
10.0 ML
0.667 LW
N
756.624 188 M
756.624 129.339 L
760.285 129.339 L
760.285 188 L
cp
S
GR
GS
[0.75 0 0 0.75 0 0.5] CT
10.0 ML
0.667 LW
N
781.791 188 M
781.791 137.262 L
785.452 137.262 L
785.452 188 L
cp
S
GR
GS
[0.75 0 0 0.75 0 0.5] CT
10.0 ML
0.667 LW
N
806.958 188 M
806.958 122.952 L
810.618 122.952 L
810.618 188 L
cp
S
GR
GS
[0.75 0 0 0.75 0 0.5] CT
10.0 ML
0.667 LW
N
832.124 188 M
832.124 160.627 L
835.785 160.627 L
835.785 188 L
cp
S
GR
GS
[0.75 0 0 0.75 0 0.5] CT
10.0 ML
0.667 LW
N
857.291 188 M
857.291 130.084 L
860.952 130.084 L
860.952 188 L
cp
S
GR
GS
[0.75 0 0 0.75 0 0.5] CT
0.467 0.675 0.188 RC
N
157.2 188 M
160.861 188 L
160.861 79.901 L
157.2 79.901 L
cp
f
GR
GS
[0.75 0 0 0.75 0 0.5] CT
0.467 0.675 0.188 RC
N
182.367 188 M
186.027 188 L
186.027 131.418 L
182.367 131.418 L
cp
f
GR
GS
[0.75 0 0 0.75 0 0.5] CT
0.467 0.675 0.188 RC
N
207.533 188 M
211.194 188 L
211.194 154.383 L
207.533 154.383 L
cp
f
GR
GS
[0.75 0 0 0.75 0 0.5] CT
0.467 0.675 0.188 RC
N
232.7 188 M
236.361 188 L
236.361 37.117 L
232.7 37.117 L
cp
f
GR
GS
[0.75 0 0 0.75 0 0.5] CT
0.467 0.675 0.188 RC
N
257.867 188 M
261.527 188 L
261.527 146.712 L
257.867 146.712 L
cp
f
GR
GS
[0.75 0 0 0.75 0 0.5] CT
0.467 0.675 0.188 RC
N
283.033 188 M
286.694 188 L
286.694 110.93 L
283.033 110.93 L
cp
f
GR
GS
[0.75 0 0 0.75 0 0.5] CT
0.467 0.675 0.188 RC
N
308.2 188 M
311.861 188 L
311.861 181.793 L
308.2 181.793 L
cp
f
GR
GS
[0.75 0 0 0.75 0 0.5] CT
0.467 0.675 0.188 RC
N
333.367 188 M
337.027 188 L
337.027 187.591 L
333.367 187.591 L
cp
f
GR
GS
[0.75 0 0 0.75 0 0.5] CT
0.467 0.675 0.188 RC
N
358.533 188 M
362.194 188 L
362.194 97.178 L
358.533 97.178 L
cp
f
GR
GS
[0.75 0 0 0.75 0 0.5] CT
0.467 0.675 0.188 RC
N
383.7 188 M
387.361 188 L
387.361 64.351 L
383.7 64.351 L
cp
f
GR
GS
[0.75 0 0 0.75 0 0.5] CT
0.467 0.675 0.188 RC
N
408.867 188 M
412.527 188 L
412.527 138.871 L
408.867 138.871 L
cp
f
GR
GS
[0.75 0 0 0.75 0 0.5] CT
0.467 0.675 0.188 RC
N
434.033 188 M
437.694 188 L
437.694 141.572 L
434.033 141.572 L
cp
f
GR
GS
[0.75 0 0 0.75 0 0.5] CT
0.467 0.675 0.188 RC
N
459.2 188 M
462.861 188 L
462.861 72.207 L
459.2 72.207 L
cp
f
GR
GS
[0.75 0 0 0.75 0 0.5] CT
0.467 0.675 0.188 RC
N
484.367 188 M
488.027 188 L
488.027 97.414 L
484.367 97.414 L
cp
f
GR
GS
[0.75 0 0 0.75 0 0.5] CT
0.467 0.675 0.188 RC
N
509.533 188 M
513.194 188 L
513.194 136.773 L
509.533 136.773 L
cp
f
GR
GS
[0.75 0 0 0.75 0 0.5] CT
0.467 0.675 0.188 RC
N
534.7 188 M
538.361 188 L
538.361 149.435 L
534.7 149.435 L
cp
f
GR
GS
[0.75 0 0 0.75 0 0.5] CT
0.467 0.675 0.188 RC
N
559.867 188 M
563.527 188 L
563.527 55.776 L
559.867 55.776 L
cp
f
GR
GS
[0.75 0 0 0.75 0 0.5] CT
0.467 0.675 0.188 RC
N
585.033 188 M
588.694 188 L
588.694 55.851 L
585.033 55.851 L
cp
f
GR
GS
[0.75 0 0 0.75 0 0.5] CT
0.467 0.675 0.188 RC
N
610.2 188 M
613.861 188 L
613.861 97.229 L
610.2 97.229 L
cp
f
GR
GS
[0.75 0 0 0.75 0 0.5] CT
0.467 0.675 0.188 RC
N
635.367 188 M
639.027 188 L
639.027 185.066 L
635.367 185.066 L
cp
f
GR
GS
[0.75 0 0 0.75 0 0.5] CT
0.467 0.675 0.188 RC
N
660.533 188 M
664.194 188 L
664.194 137.641 L
660.533 137.641 L
cp
f
GR
GS
[0.75 0 0 0.75 0 0.5] CT
0.467 0.675 0.188 RC
N
685.7 188 M
689.361 188 L
689.361 156.699 L
685.7 156.699 L
cp
f
GR
GS
[0.75 0 0 0.75 0 0.5] CT
0.467 0.675 0.188 RC
N
710.867 188 M
714.527 188 L
714.527 46.521 L
710.867 46.521 L
cp
f
GR
GS
[0.75 0 0 0.75 0 0.5] CT
0.467 0.675 0.188 RC
N
736.033 188 M
739.694 188 L
739.694 88.028 L
736.033 88.028 L
cp
f
GR
GS
[0.75 0 0 0.75 0 0.5] CT
0.467 0.675 0.188 RC
N
761.2 188 M
764.861 188 L
764.861 129.34 L
761.2 129.34 L
cp
f
GR
GS
[0.75 0 0 0.75 0 0.5] CT
0.467 0.675 0.188 RC
N
786.367 188 M
790.027 188 L
790.027 137.304 L
786.367 137.304 L
cp
f
GR
GS
[0.75 0 0 0.75 0 0.5] CT
0.467 0.675 0.188 RC
N
811.533 188 M
815.194 188 L
815.194 123.082 L
811.533 123.082 L
cp
f
GR
GS
[0.75 0 0 0.75 0 0.5] CT
0.467 0.675 0.188 RC
N
836.7 188 M
840.361 188 L
840.361 148.457 L
836.7 148.457 L
cp
f
GR
GS
[0.75 0 0 0.75 0 0.5] CT
0.467 0.675 0.188 RC
N
861.867 188 M
865.527 188 L
865.527 130.248 L
861.867 130.248 L
cp
f
GR
GS
[0.75 0 0 0.75 0 0.5] CT
10.0 ML
0.667 LW
N
157.2 188 M
157.2 79.901 L
160.861 79.901 L
160.861 188 L
cp
S
GR
GS
[0.75 0 0 0.75 0 0.5] CT
10.0 ML
0.667 LW
N
182.367 188 M
182.367 131.418 L
186.027 131.418 L
186.027 188 L
cp
S
GR
GS
[0.75 0 0 0.75 0 0.5] CT
10.0 ML
0.667 LW
N
207.533 188 M
207.533 154.383 L
211.194 154.383 L
211.194 188 L
cp
S
GR
GS
[0.75 0 0 0.75 0 0.5] CT
10.0 ML
0.667 LW
N
232.7 188 M
232.7 37.117 L
236.361 37.117 L
236.361 188 L
cp
S
GR
GS
[0.75 0 0 0.75 0 0.5] CT
10.0 ML
0.667 LW
N
257.867 188 M
257.867 146.712 L
261.527 146.712 L
261.527 188 L
cp
S
GR
GS
[0.75 0 0 0.75 0 0.5] CT
10.0 ML
0.667 LW
N
283.033 188 M
283.033 110.93 L
286.694 110.93 L
286.694 188 L
cp
S
GR
GS
[0.75 0 0 0.75 0 0.5] CT
10.0 ML
0.667 LW
N
308.2 188 M
308.2 181.793 L
311.861 181.793 L
311.861 188 L
cp
S
GR
GS
[0.75 0 0 0.75 0 0.5] CT
10.0 ML
0.667 LW
N
333.367 188 M
333.367 187.591 L
337.027 187.591 L
337.027 188 L
cp
S
GR
GS
[0.75 0 0 0.75 0 0.5] CT
10.0 ML
0.667 LW
N
358.533 188 M
358.533 97.178 L
362.194 97.178 L
362.194 188 L
cp
S
GR
GS
[0.75 0 0 0.75 0 0.5] CT
10.0 ML
0.667 LW
N
383.7 188 M
383.7 64.351 L
387.361 64.351 L
387.361 188 L
cp
S
GR
GS
[0.75 0 0 0.75 0 0.5] CT
10.0 ML
0.667 LW
N
408.867 188 M
408.867 138.871 L
412.527 138.871 L
412.527 188 L
cp
S
GR
GS
[0.75 0 0 0.75 0 0.5] CT
10.0 ML
0.667 LW
N
434.033 188 M
434.033 141.572 L
437.694 141.572 L
437.694 188 L
cp
S
GR
GS
[0.75 0 0 0.75 0 0.5] CT
10.0 ML
0.667 LW
N
459.2 188 M
459.2 72.207 L
462.861 72.207 L
462.861 188 L
cp
S
GR
GS
[0.75 0 0 0.75 0 0.5] CT
10.0 ML
0.667 LW
N
484.367 188 M
484.367 97.414 L
488.027 97.414 L
488.027 188 L
cp
S
GR
GS
[0.75 0 0 0.75 0 0.5] CT
10.0 ML
0.667 LW
N
509.533 188 M
509.533 136.773 L
513.194 136.773 L
513.194 188 L
cp
S
GR
GS
[0.75 0 0 0.75 0 0.5] CT
10.0 ML
0.667 LW
N
534.7 188 M
534.7 149.435 L
538.361 149.435 L
538.361 188 L
cp
S
GR
GS
[0.75 0 0 0.75 0 0.5] CT
10.0 ML
0.667 LW
N
559.867 188 M
559.867 55.776 L
563.527 55.776 L
563.527 188 L
cp
S
GR
GS
[0.75 0 0 0.75 0 0.5] CT
10.0 ML
0.667 LW
N
585.033 188 M
585.033 55.851 L
588.694 55.851 L
588.694 188 L
cp
S
GR
GS
[0.75 0 0 0.75 0 0.5] CT
10.0 ML
0.667 LW
N
610.2 188 M
610.2 97.229 L
613.861 97.229 L
613.861 188 L
cp
S
GR
GS
[0.75 0 0 0.75 0 0.5] CT
10.0 ML
0.667 LW
N
635.367 188 M
635.367 185.066 L
639.027 185.066 L
639.027 188 L
cp
S
GR
GS
[0.75 0 0 0.75 0 0.5] CT
10.0 ML
0.667 LW
N
660.533 188 M
660.533 137.641 L
664.194 137.641 L
664.194 188 L
cp
S
GR
GS
[0.75 0 0 0.75 0 0.5] CT
10.0 ML
0.667 LW
N
685.7 188 M
685.7 156.699 L
689.361 156.699 L
689.361 188 L
cp
S
GR
GS
[0.75 0 0 0.75 0 0.5] CT
10.0 ML
0.667 LW
N
710.867 188 M
710.867 46.521 L
714.527 46.521 L
714.527 188 L
cp
S
GR
GS
[0.75 0 0 0.75 0 0.5] CT
10.0 ML
0.667 LW
N
736.033 188 M
736.033 88.028 L
739.694 88.028 L
739.694 188 L
cp
S
GR
GS
[0.75 0 0 0.75 0 0.5] CT
10.0 ML
0.667 LW
N
761.2 188 M
761.2 129.34 L
764.861 129.34 L
764.861 188 L
cp
S
GR
GS
[0.75 0 0 0.75 0 0.5] CT
10.0 ML
0.667 LW
N
786.367 188 M
786.367 137.304 L
790.027 137.304 L
790.027 188 L
cp
S
GR
GS
[0.75 0 0 0.75 0 0.5] CT
10.0 ML
0.667 LW
N
811.533 188 M
811.533 123.082 L
815.194 123.082 L
815.194 188 L
cp
S
GR
GS
[0.75 0 0 0.75 0 0.5] CT
10.0 ML
0.667 LW
N
836.7 188 M
836.7 148.457 L
840.361 148.457 L
840.361 188 L
cp
S
GR
GS
[0.75 0 0 0.75 0 0.5] CT
10.0 ML
0.667 LW
N
861.867 188 M
861.867 130.248 L
865.527 130.248 L
865.527 188 L
cp
S
GR
GS
[0.75 0 0 0.75 0 0.5] CT
0.149 GC
2 setlinecap
1 LJ
0.667 LW
N
127 188 M
882 188 L
S
GR
GS
[0.75 0 0 0.75 0 0.5] CT
0.149 GC
2 setlinecap
1 LJ
0.667 LW
N
127 34 M
882 34 L
S
GR
GS
[0.75 0 0 0.75 0 0.5] CT
0.149 GC
2 setlinecap
1 LJ
0.667 LW
N
152.167 188 M
152.167 180.45 L
S
GR
GS
[0.75 0 0 0.75 0 0.5] CT
0.149 GC
2 setlinecap
1 LJ
0.667 LW
N
177.333 188 M
177.333 180.45 L
S
GR
GS
[0.75 0 0 0.75 0 0.5] CT
0.149 GC
2 setlinecap
1 LJ
0.667 LW
N
202.5 188 M
202.5 180.45 L
S
GR
GS
[0.75 0 0 0.75 0 0.5] CT
0.149 GC
2 setlinecap
1 LJ
0.667 LW
N
227.667 188 M
227.667 180.45 L
S
GR
GS
[0.75 0 0 0.75 0 0.5] CT
0.149 GC
2 setlinecap
1 LJ
0.667 LW
N
252.833 188 M
252.833 180.45 L
S
GR
GS
[0.75 0 0 0.75 0 0.5] CT
0.149 GC
2 setlinecap
1 LJ
0.667 LW
N
278 188 M
278 180.45 L
S
GR
GS
[0.75 0 0 0.75 0 0.5] CT
0.149 GC
2 setlinecap
1 LJ
0.667 LW
N
303.167 188 M
303.167 180.45 L
S
GR
GS
[0.75 0 0 0.75 0 0.5] CT
0.149 GC
2 setlinecap
1 LJ
0.667 LW
N
328.333 188 M
328.333 180.45 L
S
GR
GS
[0.75 0 0 0.75 0 0.5] CT
0.149 GC
2 setlinecap
1 LJ
0.667 LW
N
353.5 188 M
353.5 180.45 L
S
GR
GS
[0.75 0 0 0.75 0 0.5] CT
0.149 GC
2 setlinecap
1 LJ
0.667 LW
N
378.667 188 M
378.667 180.45 L
S
GR
GS
[0.75 0 0 0.75 0 0.5] CT
0.149 GC
2 setlinecap
1 LJ
0.667 LW
N
403.833 188 M
403.833 180.45 L
S
GR
GS
[0.75 0 0 0.75 0 0.5] CT
0.149 GC
2 setlinecap
1 LJ
0.667 LW
N
429 188 M
429 180.45 L
S
GR
GS
[0.75 0 0 0.75 0 0.5] CT
0.149 GC
2 setlinecap
1 LJ
0.667 LW
N
454.167 188 M
454.167 180.45 L
S
GR
GS
[0.75 0 0 0.75 0 0.5] CT
0.149 GC
2 setlinecap
1 LJ
0.667 LW
N
479.333 188 M
479.333 180.45 L
S
GR
GS
[0.75 0 0 0.75 0 0.5] CT
0.149 GC
2 setlinecap
1 LJ
0.667 LW
N
504.5 188 M
504.5 180.45 L
S
GR
GS
[0.75 0 0 0.75 0 0.5] CT
0.149 GC
2 setlinecap
1 LJ
0.667 LW
N
529.667 188 M
529.667 180.45 L
S
GR
GS
[0.75 0 0 0.75 0 0.5] CT
0.149 GC
2 setlinecap
1 LJ
0.667 LW
N
554.833 188 M
554.833 180.45 L
S
GR
GS
[0.75 0 0 0.75 0 0.5] CT
0.149 GC
2 setlinecap
1 LJ
0.667 LW
N
580 188 M
580 180.45 L
S
GR
GS
[0.75 0 0 0.75 0 0.5] CT
0.149 GC
2 setlinecap
1 LJ
0.667 LW
N
605.167 188 M
605.167 180.45 L
S
GR
GS
[0.75 0 0 0.75 0 0.5] CT
0.149 GC
2 setlinecap
1 LJ
0.667 LW
N
630.333 188 M
630.333 180.45 L
S
GR
GS
[0.75 0 0 0.75 0 0.5] CT
0.149 GC
2 setlinecap
1 LJ
0.667 LW
N
655.5 188 M
655.5 180.45 L
S
GR
GS
[0.75 0 0 0.75 0 0.5] CT
0.149 GC
2 setlinecap
1 LJ
0.667 LW
N
680.667 188 M
680.667 180.45 L
S
GR
GS
[0.75 0 0 0.75 0 0.5] CT
0.149 GC
2 setlinecap
1 LJ
0.667 LW
N
705.833 188 M
705.833 180.45 L
S
GR
GS
[0.75 0 0 0.75 0 0.5] CT
0.149 GC
2 setlinecap
1 LJ
0.667 LW
N
731 188 M
731 180.45 L
S
GR
GS
[0.75 0 0 0.75 0 0.5] CT
0.149 GC
2 setlinecap
1 LJ
0.667 LW
N
756.167 188 M
756.167 180.45 L
S
GR
GS
[0.75 0 0 0.75 0 0.5] CT
0.149 GC
2 setlinecap
1 LJ
0.667 LW
N
781.333 188 M
781.333 180.45 L
S
GR
GS
[0.75 0 0 0.75 0 0.5] CT
0.149 GC
2 setlinecap
1 LJ
0.667 LW
N
806.5 188 M
806.5 180.45 L
S
GR
GS
[0.75 0 0 0.75 0 0.5] CT
0.149 GC
2 setlinecap
1 LJ
0.667 LW
N
831.667 188 M
831.667 180.45 L
S
GR
GS
[0.75 0 0 0.75 0 0.5] CT
0.149 GC
2 setlinecap
1 LJ
0.667 LW
N
856.833 188 M
856.833 180.45 L
S
GR
GS
[0.75 0 0 0.75 0 0.5] CT
0.149 GC
2 setlinecap
1 LJ
0.667 LW
N
152.167 34 M
152.167 41.55 L
S
GR
GS
[0.75 0 0 0.75 0 0.5] CT
0.149 GC
2 setlinecap
1 LJ
0.667 LW
N
177.333 34 M
177.333 41.55 L
S
GR
GS
[0.75 0 0 0.75 0 0.5] CT
0.149 GC
2 setlinecap
1 LJ
0.667 LW
N
202.5 34 M
202.5 41.55 L
S
GR
GS
[0.75 0 0 0.75 0 0.5] CT
0.149 GC
2 setlinecap
1 LJ
0.667 LW
N
227.667 34 M
227.667 41.55 L
S
GR
GS
[0.75 0 0 0.75 0 0.5] CT
0.149 GC
2 setlinecap
1 LJ
0.667 LW
N
252.833 34 M
252.833 41.55 L
S
GR
GS
[0.75 0 0 0.75 0 0.5] CT
0.149 GC
2 setlinecap
1 LJ
0.667 LW
N
278 34 M
278 41.55 L
S
GR
GS
[0.75 0 0 0.75 0 0.5] CT
0.149 GC
2 setlinecap
1 LJ
0.667 LW
N
303.167 34 M
303.167 41.55 L
S
GR
GS
[0.75 0 0 0.75 0 0.5] CT
0.149 GC
2 setlinecap
1 LJ
0.667 LW
N
328.333 34 M
328.333 41.55 L
S
GR
GS
[0.75 0 0 0.75 0 0.5] CT
0.149 GC
2 setlinecap
1 LJ
0.667 LW
N
353.5 34 M
353.5 41.55 L
S
GR
GS
[0.75 0 0 0.75 0 0.5] CT
0.149 GC
2 setlinecap
1 LJ
0.667 LW
N
378.667 34 M
378.667 41.55 L
S
GR
GS
[0.75 0 0 0.75 0 0.5] CT
0.149 GC
2 setlinecap
1 LJ
0.667 LW
N
403.833 34 M
403.833 41.55 L
S
GR
GS
[0.75 0 0 0.75 0 0.5] CT
0.149 GC
2 setlinecap
1 LJ
0.667 LW
N
429 34 M
429 41.55 L
S
GR
GS
[0.75 0 0 0.75 0 0.5] CT
0.149 GC
2 setlinecap
1 LJ
0.667 LW
N
454.167 34 M
454.167 41.55 L
S
GR
GS
[0.75 0 0 0.75 0 0.5] CT
0.149 GC
2 setlinecap
1 LJ
0.667 LW
N
479.333 34 M
479.333 41.55 L
S
GR
GS
[0.75 0 0 0.75 0 0.5] CT
0.149 GC
2 setlinecap
1 LJ
0.667 LW
N
504.5 34 M
504.5 41.55 L
S
GR
GS
[0.75 0 0 0.75 0 0.5] CT
0.149 GC
2 setlinecap
1 LJ
0.667 LW
N
529.667 34 M
529.667 41.55 L
S
GR
GS
[0.75 0 0 0.75 0 0.5] CT
0.149 GC
2 setlinecap
1 LJ
0.667 LW
N
554.833 34 M
554.833 41.55 L
S
GR
GS
[0.75 0 0 0.75 0 0.5] CT
0.149 GC
2 setlinecap
1 LJ
0.667 LW
N
580 34 M
580 41.55 L
S
GR
GS
[0.75 0 0 0.75 0 0.5] CT
0.149 GC
2 setlinecap
1 LJ
0.667 LW
N
605.167 34 M
605.167 41.55 L
S
GR
GS
[0.75 0 0 0.75 0 0.5] CT
0.149 GC
2 setlinecap
1 LJ
0.667 LW
N
630.333 34 M
630.333 41.55 L
S
GR
GS
[0.75 0 0 0.75 0 0.5] CT
0.149 GC
2 setlinecap
1 LJ
0.667 LW
N
655.5 34 M
655.5 41.55 L
S
GR
GS
[0.75 0 0 0.75 0 0.5] CT
0.149 GC
2 setlinecap
1 LJ
0.667 LW
N
680.667 34 M
680.667 41.55 L
S
GR
GS
[0.75 0 0 0.75 0 0.5] CT
0.149 GC
2 setlinecap
1 LJ
0.667 LW
N
705.833 34 M
705.833 41.55 L
S
GR
GS
[0.75 0 0 0.75 0 0.5] CT
0.149 GC
2 setlinecap
1 LJ
0.667 LW
N
731 34 M
731 41.55 L
S
GR
GS
[0.75 0 0 0.75 0 0.5] CT
0.149 GC
2 setlinecap
1 LJ
0.667 LW
N
756.167 34 M
756.167 41.55 L
S
GR
GS
[0.75 0 0 0.75 0 0.5] CT
0.149 GC
2 setlinecap
1 LJ
0.667 LW
N
781.333 34 M
781.333 41.55 L
S
GR
GS
[0.75 0 0 0.75 0 0.5] CT
0.149 GC
2 setlinecap
1 LJ
0.667 LW
N
806.5 34 M
806.5 41.55 L
S
GR
GS
[0.75 0 0 0.75 0 0.5] CT
0.149 GC
2 setlinecap
1 LJ
0.667 LW
N
831.667 34 M
831.667 41.55 L
S
GR
GS
[0.75 0 0 0.75 0 0.5] CT
0.149 GC
2 setlinecap
1 LJ
0.667 LW
N
856.833 34 M
856.833 41.55 L
S
GR
GS
[0.75 0 0 0.75 114.125 145.5] CT
0.149 GC
/Helvetica 13.333 F
GS
[1 0 0 1 0 0] CT
-4.5 13 moveto 
1 -1 scale
(1) t 
GR
GR
GS
[0.75 0 0 0.75 133 145.5] CT
0.149 GC
/Helvetica 13.333 F
GS
[1 0 0 1 0 0] CT
-4.5 13 moveto 
1 -1 scale
(2) t 
GR
GR
GS
[0.75 0 0 0.75 151.875 145.5] CT
0.149 GC
/Helvetica 13.333 F
GS
[1 0 0 1 0 0] CT
-4.5 13 moveto 
1 -1 scale
(3) t 
GR
GR
GS
[0.75 0 0 0.75 170.75 145.5] CT
0.149 GC
/Helvetica 13.333 F
GS
[1 0 0 1 0 0] CT
-4.5 13 moveto 
1 -1 scale
(4) t 
GR
GR
GS
[0.75 0 0 0.75 189.625 145.5] CT
0.149 GC
/Helvetica 13.333 F
GS
[1 0 0 1 0 0] CT
-4.5 13 moveto 
1 -1 scale
(5) t 
GR
GR
GS
[0.75 0 0 0.75 208.5 145.5] CT
0.149 GC
/Helvetica 13.333 F
GS
[1 0 0 1 0 0] CT
-4.5 13 moveto 
1 -1 scale
(6) t 
GR
GR
GS
[0.75 0 0 0.75 227.37499 145.5] CT
0.149 GC
/Helvetica 13.333 F
GS
[1 0 0 1 0 0] CT
-4.5 13 moveto 
1 -1 scale
(7) t 
GR
GR
GS
[0.75 0 0 0.75 246.25001 145.5] CT
0.149 GC
/Helvetica 13.333 F
GS
[1 0 0 1 0 0] CT
-4.5 13 moveto 
1 -1 scale
(8) t 
GR
GR
GS
[0.75 0 0 0.75 265.125 145.5] CT
0.149 GC
/Helvetica 13.333 F
GS
[1 0 0 1 0 0] CT
-4.5 13 moveto 
1 -1 scale
(9) t 
GR
GR
GS
[0.75 0 0 0.75 283.99999 145.5] CT
0.149 GC
/Helvetica 13.333 F
GS
[1 0 0 1 0 0] CT
-8.5 13 moveto 
1 -1 scale
(10) t 
GR
GR
GS
[0.75 0 0 0.75 302.87501 145.5] CT
0.149 GC
/Helvetica 13.333 F
GS
[1 0 0 1 0 0] CT
-8.5 13 moveto 
1 -1 scale
(11) t 
GR
GR
GS
[0.75 0 0 0.75 321.75 145.5] CT
0.149 GC
/Helvetica 13.333 F
GS
[1 0 0 1 0 0] CT
-8.5 13 moveto 
1 -1 scale
(12) t 
GR
GR
GS
[0.75 0 0 0.75 340.62499 145.5] CT
0.149 GC
/Helvetica 13.333 F
GS
[1 0 0 1 0 0] CT
-8.5 13 moveto 
1 -1 scale
(13) t 
GR
GR
GS
[0.75 0 0 0.75 359.50001 145.5] CT
0.149 GC
/Helvetica 13.333 F
GS
[1 0 0 1 0 0] CT
-8.5 13 moveto 
1 -1 scale
(14) t 
GR
GR
GS
[0.75 0 0 0.75 378.375 145.5] CT
0.149 GC
/Helvetica 13.333 F
GS
[1 0 0 1 0 0] CT
-8.5 13 moveto 
1 -1 scale
(15) t 
GR
GR
GS
[0.75 0 0 0.75 397.25002 145.5] CT
0.149 GC
/Helvetica 13.333 F
GS
[1 0 0 1 0 0] CT
-8.5 13 moveto 
1 -1 scale
(16) t 
GR
GR
GS
[0.75 0 0 0.75 416.12498 145.5] CT
0.149 GC
/Helvetica 13.333 F
GS
[1 0 0 1 0 0] CT
-8.5 13 moveto 
1 -1 scale
(17) t 
GR
GR
GS
[0.75 0 0 0.75 435 145.5] CT
0.149 GC
/Helvetica 13.333 F
GS
[1 0 0 1 0 0] CT
-8.5 13 moveto 
1 -1 scale
(18) t 
GR
GR
GS
[0.75 0 0 0.75 453.87502 145.5] CT
0.149 GC
/Helvetica 13.333 F
GS
[1 0 0 1 0 0] CT
-8.5 13 moveto 
1 -1 scale
(19) t 
GR
GR
GS
[0.75 0 0 0.75 472.74998 145.5] CT
0.149 GC
/Helvetica 13.333 F
GS
[1 0 0 1 0 0] CT
-8.5 13 moveto 
1 -1 scale
(20) t 
GR
GR
GS
[0.75 0 0 0.75 491.625 145.5] CT
0.149 GC
/Helvetica 13.333 F
GS
[1 0 0 1 0 0] CT
-8.5 13 moveto 
1 -1 scale
(21) t 
GR
GR
GS
[0.75 0 0 0.75 510.50002 145.5] CT
0.149 GC
/Helvetica 13.333 F
GS
[1 0 0 1 0 0] CT
-8.5 13 moveto 
1 -1 scale
(22) t 
GR
GR
GS
[0.75 0 0 0.75 529.37498 145.5] CT
0.149 GC
/Helvetica 13.333 F
GS
[1 0 0 1 0 0] CT
-8.5 13 moveto 
1 -1 scale
(23) t 
GR
GR
GS
[0.75 0 0 0.75 548.25 145.5] CT
0.149 GC
/Helvetica 13.333 F
GS
[1 0 0 1 0 0] CT
-8.5 13 moveto 
1 -1 scale
(24) t 
GR
GR
GS
[0.75 0 0 0.75 567.12502 145.5] CT
0.149 GC
/Helvetica 13.333 F
GS
[1 0 0 1 0 0] CT
-8.5 13 moveto 
1 -1 scale
(25) t 
GR
GR
GS
[0.75 0 0 0.75 585.99998 145.5] CT
0.149 GC
/Helvetica 13.333 F
GS
[1 0 0 1 0 0] CT
-8.5 13 moveto 
1 -1 scale
(27) t 
GR
GR
GS
[0.75 0 0 0.75 604.875 145.5] CT
0.149 GC
/Helvetica 13.333 F
GS
[1 0 0 1 0 0] CT
-8.5 13 moveto 
1 -1 scale
(28) t 
GR
GR
GS
[0.75 0 0 0.75 623.75002 145.5] CT
0.149 GC
/Helvetica 13.333 F
GS
[1 0 0 1 0 0] CT
-8.5 13 moveto 
1 -1 scale
(29) t 
GR
GR
GS
[0.75 0 0 0.75 642.62498 145.5] CT
0.149 GC
/Helvetica 13.333 F
GS
[1 0 0 1 0 0] CT
-8.5 13 moveto 
1 -1 scale
(30) t 
GR
GR
GS
[0.75 0 0 0.75 378.37527 159.25] CT
0.149 GC
/Helvetica 14.667 F
GS
[1 0 0 1 0 0] CT
-55 14 moveto 
1 -1 scale
(Point cloud ids) t 
GR
GR
GS
[0.75 0 0 0.75 0 0.5] CT
0.149 GC
2 setlinecap
1 LJ
0.667 LW
N
127 188 M
127 34 L
S
GR
GS
[0.75 0 0 0.75 0 0.5] CT
0.149 GC
2 setlinecap
1 LJ
0.667 LW
N
882 188 M
882 34 L
S
GR
GS
[0.75 0 0 0.75 0 0.5] CT
0.149 GC
2 setlinecap
1 LJ
0.667 LW
N
127 188 M
134.55 188 L
S
GR
GS
[0.75 0 0 0.75 0 0.5] CT
0.149 GC
2 setlinecap
1 LJ
0.667 LW
N
127 157.2 M
134.55 157.2 L
S
GR
GS
[0.75 0 0 0.75 0 0.5] CT
0.149 GC
2 setlinecap
1 LJ
0.667 LW
N
127 126.4 M
134.55 126.4 L
S
GR
GS
[0.75 0 0 0.75 0 0.5] CT
0.149 GC
2 setlinecap
1 LJ
0.667 LW
N
127 95.6 M
134.55 95.6 L
S
GR
GS
[0.75 0 0 0.75 0 0.5] CT
0.149 GC
2 setlinecap
1 LJ
0.667 LW
N
127 64.8 M
134.55 64.8 L
S
GR
GS
[0.75 0 0 0.75 0 0.5] CT
0.149 GC
2 setlinecap
1 LJ
0.667 LW
N
127 34 M
134.55 34 L
S
GR
GS
[0.75 0 0 0.75 0 0.5] CT
0.149 GC
2 setlinecap
1 LJ
0.667 LW
N
882 188 M
874.45 188 L
S
GR
GS
[0.75 0 0 0.75 0 0.5] CT
0.149 GC
2 setlinecap
1 LJ
0.667 LW
N
882 157.2 M
874.45 157.2 L
S
GR
GS
[0.75 0 0 0.75 0 0.5] CT
0.149 GC
2 setlinecap
1 LJ
0.667 LW
N
882 126.4 M
874.45 126.4 L
S
GR
GS
[0.75 0 0 0.75 0 0.5] CT
0.149 GC
2 setlinecap
1 LJ
0.667 LW
N
882 95.6 M
874.45 95.6 L
S
GR
GS
[0.75 0 0 0.75 0 0.5] CT
0.149 GC
2 setlinecap
1 LJ
0.667 LW
N
882 64.8 M
874.45 64.8 L
S
GR
GS
[0.75 0 0 0.75 0 0.5] CT
0.149 GC
2 setlinecap
1 LJ
0.667 LW
N
882 34 M
874.45 34 L
S
GR
GS
[0.75 0 0 0.75 91.25 141.5] CT
0.149 GC
/Helvetica 13.333 F
GS
[1 0 0 1 0 0] CT
-9 4.5 moveto 
1 -1 scale
(0) t 
GR
GR
GS
[0.75 0 0 0.75 91.25 118.4] CT
0.149 GC
/Helvetica 13.333 F
GS
[1 0 0 1 0 0] CT
-29 4.5 moveto 
1 -1 scale
(0.02) t 
GR
GR
GS
[0.75 0 0 0.75 91.25 95.3] CT
0.149 GC
/Helvetica 13.333 F
GS
[1 0 0 1 0 0] CT
-29 4.5 moveto 
1 -1 scale
(0.04) t 
GR
GR
GS
[0.75 0 0 0.75 91.25 72.2] CT
0.149 GC
/Helvetica 13.333 F
GS
[1 0 0 1 0 0] CT
-29 4.5 moveto 
1 -1 scale
(0.06) t 
GR
GR
GS
[0.75 0 0 0.75 91.25 49.1] CT
0.149 GC
/Helvetica 13.333 F
GS
[1 0 0 1 0 0] CT
-29 4.5 moveto 
1 -1 scale
(0.08) t 
GR
GR
GS
[0.75 0 0 0.75 91.25 26] CT
0.149 GC
/Helvetica 13.333 F
GS
[1 0 0 1 0 0] CT
-21 4.5 moveto 
1 -1 scale
(0.1) t 
GR
GR
GS
[0 -0.75 0.75 0 59.25 94.25] CT
0.149 GC
/Helvetica 14.667 F
GS
[1 0 0 1 0 0] CT
0 0 moveto 
1 -1 scale
(err) t 
GR
GR
GS
[0 -0.75 0.75 0 64.5 77.75] CT
0.149 GC
/Helvetica 11.733 F
GS
[1 0 0 1 0 0] CT
0 0 moveto 
1 -1 scale
(t) t 
GR
GR
GS
[0.75 0 0 0.75 0 0.5] CT
1 GC
N
773 113 M
773 47 L
869 47 L
869 113 L
cp
f
GR
GS
[0.75 0 0 0.75 615 42.92939] CT
/Helvetica 12 F
GS
[1 0 0 1 0 0] CT
0 4.5 moveto 
1 -1 scale
(original) t 
GR
GR
GS
[0.75 0 0 0.75 0 0.5] CT
0.929 0.694 0.125 RC
N
777 62.366 M
777 50.779 L
817 50.779 L
817 62.366 L
cp
f
GR
GS
[0.75 0 0 0.75 0 0.5] CT
10.0 ML
0.667 LW
N
777 62.366 M
777 50.779 L
817 50.779 L
817 62.366 L
cp
S
GR
GS
[0.75 0 0 0.75 615 54.64313] CT
/Helvetica 12 F
GS
[1 0 0 1 0 0] CT
0 4.5 moveto 
1 -1 scale
(v2) t 
GR
GR
GS
[0.75 0 0 0.75 0 0.5] CT
0.302 0.745 0.933 RC
N
777 77.985 M
777 66.397 L
817 66.397 L
817 77.985 L
cp
f
GR
GS
[0.75 0 0 0.75 0 0.5] CT
10.0 ML
0.667 LW
N
777 77.985 M
777 66.397 L
817 66.397 L
817 77.985 L
cp
S
GR
GS
[0.75 0 0 0.75 615 66.35687] CT
/Helvetica 12 F
GS
[1 0 0 1 0 0] CT
0 4.5 moveto 
1 -1 scale
(v2.1) t 
GR
GR
GS
[0.75 0 0 0.75 0 0.5] CT
0.635 0.078 0.184 RC
N
777 93.603 M
777 82.015 L
817 82.015 L
817 93.603 L
cp
f
GR
GS
[0.75 0 0 0.75 0 0.5] CT
10.0 ML
0.667 LW
N
777 93.603 M
777 82.015 L
817 82.015 L
817 93.603 L
cp
S
GR
GS
[0.75 0 0 0.75 615 78.07061] CT
/Helvetica 12 F
GS
[1 0 0 1 0 0] CT
0 4.5 moveto 
1 -1 scale
(v3) t 
GR
GR
GS
[0.75 0 0 0.75 0 0.5] CT
0.467 0.675 0.188 RC
N
777 109.221 M
777 97.634 L
817 97.634 L
817 109.221 L
cp
f
GR
GS
[0.75 0 0 0.75 0 0.5] CT
10.0 ML
0.667 LW
N
777 109.221 M
777 97.634 L
817 97.634 L
817 109.221 L
cp
S
GR
GS
[0.75 0 0 0.75 0 0.5] CT
0.149 GC
10.0 ML
0.667 LW
N
773 113 M
773 47 L
869 47 L
869 113 L
cp
S
GR
GS
[0.75 0 0 0.75 0 0.5] CT
1 GC
N
127 405 M
882 405 L
882 251 L
127 251 L
cp
f
GR
GS
[0.75 0 0 0.75 0 0.5] CT
0.149 GC
1 LJ
0.667 LW
N
127 302.333 M
882 302.333 L
S
GR
GS
[0.75 0 0 0.75 0 0.5] CT
0.302 0.745 0.933 RC
N
144.337 302.333 M
148.811 302.333 L
148.811 302.383 L
144.337 302.383 L
cp
f
GR
GS
[0.75 0 0 0.75 0 0.5] CT
0.302 0.745 0.933 RC
N
169.504 302.333 M
173.978 302.333 L
173.978 302.379 L
169.504 302.379 L
cp
f
GR
GS
[0.75 0 0 0.75 0 0.5] CT
0.302 0.745 0.933 RC
N
194.67 302.333 M
199.144 302.333 L
199.144 302.444 L
194.67 302.444 L
cp
f
GR
GS
[0.75 0 0 0.75 0 0.5] CT
0.302 0.745 0.933 RC
N
219.837 302.333 M
224.311 302.333 L
224.311 314.757 L
219.837 314.757 L
cp
f
GR
GS
[0.75 0 0 0.75 0 0.5] CT
0.302 0.745 0.933 RC
N
245.004 302.333 M
249.478 302.333 L
249.478 302.321 L
245.004 302.321 L
cp
f
GR
GS
[0.75 0 0 0.75 0 0.5] CT
0.302 0.745 0.933 RC
N
270.17 302.333 M
274.644 302.333 L
274.644 289.211 L
270.17 289.211 L
cp
f
GR
GS
[0.75 0 0 0.75 0 0.5] CT
0.302 0.745 0.933 RC
N
295.337 302.333 M
299.811 302.333 L
299.811 301.777 L
295.337 301.777 L
cp
f
GR
GS
[0.75 0 0 0.75 0 0.5] CT
0.302 0.745 0.933 RC
N
320.504 302.333 M
324.978 302.333 L
324.978 303.056 L
320.504 303.056 L
cp
f
GR
GS
[0.75 0 0 0.75 0 0.5] CT
0.302 0.745 0.933 RC
N
345.67 302.333 M
350.144 302.333 L
350.144 302.795 L
345.67 302.795 L
cp
f
GR
GS
[0.75 0 0 0.75 0 0.5] CT
0.302 0.745 0.933 RC
N
370.837 302.333 M
375.311 302.333 L
375.311 255.648 L
370.837 255.648 L
cp
f
GR
GS
[0.75 0 0 0.75 0 0.5] CT
0.302 0.745 0.933 RC
N
396.004 302.333 M
400.478 302.333 L
400.478 302.352 L
396.004 302.352 L
cp
f
GR
GS
[0.75 0 0 0.75 0 0.5] CT
0.302 0.745 0.933 RC
N
421.17 302.333 M
425.644 302.333 L
425.644 302.215 L
421.17 302.215 L
cp
f
GR
GS
[0.75 0 0 0.75 0 0.5] CT
0.302 0.745 0.933 RC
N
446.337 302.333 M
450.811 302.333 L
450.811 300.915 L
446.337 300.915 L
cp
f
GR
GS
[0.75 0 0 0.75 0 0.5] CT
0.302 0.745 0.933 RC
N
471.504 302.333 M
475.978 302.333 L
475.978 305.414 L
471.504 305.414 L
cp
f
GR
GS
[0.75 0 0 0.75 0 0.5] CT
0.302 0.745 0.933 RC
N
496.67 302.333 M
501.144 302.333 L
501.144 302.266 L
496.67 302.266 L
cp
f
GR
GS
[0.75 0 0 0.75 0 0.5] CT
0.302 0.745 0.933 RC
N
521.837 302.333 M
526.311 302.333 L
526.311 298.377 L
521.837 298.377 L
cp
f
GR
GS
[0.75 0 0 0.75 0 0.5] CT
0.302 0.745 0.933 RC
N
547.004 302.333 M
551.478 302.333 L
551.478 336.353 L
547.004 336.353 L
cp
f
GR
GS
[0.75 0 0 0.75 0 0.5] CT
0.302 0.745 0.933 RC
N
572.17 302.333 M
576.644 302.333 L
576.644 320.02 L
572.17 320.02 L
cp
f
GR
GS
[0.75 0 0 0.75 0 0.5] CT
0.302 0.745 0.933 RC
N
597.337 302.333 M
601.811 302.333 L
601.811 314.339 L
597.337 314.339 L
cp
f
GR
GS
[0.75 0 0 0.75 0 0.5] CT
0.302 0.745 0.933 RC
N
622.504 302.333 M
626.978 302.333 L
626.978 327.373 L
622.504 327.373 L
cp
f
GR
GS
[0.75 0 0 0.75 0 0.5] CT
0.302 0.745 0.933 RC
N
647.67 302.333 M
652.144 302.333 L
652.144 302.346 L
647.67 302.346 L
cp
f
GR
GS
[0.75 0 0 0.75 0 0.5] CT
0.302 0.745 0.933 RC
N
672.837 302.333 M
677.311 302.333 L
677.311 302.336 L
672.837 302.336 L
cp
f
GR
GS
[0.75 0 0 0.75 0 0.5] CT
0.302 0.745 0.933 RC
N
698.004 302.333 M
702.478 302.333 L
702.478 302.378 L
698.004 302.378 L
cp
f
GR
GS
[0.75 0 0 0.75 0 0.5] CT
0.302 0.745 0.933 RC
N
723.17 302.333 M
727.644 302.333 L
727.644 305.667 L
723.17 305.667 L
cp
f
GR
GS
[0.75 0 0 0.75 0 0.5] CT
0.302 0.745 0.933 RC
N
748.337 302.333 M
752.811 302.333 L
752.811 301.717 L
748.337 301.717 L
cp
f
GR
GS
[0.75 0 0 0.75 0 0.5] CT
0.302 0.745 0.933 RC
N
773.504 302.333 M
777.978 302.333 L
777.978 302.345 L
773.504 302.345 L
cp
f
GR
GS
[0.75 0 0 0.75 0 0.5] CT
0.302 0.745 0.933 RC
N
798.67 302.333 M
803.144 302.333 L
803.144 302.384 L
798.67 302.384 L
cp
f
GR
GS
[0.75 0 0 0.75 0 0.5] CT
0.302 0.745 0.933 RC
N
823.837 302.333 M
828.311 302.333 L
828.311 302.334 L
823.837 302.334 L
cp
f
GR
GS
[0.75 0 0 0.75 0 0.5] CT
0.302 0.745 0.933 RC
N
849.004 302.333 M
853.478 302.333 L
853.478 301.321 L
849.004 301.321 L
cp
f
GR
GS
[0.75 0 0 0.75 0 0.5] CT
10.0 ML
0.667 LW
N
144.337 302.333 M
144.337 302.383 L
148.811 302.383 L
148.811 302.333 L
cp
S
GR
GS
[0.75 0 0 0.75 0 0.5] CT
10.0 ML
0.667 LW
N
169.504 302.333 M
169.504 302.379 L
173.978 302.379 L
173.978 302.333 L
cp
S
GR
GS
[0.75 0 0 0.75 0 0.5] CT
10.0 ML
0.667 LW
N
194.67 302.333 M
194.67 302.444 L
199.144 302.444 L
199.144 302.333 L
cp
S
GR
GS
[0.75 0 0 0.75 0 0.5] CT
10.0 ML
0.667 LW
N
219.837 302.333 M
219.837 314.757 L
224.311 314.757 L
224.311 302.333 L
cp
S
GR
GS
[0.75 0 0 0.75 0 0.5] CT
10.0 ML
0.667 LW
N
245.004 302.333 M
245.004 302.321 L
249.478 302.321 L
249.478 302.333 L
cp
S
GR
GS
[0.75 0 0 0.75 0 0.5] CT
10.0 ML
0.667 LW
N
270.17 302.333 M
270.17 289.211 L
274.644 289.211 L
274.644 302.333 L
cp
S
GR
GS
[0.75 0 0 0.75 0 0.5] CT
10.0 ML
0.667 LW
N
295.337 302.333 M
295.337 301.777 L
299.811 301.777 L
299.811 302.333 L
cp
S
GR
GS
[0.75 0 0 0.75 0 0.5] CT
10.0 ML
0.667 LW
N
320.504 302.333 M
320.504 303.056 L
324.978 303.056 L
324.978 302.333 L
cp
S
GR
GS
[0.75 0 0 0.75 0 0.5] CT
10.0 ML
0.667 LW
N
345.67 302.333 M
345.67 302.795 L
350.144 302.795 L
350.144 302.333 L
cp
S
GR
GS
[0.75 0 0 0.75 0 0.5] CT
10.0 ML
0.667 LW
N
370.837 302.333 M
370.837 255.648 L
375.311 255.648 L
375.311 302.333 L
cp
S
GR
GS
[0.75 0 0 0.75 0 0.5] CT
10.0 ML
0.667 LW
N
396.004 302.333 M
396.004 302.352 L
400.478 302.352 L
400.478 302.333 L
cp
S
GR
GS
[0.75 0 0 0.75 0 0.5] CT
10.0 ML
0.667 LW
N
421.17 302.333 M
421.17 302.215 L
425.644 302.215 L
425.644 302.333 L
cp
S
GR
GS
[0.75 0 0 0.75 0 0.5] CT
10.0 ML
0.667 LW
N
446.337 302.333 M
446.337 300.915 L
450.811 300.915 L
450.811 302.333 L
cp
S
GR
GS
[0.75 0 0 0.75 0 0.5] CT
10.0 ML
0.667 LW
N
471.504 302.333 M
471.504 305.414 L
475.978 305.414 L
475.978 302.333 L
cp
S
GR
GS
[0.75 0 0 0.75 0 0.5] CT
10.0 ML
0.667 LW
N
496.67 302.333 M
496.67 302.266 L
501.144 302.266 L
501.144 302.333 L
cp
S
GR
GS
[0.75 0 0 0.75 0 0.5] CT
10.0 ML
0.667 LW
N
521.837 302.333 M
521.837 298.377 L
526.311 298.377 L
526.311 302.333 L
cp
S
GR
GS
[0.75 0 0 0.75 0 0.5] CT
10.0 ML
0.667 LW
N
547.004 302.333 M
547.004 336.353 L
551.478 336.353 L
551.478 302.333 L
cp
S
GR
GS
[0.75 0 0 0.75 0 0.5] CT
10.0 ML
0.667 LW
N
572.17 302.333 M
572.17 320.02 L
576.644 320.02 L
576.644 302.333 L
cp
S
GR
GS
[0.75 0 0 0.75 0 0.5] CT
10.0 ML
0.667 LW
N
597.337 302.333 M
597.337 314.339 L
601.811 314.339 L
601.811 302.333 L
cp
S
GR
GS
[0.75 0 0 0.75 0 0.5] CT
10.0 ML
0.667 LW
N
622.504 302.333 M
622.504 327.373 L
626.978 327.373 L
626.978 302.333 L
cp
S
GR
GS
[0.75 0 0 0.75 0 0.5] CT
10.0 ML
0.667 LW
N
647.67 302.333 M
647.67 302.346 L
652.144 302.346 L
652.144 302.333 L
cp
S
GR
GS
[0.75 0 0 0.75 0 0.5] CT
10.0 ML
0.667 LW
N
672.837 302.333 M
672.837 302.336 L
677.311 302.336 L
677.311 302.333 L
cp
S
GR
GS
[0.75 0 0 0.75 0 0.5] CT
10.0 ML
0.667 LW
N
698.004 302.333 M
698.004 302.378 L
702.478 302.378 L
702.478 302.333 L
cp
S
GR
GS
[0.75 0 0 0.75 0 0.5] CT
10.0 ML
0.667 LW
N
723.17 302.333 M
723.17 305.667 L
727.644 305.667 L
727.644 302.333 L
cp
S
GR
GS
[0.75 0 0 0.75 0 0.5] CT
10.0 ML
0.667 LW
N
748.337 302.333 M
748.337 301.717 L
752.811 301.717 L
752.811 302.333 L
cp
S
GR
GS
[0.75 0 0 0.75 0 0.5] CT
10.0 ML
0.667 LW
N
773.504 302.333 M
773.504 302.345 L
777.978 302.345 L
777.978 302.333 L
cp
S
GR
GS
[0.75 0 0 0.75 0 0.5] CT
10.0 ML
0.667 LW
N
798.67 302.333 M
798.67 302.384 L
803.144 302.384 L
803.144 302.333 L
cp
S
GR
GS
[0.75 0 0 0.75 0 0.5] CT
10.0 ML
0.667 LW
N
823.837 302.333 M
823.837 302.334 L
828.311 302.334 L
828.311 302.333 L
cp
S
GR
GS
[0.75 0 0 0.75 0 0.5] CT
10.0 ML
0.667 LW
N
849.004 302.333 M
849.004 301.321 L
853.478 301.321 L
853.478 302.333 L
cp
S
GR
GS
[0.75 0 0 0.75 0 0.5] CT
0.635 0.078 0.184 RC
N
149.93 302.333 M
154.404 302.333 L
154.404 302.378 L
149.93 302.378 L
cp
f
GR
GS
[0.75 0 0 0.75 0 0.5] CT
0.635 0.078 0.184 RC
N
175.096 302.333 M
179.57 302.333 L
179.57 302.378 L
175.096 302.378 L
cp
f
GR
GS
[0.75 0 0 0.75 0 0.5] CT
0.635 0.078 0.184 RC
N
200.263 302.333 M
204.737 302.333 L
204.737 302.405 L
200.263 302.405 L
cp
f
GR
GS
[0.75 0 0 0.75 0 0.5] CT
0.635 0.078 0.184 RC
N
225.43 302.333 M
229.904 302.333 L
229.904 314.764 L
225.43 314.764 L
cp
f
GR
GS
[0.75 0 0 0.75 0 0.5] CT
0.635 0.078 0.184 RC
N
250.596 302.333 M
255.07 302.333 L
255.07 302.319 L
250.596 302.319 L
cp
f
GR
GS
[0.75 0 0 0.75 0 0.5] CT
0.635 0.078 0.184 RC
N
275.763 302.333 M
280.237 302.333 L
280.237 289.19 L
275.763 289.19 L
cp
f
GR
GS
[0.75 0 0 0.75 0 0.5] CT
0.635 0.078 0.184 RC
N
300.93 302.333 M
305.404 302.333 L
305.404 302.431 L
300.93 302.431 L
cp
f
GR
GS
[0.75 0 0 0.75 0 0.5] CT
0.635 0.078 0.184 RC
N
326.096 302.333 M
330.57 302.333 L
330.57 302.867 L
326.096 302.867 L
cp
f
GR
GS
[0.75 0 0 0.75 0 0.5] CT
0.635 0.078 0.184 RC
N
351.263 302.333 M
355.737 302.333 L
355.737 302.795 L
351.263 302.795 L
cp
f
GR
GS
[0.75 0 0 0.75 0 0.5] CT
0.635 0.078 0.184 RC
N
376.43 302.333 M
380.904 302.333 L
380.904 255.526 L
376.43 255.526 L
cp
f
GR
GS
[0.75 0 0 0.75 0 0.5] CT
0.635 0.078 0.184 RC
N
401.596 302.333 M
406.07 302.333 L
406.07 302.353 L
401.596 302.353 L
cp
f
GR
GS
[0.75 0 0 0.75 0 0.5] CT
0.635 0.078 0.184 RC
N
426.763 302.333 M
431.237 302.333 L
431.237 302.216 L
426.763 302.216 L
cp
f
GR
GS
[0.75 0 0 0.75 0 0.5] CT
0.635 0.078 0.184 RC
N
451.93 302.333 M
456.404 302.333 L
456.404 300.886 L
451.93 300.886 L
cp
f
GR
GS
[0.75 0 0 0.75 0 0.5] CT
0.635 0.078 0.184 RC
N
477.096 302.333 M
481.57 302.333 L
481.57 305.326 L
477.096 305.326 L
cp
f
GR
GS
[0.75 0 0 0.75 0 0.5] CT
0.635 0.078 0.184 RC
N
502.263 302.333 M
506.737 302.333 L
506.737 302.264 L
502.263 302.264 L
cp
f
GR
GS
[0.75 0 0 0.75 0 0.5] CT
0.635 0.078 0.184 RC
N
527.43 302.333 M
531.904 302.333 L
531.904 298.377 L
527.43 298.377 L
cp
f
GR
GS
[0.75 0 0 0.75 0 0.5] CT
0.635 0.078 0.184 RC
N
552.596 302.333 M
557.07 302.333 L
557.07 336.325 L
552.596 336.325 L
cp
f
GR
GS
[0.75 0 0 0.75 0 0.5] CT
0.635 0.078 0.184 RC
N
577.763 302.333 M
582.237 302.333 L
582.237 320.081 L
577.763 320.081 L
cp
f
GR
GS
[0.75 0 0 0.75 0 0.5] CT
0.635 0.078 0.184 RC
N
602.93 302.333 M
607.404 302.333 L
607.404 314.296 L
602.93 314.296 L
cp
f
GR
GS
[0.75 0 0 0.75 0 0.5] CT
0.635 0.078 0.184 RC
N
628.096 302.333 M
632.57 302.333 L
632.57 327.077 L
628.096 327.077 L
cp
f
GR
GS
[0.75 0 0 0.75 0 0.5] CT
0.635 0.078 0.184 RC
N
653.263 302.333 M
657.737 302.333 L
657.737 302.345 L
653.263 302.345 L
cp
f
GR
GS
[0.75 0 0 0.75 0 0.5] CT
0.635 0.078 0.184 RC
N
678.43 302.333 M
682.904 302.333 L
682.904 302.337 L
678.43 302.337 L
cp
f
GR
GS
[0.75 0 0 0.75 0 0.5] CT
0.635 0.078 0.184 RC
N
703.596 302.333 M
708.07 302.333 L
708.07 302.375 L
703.596 302.375 L
cp
f
GR
GS
[0.75 0 0 0.75 0 0.5] CT
0.635 0.078 0.184 RC
N
728.763 302.333 M
733.237 302.333 L
733.237 305.655 L
728.763 305.655 L
cp
f
GR
GS
[0.75 0 0 0.75 0 0.5] CT
0.635 0.078 0.184 RC
N
753.93 302.333 M
758.404 302.333 L
758.404 301.718 L
753.93 301.718 L
cp
f
GR
GS
[0.75 0 0 0.75 0 0.5] CT
0.635 0.078 0.184 RC
N
779.096 302.333 M
783.57 302.333 L
783.57 302.327 L
779.096 302.327 L
cp
f
GR
GS
[0.75 0 0 0.75 0 0.5] CT
0.635 0.078 0.184 RC
N
804.263 302.333 M
808.737 302.333 L
808.737 302.391 L
804.263 302.391 L
cp
f
GR
GS
[0.75 0 0 0.75 0 0.5] CT
0.635 0.078 0.184 RC
N
829.43 302.333 M
833.904 302.333 L
833.904 302.334 L
829.43 302.334 L
cp
f
GR
GS
[0.75 0 0 0.75 0 0.5] CT
0.635 0.078 0.184 RC
N
854.596 302.333 M
859.07 302.333 L
859.07 301.313 L
854.596 301.313 L
cp
f
GR
GS
[0.75 0 0 0.75 0 0.5] CT
10.0 ML
0.667 LW
N
149.93 302.333 M
149.93 302.378 L
154.404 302.378 L
154.404 302.333 L
cp
S
GR
GS
[0.75 0 0 0.75 0 0.5] CT
10.0 ML
0.667 LW
N
175.096 302.333 M
175.096 302.378 L
179.57 302.378 L
179.57 302.333 L
cp
S
GR
GS
[0.75 0 0 0.75 0 0.5] CT
10.0 ML
0.667 LW
N
200.263 302.333 M
200.263 302.405 L
204.737 302.405 L
204.737 302.333 L
cp
S
GR
GS
[0.75 0 0 0.75 0 0.5] CT
10.0 ML
0.667 LW
N
225.43 302.333 M
225.43 314.764 L
229.904 314.764 L
229.904 302.333 L
cp
S
GR
GS
[0.75 0 0 0.75 0 0.5] CT
10.0 ML
0.667 LW
N
250.596 302.333 M
250.596 302.319 L
255.07 302.319 L
255.07 302.333 L
cp
S
GR
GS
[0.75 0 0 0.75 0 0.5] CT
10.0 ML
0.667 LW
N
275.763 302.333 M
275.763 289.19 L
280.237 289.19 L
280.237 302.333 L
cp
S
GR
GS
[0.75 0 0 0.75 0 0.5] CT
10.0 ML
0.667 LW
N
300.93 302.333 M
300.93 302.431 L
305.404 302.431 L
305.404 302.333 L
cp
S
GR
GS
[0.75 0 0 0.75 0 0.5] CT
10.0 ML
0.667 LW
N
326.096 302.333 M
326.096 302.867 L
330.57 302.867 L
330.57 302.333 L
cp
S
GR
GS
[0.75 0 0 0.75 0 0.5] CT
10.0 ML
0.667 LW
N
351.263 302.333 M
351.263 302.795 L
355.737 302.795 L
355.737 302.333 L
cp
S
GR
GS
[0.75 0 0 0.75 0 0.5] CT
10.0 ML
0.667 LW
N
376.43 302.333 M
376.43 255.526 L
380.904 255.526 L
380.904 302.333 L
cp
S
GR
GS
[0.75 0 0 0.75 0 0.5] CT
10.0 ML
0.667 LW
N
401.596 302.333 M
401.596 302.353 L
406.07 302.353 L
406.07 302.333 L
cp
S
GR
GS
[0.75 0 0 0.75 0 0.5] CT
10.0 ML
0.667 LW
N
426.763 302.333 M
426.763 302.216 L
431.237 302.216 L
431.237 302.333 L
cp
S
GR
GS
[0.75 0 0 0.75 0 0.5] CT
10.0 ML
0.667 LW
N
451.93 302.333 M
451.93 300.886 L
456.404 300.886 L
456.404 302.333 L
cp
S
GR
GS
[0.75 0 0 0.75 0 0.5] CT
10.0 ML
0.667 LW
N
477.096 302.333 M
477.096 305.326 L
481.57 305.326 L
481.57 302.333 L
cp
S
GR
GS
[0.75 0 0 0.75 0 0.5] CT
10.0 ML
0.667 LW
N
502.263 302.333 M
502.263 302.264 L
506.737 302.264 L
506.737 302.333 L
cp
S
GR
GS
[0.75 0 0 0.75 0 0.5] CT
10.0 ML
0.667 LW
N
527.43 302.333 M
527.43 298.377 L
531.904 298.377 L
531.904 302.333 L
cp
S
GR
GS
[0.75 0 0 0.75 0 0.5] CT
10.0 ML
0.667 LW
N
552.596 302.333 M
552.596 336.325 L
557.07 336.325 L
557.07 302.333 L
cp
S
GR
GS
[0.75 0 0 0.75 0 0.5] CT
10.0 ML
0.667 LW
N
577.763 302.333 M
577.763 320.081 L
582.237 320.081 L
582.237 302.333 L
cp
S
GR
GS
[0.75 0 0 0.75 0 0.5] CT
10.0 ML
0.667 LW
N
602.93 302.333 M
602.93 314.296 L
607.404 314.296 L
607.404 302.333 L
cp
S
GR
GS
[0.75 0 0 0.75 0 0.5] CT
10.0 ML
0.667 LW
N
628.096 302.333 M
628.096 327.077 L
632.57 327.077 L
632.57 302.333 L
cp
S
GR
GS
[0.75 0 0 0.75 0 0.5] CT
10.0 ML
0.667 LW
N
653.263 302.333 M
653.263 302.345 L
657.737 302.345 L
657.737 302.333 L
cp
S
GR
GS
[0.75 0 0 0.75 0 0.5] CT
10.0 ML
0.667 LW
N
678.43 302.333 M
678.43 302.337 L
682.904 302.337 L
682.904 302.333 L
cp
S
GR
GS
[0.75 0 0 0.75 0 0.5] CT
10.0 ML
0.667 LW
N
703.596 302.333 M
703.596 302.375 L
708.07 302.375 L
708.07 302.333 L
cp
S
GR
GS
[0.75 0 0 0.75 0 0.5] CT
10.0 ML
0.667 LW
N
728.763 302.333 M
728.763 305.655 L
733.237 305.655 L
733.237 302.333 L
cp
S
GR
GS
[0.75 0 0 0.75 0 0.5] CT
10.0 ML
0.667 LW
N
753.93 302.333 M
753.93 301.718 L
758.404 301.718 L
758.404 302.333 L
cp
S
GR
GS
[0.75 0 0 0.75 0 0.5] CT
10.0 ML
0.667 LW
N
779.096 302.333 M
779.096 302.327 L
783.57 302.327 L
783.57 302.333 L
cp
S
GR
GS
[0.75 0 0 0.75 0 0.5] CT
10.0 ML
0.667 LW
N
804.263 302.333 M
804.263 302.391 L
808.737 302.391 L
808.737 302.333 L
cp
S
GR
GS
[0.75 0 0 0.75 0 0.5] CT
10.0 ML
0.667 LW
N
829.43 302.333 M
829.43 302.334 L
833.904 302.334 L
833.904 302.333 L
cp
S
GR
GS
[0.75 0 0 0.75 0 0.5] CT
10.0 ML
0.667 LW
N
854.596 302.333 M
854.596 301.313 L
859.07 301.313 L
859.07 302.333 L
cp
S
GR
GS
[0.75 0 0 0.75 0 0.5] CT
0.467 0.675 0.188 RC
N
155.522 302.333 M
159.996 302.333 L
159.996 300.941 L
155.522 300.941 L
cp
f
GR
GS
[0.75 0 0 0.75 0 0.5] CT
0.467 0.675 0.188 RC
N
180.689 302.333 M
185.163 302.333 L
185.163 301.641 L
180.689 301.641 L
cp
f
GR
GS
[0.75 0 0 0.75 0 0.5] CT
0.467 0.675 0.188 RC
N
205.856 302.333 M
210.33 302.333 L
210.33 302.36 L
205.856 302.36 L
cp
f
GR
GS
[0.75 0 0 0.75 0 0.5] CT
0.467 0.675 0.188 RC
N
231.022 302.333 M
235.496 302.333 L
235.496 314.47 L
231.022 314.47 L
cp
f
GR
GS
[0.75 0 0 0.75 0 0.5] CT
0.467 0.675 0.188 RC
N
256.189 302.333 M
260.663 302.333 L
260.663 300.564 L
256.189 300.564 L
cp
f
GR
GS
[0.75 0 0 0.75 0 0.5] CT
0.467 0.675 0.188 RC
N
281.356 302.333 M
285.83 302.333 L
285.83 290.054 L
281.356 290.054 L
cp
f
GR
GS
[0.75 0 0 0.75 0 0.5] CT
0.467 0.675 0.188 RC
N
306.522 302.333 M
310.996 302.333 L
310.996 304.047 L
306.522 304.047 L
cp
f
GR
GS
[0.75 0 0 0.75 0 0.5] CT
0.467 0.675 0.188 RC
N
331.689 302.333 M
336.163 302.333 L
336.163 302.549 L
331.689 302.549 L
cp
f
GR
GS
[0.75 0 0 0.75 0 0.5] CT
0.467 0.675 0.188 RC
N
356.856 302.333 M
361.33 302.333 L
361.33 302.828 L
356.856 302.828 L
cp
f
GR
GS
[0.75 0 0 0.75 0 0.5] CT
0.467 0.675 0.188 RC
N
382.022 302.333 M
386.496 302.333 L
386.496 256.568 L
382.022 256.568 L
cp
f
GR
GS
[0.75 0 0 0.75 0 0.5] CT
0.467 0.675 0.188 RC
N
407.189 302.333 M
411.663 302.333 L
411.663 301.912 L
407.189 301.912 L
cp
f
GR
GS
[0.75 0 0 0.75 0 0.5] CT
0.467 0.675 0.188 RC
N
432.356 302.333 M
436.83 302.333 L
436.83 301.892 L
432.356 301.892 L
cp
f
GR
GS
[0.75 0 0 0.75 0 0.5] CT
0.467 0.675 0.188 RC
N
457.522 302.333 M
461.996 302.333 L
461.996 300.112 L
457.522 300.112 L
cp
f
GR
GS
[0.75 0 0 0.75 0 0.5] CT
0.467 0.675 0.188 RC
N
482.689 302.333 M
487.163 302.333 L
487.163 303.709 L
482.689 303.709 L
cp
f
GR
GS
[0.75 0 0 0.75 0 0.5] CT
0.467 0.675 0.188 RC
N
507.856 302.333 M
512.33 302.333 L
512.33 301.918 L
507.856 301.918 L
cp
f
GR
GS
[0.75 0 0 0.75 0 0.5] CT
0.467 0.675 0.188 RC
N
533.022 302.333 M
537.496 302.333 L
537.496 298.285 L
533.022 298.285 L
cp
f
GR
GS
[0.75 0 0 0.75 0 0.5] CT
0.467 0.675 0.188 RC
N
558.189 302.333 M
562.663 302.333 L
562.663 337.214 L
558.189 337.214 L
cp
f
GR
GS
[0.75 0 0 0.75 0 0.5] CT
0.467 0.675 0.188 RC
N
583.356 302.333 M
587.83 302.333 L
587.83 319.756 L
583.356 319.756 L
cp
f
GR
GS
[0.75 0 0 0.75 0 0.5] CT
0.467 0.675 0.188 RC
N
608.522 302.333 M
612.996 302.333 L
612.996 317.696 L
608.522 317.696 L
cp
f
GR
GS
[0.75 0 0 0.75 0 0.5] CT
0.467 0.675 0.188 RC
N
633.689 302.333 M
638.163 302.333 L
638.163 314.564 L
633.689 314.564 L
cp
f
GR
GS
[0.75 0 0 0.75 0 0.5] CT
0.467 0.675 0.188 RC
N
658.856 302.333 M
663.33 302.333 L
663.33 302.79 L
658.856 302.79 L
cp
f
GR
GS
[0.75 0 0 0.75 0 0.5] CT
0.467 0.675 0.188 RC
N
684.022 302.333 M
688.496 302.333 L
688.496 372.55 L
684.022 372.55 L
cp
f
GR
GS
[0.75 0 0 0.75 0 0.5] CT
0.467 0.675 0.188 RC
N
709.189 302.333 M
713.663 302.333 L
713.663 302.121 L
709.189 302.121 L
cp
f
GR
GS
[0.75 0 0 0.75 0 0.5] CT
0.467 0.675 0.188 RC
N
734.356 302.333 M
738.83 302.333 L
738.83 305.369 L
734.356 305.369 L
cp
f
GR
GS
[0.75 0 0 0.75 0 0.5] CT
0.467 0.675 0.188 RC
N
759.522 302.333 M
763.996 302.333 L
763.996 301.711 L
759.522 301.711 L
cp
f
GR
GS
[0.75 0 0 0.75 0 0.5] CT
0.467 0.675 0.188 RC
N
784.689 302.333 M
789.163 302.333 L
789.163 302.042 L
784.689 302.042 L
cp
f
GR
GS
[0.75 0 0 0.75 0 0.5] CT
0.467 0.675 0.188 RC
N
809.856 302.333 M
814.33 302.333 L
814.33 301.522 L
809.856 301.522 L
cp
f
GR
GS
[0.75 0 0 0.75 0 0.5] CT
0.467 0.675 0.188 RC
N
835.022 302.333 M
839.496 302.333 L
839.496 383.467 L
835.022 383.467 L
cp
f
GR
GS
[0.75 0 0 0.75 0 0.5] CT
0.467 0.675 0.188 RC
N
860.189 302.333 M
864.663 302.333 L
864.663 300.221 L
860.189 300.221 L
cp
f
GR
GS
[0.75 0 0 0.75 0 0.5] CT
10.0 ML
0.667 LW
N
155.522 302.333 M
155.522 300.941 L
159.996 300.941 L
159.996 302.333 L
cp
S
GR
GS
[0.75 0 0 0.75 0 0.5] CT
10.0 ML
0.667 LW
N
180.689 302.333 M
180.689 301.641 L
185.163 301.641 L
185.163 302.333 L
cp
S
GR
GS
[0.75 0 0 0.75 0 0.5] CT
10.0 ML
0.667 LW
N
205.856 302.333 M
205.856 302.36 L
210.33 302.36 L
210.33 302.333 L
cp
S
GR
GS
[0.75 0 0 0.75 0 0.5] CT
10.0 ML
0.667 LW
N
231.022 302.333 M
231.022 314.47 L
235.496 314.47 L
235.496 302.333 L
cp
S
GR
GS
[0.75 0 0 0.75 0 0.5] CT
10.0 ML
0.667 LW
N
256.189 302.333 M
256.189 300.564 L
260.663 300.564 L
260.663 302.333 L
cp
S
GR
GS
[0.75 0 0 0.75 0 0.5] CT
10.0 ML
0.667 LW
N
281.356 302.333 M
281.356 290.054 L
285.83 290.054 L
285.83 302.333 L
cp
S
GR
GS
[0.75 0 0 0.75 0 0.5] CT
10.0 ML
0.667 LW
N
306.522 302.333 M
306.522 304.047 L
310.996 304.047 L
310.996 302.333 L
cp
S
GR
GS
[0.75 0 0 0.75 0 0.5] CT
10.0 ML
0.667 LW
N
331.689 302.333 M
331.689 302.549 L
336.163 302.549 L
336.163 302.333 L
cp
S
GR
GS
[0.75 0 0 0.75 0 0.5] CT
10.0 ML
0.667 LW
N
356.856 302.333 M
356.856 302.828 L
361.33 302.828 L
361.33 302.333 L
cp
S
GR
GS
[0.75 0 0 0.75 0 0.5] CT
10.0 ML
0.667 LW
N
382.022 302.333 M
382.022 256.568 L
386.496 256.568 L
386.496 302.333 L
cp
S
GR
GS
[0.75 0 0 0.75 0 0.5] CT
10.0 ML
0.667 LW
N
407.189 302.333 M
407.189 301.912 L
411.663 301.912 L
411.663 302.333 L
cp
S
GR
GS
[0.75 0 0 0.75 0 0.5] CT
10.0 ML
0.667 LW
N
432.356 302.333 M
432.356 301.892 L
436.83 301.892 L
436.83 302.333 L
cp
S
GR
GS
[0.75 0 0 0.75 0 0.5] CT
10.0 ML
0.667 LW
N
457.522 302.333 M
457.522 300.112 L
461.996 300.112 L
461.996 302.333 L
cp
S
GR
GS
[0.75 0 0 0.75 0 0.5] CT
10.0 ML
0.667 LW
N
482.689 302.333 M
482.689 303.709 L
487.163 303.709 L
487.163 302.333 L
cp
S
GR
GS
[0.75 0 0 0.75 0 0.5] CT
10.0 ML
0.667 LW
N
507.856 302.333 M
507.856 301.918 L
512.33 301.918 L
512.33 302.333 L
cp
S
GR
GS
[0.75 0 0 0.75 0 0.5] CT
10.0 ML
0.667 LW
N
533.022 302.333 M
533.022 298.285 L
537.496 298.285 L
537.496 302.333 L
cp
S
GR
GS
[0.75 0 0 0.75 0 0.5] CT
10.0 ML
0.667 LW
N
558.189 302.333 M
558.189 337.214 L
562.663 337.214 L
562.663 302.333 L
cp
S
GR
GS
[0.75 0 0 0.75 0 0.5] CT
10.0 ML
0.667 LW
N
583.356 302.333 M
583.356 319.756 L
587.83 319.756 L
587.83 302.333 L
cp
S
GR
GS
[0.75 0 0 0.75 0 0.5] CT
10.0 ML
0.667 LW
N
608.522 302.333 M
608.522 317.696 L
612.996 317.696 L
612.996 302.333 L
cp
S
GR
GS
[0.75 0 0 0.75 0 0.5] CT
10.0 ML
0.667 LW
N
633.689 302.333 M
633.689 314.564 L
638.163 314.564 L
638.163 302.333 L
cp
S
GR
GS
[0.75 0 0 0.75 0 0.5] CT
10.0 ML
0.667 LW
N
658.856 302.333 M
658.856 302.79 L
663.33 302.79 L
663.33 302.333 L
cp
S
GR
GS
[0.75 0 0 0.75 0 0.5] CT
10.0 ML
0.667 LW
N
684.022 302.333 M
684.022 372.55 L
688.496 372.55 L
688.496 302.333 L
cp
S
GR
GS
[0.75 0 0 0.75 0 0.5] CT
10.0 ML
0.667 LW
N
709.189 302.333 M
709.189 302.121 L
713.663 302.121 L
713.663 302.333 L
cp
S
GR
GS
[0.75 0 0 0.75 0 0.5] CT
10.0 ML
0.667 LW
N
734.356 302.333 M
734.356 305.369 L
738.83 305.369 L
738.83 302.333 L
cp
S
GR
GS
[0.75 0 0 0.75 0 0.5] CT
10.0 ML
0.667 LW
N
759.522 302.333 M
759.522 301.711 L
763.996 301.711 L
763.996 302.333 L
cp
S
GR
GS
[0.75 0 0 0.75 0 0.5] CT
10.0 ML
0.667 LW
N
784.689 302.333 M
784.689 302.042 L
789.163 302.042 L
789.163 302.333 L
cp
S
GR
GS
[0.75 0 0 0.75 0 0.5] CT
10.0 ML
0.667 LW
N
809.856 302.333 M
809.856 301.522 L
814.33 301.522 L
814.33 302.333 L
cp
S
GR
GS
[0.75 0 0 0.75 0 0.5] CT
10.0 ML
0.667 LW
N
835.022 302.333 M
835.022 383.467 L
839.496 383.467 L
839.496 302.333 L
cp
S
GR
GS
[0.75 0 0 0.75 0 0.5] CT
10.0 ML
0.667 LW
N
860.189 302.333 M
860.189 300.221 L
864.663 300.221 L
864.663 302.333 L
cp
S
GR
GS
[0.75 0 0 0.75 0 0.5] CT
0.149 GC
2 setlinecap
1 LJ
0.667 LW
N
127 405 M
882 405 L
S
GR
GS
[0.75 0 0 0.75 0 0.5] CT
0.149 GC
2 setlinecap
1 LJ
0.667 LW
N
127 251 M
882 251 L
S
GR
GS
[0.75 0 0 0.75 0 0.5] CT
0.149 GC
2 setlinecap
1 LJ
0.667 LW
N
152.167 405 M
152.167 397.45 L
S
GR
GS
[0.75 0 0 0.75 0 0.5] CT
0.149 GC
2 setlinecap
1 LJ
0.667 LW
N
177.333 405 M
177.333 397.45 L
S
GR
GS
[0.75 0 0 0.75 0 0.5] CT
0.149 GC
2 setlinecap
1 LJ
0.667 LW
N
202.5 405 M
202.5 397.45 L
S
GR
GS
[0.75 0 0 0.75 0 0.5] CT
0.149 GC
2 setlinecap
1 LJ
0.667 LW
N
227.667 405 M
227.667 397.45 L
S
GR
GS
[0.75 0 0 0.75 0 0.5] CT
0.149 GC
2 setlinecap
1 LJ
0.667 LW
N
252.833 405 M
252.833 397.45 L
S
GR
GS
[0.75 0 0 0.75 0 0.5] CT
0.149 GC
2 setlinecap
1 LJ
0.667 LW
N
278 405 M
278 397.45 L
S
GR
GS
[0.75 0 0 0.75 0 0.5] CT
0.149 GC
2 setlinecap
1 LJ
0.667 LW
N
303.167 405 M
303.167 397.45 L
S
GR
GS
[0.75 0 0 0.75 0 0.5] CT
0.149 GC
2 setlinecap
1 LJ
0.667 LW
N
328.333 405 M
328.333 397.45 L
S
GR
GS
[0.75 0 0 0.75 0 0.5] CT
0.149 GC
2 setlinecap
1 LJ
0.667 LW
N
353.5 405 M
353.5 397.45 L
S
GR
GS
[0.75 0 0 0.75 0 0.5] CT
0.149 GC
2 setlinecap
1 LJ
0.667 LW
N
378.667 405 M
378.667 397.45 L
S
GR
GS
[0.75 0 0 0.75 0 0.5] CT
0.149 GC
2 setlinecap
1 LJ
0.667 LW
N
403.833 405 M
403.833 397.45 L
S
GR
GS
[0.75 0 0 0.75 0 0.5] CT
0.149 GC
2 setlinecap
1 LJ
0.667 LW
N
429 405 M
429 397.45 L
S
GR
GS
[0.75 0 0 0.75 0 0.5] CT
0.149 GC
2 setlinecap
1 LJ
0.667 LW
N
454.167 405 M
454.167 397.45 L
S
GR
GS
[0.75 0 0 0.75 0 0.5] CT
0.149 GC
2 setlinecap
1 LJ
0.667 LW
N
479.333 405 M
479.333 397.45 L
S
GR
GS
[0.75 0 0 0.75 0 0.5] CT
0.149 GC
2 setlinecap
1 LJ
0.667 LW
N
504.5 405 M
504.5 397.45 L
S
GR
GS
[0.75 0 0 0.75 0 0.5] CT
0.149 GC
2 setlinecap
1 LJ
0.667 LW
N
529.667 405 M
529.667 397.45 L
S
GR
GS
[0.75 0 0 0.75 0 0.5] CT
0.149 GC
2 setlinecap
1 LJ
0.667 LW
N
554.833 405 M
554.833 397.45 L
S
GR
GS
[0.75 0 0 0.75 0 0.5] CT
0.149 GC
2 setlinecap
1 LJ
0.667 LW
N
580 405 M
580 397.45 L
S
GR
GS
[0.75 0 0 0.75 0 0.5] CT
0.149 GC
2 setlinecap
1 LJ
0.667 LW
N
605.167 405 M
605.167 397.45 L
S
GR
GS
[0.75 0 0 0.75 0 0.5] CT
0.149 GC
2 setlinecap
1 LJ
0.667 LW
N
630.333 405 M
630.333 397.45 L
S
GR
GS
[0.75 0 0 0.75 0 0.5] CT
0.149 GC
2 setlinecap
1 LJ
0.667 LW
N
655.5 405 M
655.5 397.45 L
S
GR
GS
[0.75 0 0 0.75 0 0.5] CT
0.149 GC
2 setlinecap
1 LJ
0.667 LW
N
680.667 405 M
680.667 397.45 L
S
GR
GS
[0.75 0 0 0.75 0 0.5] CT
0.149 GC
2 setlinecap
1 LJ
0.667 LW
N
705.833 405 M
705.833 397.45 L
S
GR
GS
[0.75 0 0 0.75 0 0.5] CT
0.149 GC
2 setlinecap
1 LJ
0.667 LW
N
731 405 M
731 397.45 L
S
GR
GS
[0.75 0 0 0.75 0 0.5] CT
0.149 GC
2 setlinecap
1 LJ
0.667 LW
N
756.167 405 M
756.167 397.45 L
S
GR
GS
[0.75 0 0 0.75 0 0.5] CT
0.149 GC
2 setlinecap
1 LJ
0.667 LW
N
781.333 405 M
781.333 397.45 L
S
GR
GS
[0.75 0 0 0.75 0 0.5] CT
0.149 GC
2 setlinecap
1 LJ
0.667 LW
N
806.5 405 M
806.5 397.45 L
S
GR
GS
[0.75 0 0 0.75 0 0.5] CT
0.149 GC
2 setlinecap
1 LJ
0.667 LW
N
831.667 405 M
831.667 397.45 L
S
GR
GS
[0.75 0 0 0.75 0 0.5] CT
0.149 GC
2 setlinecap
1 LJ
0.667 LW
N
856.833 405 M
856.833 397.45 L
S
GR
GS
[0.75 0 0 0.75 0 0.5] CT
0.149 GC
2 setlinecap
1 LJ
0.667 LW
N
152.167 251 M
152.167 258.55 L
S
GR
GS
[0.75 0 0 0.75 0 0.5] CT
0.149 GC
2 setlinecap
1 LJ
0.667 LW
N
177.333 251 M
177.333 258.55 L
S
GR
GS
[0.75 0 0 0.75 0 0.5] CT
0.149 GC
2 setlinecap
1 LJ
0.667 LW
N
202.5 251 M
202.5 258.55 L
S
GR
GS
[0.75 0 0 0.75 0 0.5] CT
0.149 GC
2 setlinecap
1 LJ
0.667 LW
N
227.667 251 M
227.667 258.55 L
S
GR
GS
[0.75 0 0 0.75 0 0.5] CT
0.149 GC
2 setlinecap
1 LJ
0.667 LW
N
252.833 251 M
252.833 258.55 L
S
GR
GS
[0.75 0 0 0.75 0 0.5] CT
0.149 GC
2 setlinecap
1 LJ
0.667 LW
N
278 251 M
278 258.55 L
S
GR
GS
[0.75 0 0 0.75 0 0.5] CT
0.149 GC
2 setlinecap
1 LJ
0.667 LW
N
303.167 251 M
303.167 258.55 L
S
GR
GS
[0.75 0 0 0.75 0 0.5] CT
0.149 GC
2 setlinecap
1 LJ
0.667 LW
N
328.333 251 M
328.333 258.55 L
S
GR
GS
[0.75 0 0 0.75 0 0.5] CT
0.149 GC
2 setlinecap
1 LJ
0.667 LW
N
353.5 251 M
353.5 258.55 L
S
GR
GS
[0.75 0 0 0.75 0 0.5] CT
0.149 GC
2 setlinecap
1 LJ
0.667 LW
N
378.667 251 M
378.667 258.55 L
S
GR
GS
[0.75 0 0 0.75 0 0.5] CT
0.149 GC
2 setlinecap
1 LJ
0.667 LW
N
403.833 251 M
403.833 258.55 L
S
GR
GS
[0.75 0 0 0.75 0 0.5] CT
0.149 GC
2 setlinecap
1 LJ
0.667 LW
N
429 251 M
429 258.55 L
S
GR
GS
[0.75 0 0 0.75 0 0.5] CT
0.149 GC
2 setlinecap
1 LJ
0.667 LW
N
454.167 251 M
454.167 258.55 L
S
GR
GS
[0.75 0 0 0.75 0 0.5] CT
0.149 GC
2 setlinecap
1 LJ
0.667 LW
N
479.333 251 M
479.333 258.55 L
S
GR
GS
[0.75 0 0 0.75 0 0.5] CT
0.149 GC
2 setlinecap
1 LJ
0.667 LW
N
504.5 251 M
504.5 258.55 L
S
GR
GS
[0.75 0 0 0.75 0 0.5] CT
0.149 GC
2 setlinecap
1 LJ
0.667 LW
N
529.667 251 M
529.667 258.55 L
S
GR
GS
[0.75 0 0 0.75 0 0.5] CT
0.149 GC
2 setlinecap
1 LJ
0.667 LW
N
554.833 251 M
554.833 258.55 L
S
GR
GS
[0.75 0 0 0.75 0 0.5] CT
0.149 GC
2 setlinecap
1 LJ
0.667 LW
N
580 251 M
580 258.55 L
S
GR
GS
[0.75 0 0 0.75 0 0.5] CT
0.149 GC
2 setlinecap
1 LJ
0.667 LW
N
605.167 251 M
605.167 258.55 L
S
GR
GS
[0.75 0 0 0.75 0 0.5] CT
0.149 GC
2 setlinecap
1 LJ
0.667 LW
N
630.333 251 M
630.333 258.55 L
S
GR
GS
[0.75 0 0 0.75 0 0.5] CT
0.149 GC
2 setlinecap
1 LJ
0.667 LW
N
655.5 251 M
655.5 258.55 L
S
GR
GS
[0.75 0 0 0.75 0 0.5] CT
0.149 GC
2 setlinecap
1 LJ
0.667 LW
N
680.667 251 M
680.667 258.55 L
S
GR
GS
[0.75 0 0 0.75 0 0.5] CT
0.149 GC
2 setlinecap
1 LJ
0.667 LW
N
705.833 251 M
705.833 258.55 L
S
GR
GS
[0.75 0 0 0.75 0 0.5] CT
0.149 GC
2 setlinecap
1 LJ
0.667 LW
N
731 251 M
731 258.55 L
S
GR
GS
[0.75 0 0 0.75 0 0.5] CT
0.149 GC
2 setlinecap
1 LJ
0.667 LW
N
756.167 251 M
756.167 258.55 L
S
GR
GS
[0.75 0 0 0.75 0 0.5] CT
0.149 GC
2 setlinecap
1 LJ
0.667 LW
N
781.333 251 M
781.333 258.55 L
S
GR
GS
[0.75 0 0 0.75 0 0.5] CT
0.149 GC
2 setlinecap
1 LJ
0.667 LW
N
806.5 251 M
806.5 258.55 L
S
GR
GS
[0.75 0 0 0.75 0 0.5] CT
0.149 GC
2 setlinecap
1 LJ
0.667 LW
N
831.667 251 M
831.667 258.55 L
S
GR
GS
[0.75 0 0 0.75 0 0.5] CT
0.149 GC
2 setlinecap
1 LJ
0.667 LW
N
856.833 251 M
856.833 258.55 L
S
GR
GS
[0.75 0 0 0.75 114.125 308.25001] CT
0.149 GC
/Helvetica 13.333 F
GS
[1 0 0 1 0 0] CT
-4.5 13 moveto 
1 -1 scale
(1) t 
GR
GR
GS
[0.75 0 0 0.75 133 308.25001] CT
0.149 GC
/Helvetica 13.333 F
GS
[1 0 0 1 0 0] CT
-4.5 13 moveto 
1 -1 scale
(2) t 
GR
GR
GS
[0.75 0 0 0.75 151.875 308.25001] CT
0.149 GC
/Helvetica 13.333 F
GS
[1 0 0 1 0 0] CT
-4.5 13 moveto 
1 -1 scale
(3) t 
GR
GR
GS
[0.75 0 0 0.75 170.75 308.25001] CT
0.149 GC
/Helvetica 13.333 F
GS
[1 0 0 1 0 0] CT
-4.5 13 moveto 
1 -1 scale
(4) t 
GR
GR
GS
[0.75 0 0 0.75 189.625 308.25001] CT
0.149 GC
/Helvetica 13.333 F
GS
[1 0 0 1 0 0] CT
-4.5 13 moveto 
1 -1 scale
(5) t 
GR
GR
GS
[0.75 0 0 0.75 208.5 308.25001] CT
0.149 GC
/Helvetica 13.333 F
GS
[1 0 0 1 0 0] CT
-4.5 13 moveto 
1 -1 scale
(6) t 
GR
GR
GS
[0.75 0 0 0.75 227.37499 308.25001] CT
0.149 GC
/Helvetica 13.333 F
GS
[1 0 0 1 0 0] CT
-4.5 13 moveto 
1 -1 scale
(7) t 
GR
GR
GS
[0.75 0 0 0.75 246.25001 308.25001] CT
0.149 GC
/Helvetica 13.333 F
GS
[1 0 0 1 0 0] CT
-4.5 13 moveto 
1 -1 scale
(8) t 
GR
GR
GS
[0.75 0 0 0.75 265.125 308.25001] CT
0.149 GC
/Helvetica 13.333 F
GS
[1 0 0 1 0 0] CT
-4.5 13 moveto 
1 -1 scale
(9) t 
GR
GR
GS
[0.75 0 0 0.75 283.99999 308.25001] CT
0.149 GC
/Helvetica 13.333 F
GS
[1 0 0 1 0 0] CT
-8.5 13 moveto 
1 -1 scale
(10) t 
GR
GR
GS
[0.75 0 0 0.75 302.87501 308.25001] CT
0.149 GC
/Helvetica 13.333 F
GS
[1 0 0 1 0 0] CT
-8.5 13 moveto 
1 -1 scale
(11) t 
GR
GR
GS
[0.75 0 0 0.75 321.75 308.25001] CT
0.149 GC
/Helvetica 13.333 F
GS
[1 0 0 1 0 0] CT
-8.5 13 moveto 
1 -1 scale
(12) t 
GR
GR
GS
[0.75 0 0 0.75 340.62499 308.25001] CT
0.149 GC
/Helvetica 13.333 F
GS
[1 0 0 1 0 0] CT
-8.5 13 moveto 
1 -1 scale
(13) t 
GR
GR
GS
[0.75 0 0 0.75 359.50001 308.25001] CT
0.149 GC
/Helvetica 13.333 F
GS
[1 0 0 1 0 0] CT
-8.5 13 moveto 
1 -1 scale
(14) t 
GR
GR
GS
[0.75 0 0 0.75 378.375 308.25001] CT
0.149 GC
/Helvetica 13.333 F
GS
[1 0 0 1 0 0] CT
-8.5 13 moveto 
1 -1 scale
(15) t 
GR
GR
GS
[0.75 0 0 0.75 397.25002 308.25001] CT
0.149 GC
/Helvetica 13.333 F
GS
[1 0 0 1 0 0] CT
-8.5 13 moveto 
1 -1 scale
(16) t 
GR
GR
GS
[0.75 0 0 0.75 416.12498 308.25001] CT
0.149 GC
/Helvetica 13.333 F
GS
[1 0 0 1 0 0] CT
-8.5 13 moveto 
1 -1 scale
(17) t 
GR
GR
GS
[0.75 0 0 0.75 435 308.25001] CT
0.149 GC
/Helvetica 13.333 F
GS
[1 0 0 1 0 0] CT
-8.5 13 moveto 
1 -1 scale
(18) t 
GR
GR
GS
[0.75 0 0 0.75 453.87502 308.25001] CT
0.149 GC
/Helvetica 13.333 F
GS
[1 0 0 1 0 0] CT
-8.5 13 moveto 
1 -1 scale
(19) t 
GR
GR
GS
[0.75 0 0 0.75 472.74998 308.25001] CT
0.149 GC
/Helvetica 13.333 F
GS
[1 0 0 1 0 0] CT
-8.5 13 moveto 
1 -1 scale
(20) t 
GR
GR
GS
[0.75 0 0 0.75 491.625 308.25001] CT
0.149 GC
/Helvetica 13.333 F
GS
[1 0 0 1 0 0] CT
-8.5 13 moveto 
1 -1 scale
(21) t 
GR
GR
GS
[0.75 0 0 0.75 510.50002 308.25001] CT
0.149 GC
/Helvetica 13.333 F
GS
[1 0 0 1 0 0] CT
-8.5 13 moveto 
1 -1 scale
(22) t 
GR
GR
GS
[0.75 0 0 0.75 529.37498 308.25001] CT
0.149 GC
/Helvetica 13.333 F
GS
[1 0 0 1 0 0] CT
-8.5 13 moveto 
1 -1 scale
(23) t 
GR
GR
GS
[0.75 0 0 0.75 548.25 308.25001] CT
0.149 GC
/Helvetica 13.333 F
GS
[1 0 0 1 0 0] CT
-8.5 13 moveto 
1 -1 scale
(24) t 
GR
GR
GS
[0.75 0 0 0.75 567.12502 308.25001] CT
0.149 GC
/Helvetica 13.333 F
GS
[1 0 0 1 0 0] CT
-8.5 13 moveto 
1 -1 scale
(25) t 
GR
GR
GS
[0.75 0 0 0.75 585.99998 308.25001] CT
0.149 GC
/Helvetica 13.333 F
GS
[1 0 0 1 0 0] CT
-8.5 13 moveto 
1 -1 scale
(27) t 
GR
GR
GS
[0.75 0 0 0.75 604.875 308.25001] CT
0.149 GC
/Helvetica 13.333 F
GS
[1 0 0 1 0 0] CT
-8.5 13 moveto 
1 -1 scale
(28) t 
GR
GR
GS
[0.75 0 0 0.75 623.75002 308.25001] CT
0.149 GC
/Helvetica 13.333 F
GS
[1 0 0 1 0 0] CT
-8.5 13 moveto 
1 -1 scale
(29) t 
GR
GR
GS
[0.75 0 0 0.75 642.62498 308.25001] CT
0.149 GC
/Helvetica 13.333 F
GS
[1 0 0 1 0 0] CT
-8.5 13 moveto 
1 -1 scale
(30) t 
GR
GR
GS
[0.75 0 0 0.75 378.37527 321.99999] CT
0.149 GC
/Helvetica 14.667 F
GS
[1 0 0 1 0 0] CT
-45.5 14 moveto 
1 -1 scale
(Point clouds) t 
GR
GR
GS
[0.75 0 0 0.75 0 0.5] CT
0.149 GC
2 setlinecap
1 LJ
0.667 LW
N
127 405 M
127 251 L
S
GR
GS
[0.75 0 0 0.75 0 0.5] CT
0.149 GC
2 setlinecap
1 LJ
0.667 LW
N
882 405 M
882 251 L
S
GR
GS
[0.75 0 0 0.75 0 0.5] CT
0.149 GC
2 setlinecap
1 LJ
0.667 LW
N
127 405 M
134.55 405 L
S
GR
GS
[0.75 0 0 0.75 0 0.5] CT
0.149 GC
2 setlinecap
1 LJ
0.667 LW
N
127 353.667 M
134.55 353.667 L
S
GR
GS
[0.75 0 0 0.75 0 0.5] CT
0.149 GC
2 setlinecap
1 LJ
0.667 LW
N
127 302.333 M
134.55 302.333 L
S
GR
GS
[0.75 0 0 0.75 0 0.5] CT
0.149 GC
2 setlinecap
1 LJ
0.667 LW
N
127 251 M
134.55 251 L
S
GR
GS
[0.75 0 0 0.75 0 0.5] CT
0.149 GC
2 setlinecap
1 LJ
0.667 LW
N
882 405 M
874.45 405 L
S
GR
GS
[0.75 0 0 0.75 0 0.5] CT
0.149 GC
2 setlinecap
1 LJ
0.667 LW
N
882 353.667 M
874.45 353.667 L
S
GR
GS
[0.75 0 0 0.75 0 0.5] CT
0.149 GC
2 setlinecap
1 LJ
0.667 LW
N
882 302.333 M
874.45 302.333 L
S
GR
GS
[0.75 0 0 0.75 0 0.5] CT
0.149 GC
2 setlinecap
1 LJ
0.667 LW
N
882 251 M
874.45 251 L
S
GR
GS
[0.75 0 0 0.75 91.25 304.25] CT
0.149 GC
/Helvetica 13.333 F
GS
[1 0 0 1 0 0] CT
-22 4.5 moveto 
1 -1 scale
(-10) t 
GR
GR
GS
[0.75 0 0 0.75 91.25 265.74999] CT
0.149 GC
/Helvetica 13.333 F
GS
[1 0 0 1 0 0] CT
-13 4.5 moveto 
1 -1 scale
(-5) t 
GR
GR
GS
[0.75 0 0 0.75 91.25 227.25001] CT
0.149 GC
/Helvetica 13.333 F
GS
[1 0 0 1 0 0] CT
-9 4.5 moveto 
1 -1 scale
(0) t 
GR
GR
GS
[0.75 0 0 0.75 91.25 188.75] CT
0.149 GC
/Helvetica 13.333 F
GS
[1 0 0 1 0 0] CT
-9 4.5 moveto 
1 -1 scale
(5) t 
GR
GR
GS
[0 -0.75 0.75 0 64.5 263.75] CT
0.149 GC
N
0.813 0 M
0.688 0 0.688 -0.125 QT
0.703 -0.125 0.703 -0.133 QT
0.703 -0.141 0.703 -0.172 QT
5.859 -10.578 L
5.938 -10.734 6.141 -10.734 QT
6.344 -10.734 L
6.547 -10.734 6.609 -10.578 QT
11.781 -0.172 L
11.781 -0.156 11.789 -0.141 QT
11.797 -0.125 11.797 -0.125 QT
11.797 0 11.672 0 QT
0.813 0 L
cp
1.797 -1.203 M
9.703 -1.203 L
5.75 -9.156 L
1.797 -1.203 L
cp
f
GR
GS
[0 -0.75 0.75 0 64.5 254] CT
0.149 GC
/Helvetica 14.667 F
GS
[1 0 0 1 0 0] CT
0 0 moveto 
1 -1 scale
( err) t 
GR
GR
GS
[0 -0.75 0.75 0 69.75 233.75] CT
0.149 GC
/Helvetica 11.733 F
GS
[1 0 0 1 0 0] CT
0 0 moveto 
1 -1 scale
(t) t 
GR
GR
GS
[0.75 0 0 0.75 95.25 185.75] CT
0.149 GC
N
1.906 -0.375 M
1.906 -0.469 1.969 -0.563 QT
4.672 -3.25 L
1.969 -5.953 L
1.906 -6.016 1.906 -6.125 QT
1.906 -6.219 1.984 -6.305 QT
2.063 -6.391 2.172 -6.391 QT
2.266 -6.391 2.375 -6.297 QT
5.063 -3.609 L
7.734 -6.297 L
7.844 -6.391 7.922 -6.391 QT
8.031 -6.391 8.109 -6.313 QT
8.188 -6.234 8.188 -6.125 QT
8.188 -6.016 8.125 -5.953 QT
5.422 -3.25 L
8.125 -0.563 L
8.188 -0.469 8.188 -0.375 QT
8.188 -0.266 8.109 -0.188 QT
8.031 -0.109 7.922 -0.109 QT
7.828 -0.109 7.734 -0.203 QT
5.063 -2.891 L
2.375 -0.203 L
2.266 -0.109 2.172 -0.109 QT
2.063 -0.109 1.984 -0.195 QT
1.906 -0.281 1.906 -0.375 QT
cp
f
GR
GS
[0.75 0 0 0.75 103.5 185.75] CT
0.149 GC
/Helvetica 13.333 F
GS
[1 0 0 1 0 0] CT
0 0 moveto 
1 -1 scale
(10) t 
GR
GR
GS
[0.75 0 0 0.75 116.25 181.25] CT
0.149 GC
/Helvetica 10.667 F
GS
[1 0 0 1 0 0] CT
0 0 moveto 
1 -1 scale
(-3) t 
GR
GR
%%Trailer
%%Pages: 1
%%EOF
