%!PS-Adobe-3.0 EPSF-3.0
%%Creator: (MATLAB, The Mathworks, Inc. Version 9.2.0.538062 \(R2017a\). Operating System: Linux)
%%Title: /home/nicola/Scrivania/RESEARCH/Projects/TrimBot2020/RESEARCH/Speedup/evaluation_GTX1080ti/gtx-roterr.eps
%%CreationDate: 2019-09-25T19:10:51
%%Pages: (atend)
%%BoundingBox: 0 0 686 358
%%LanguageLevel: 3
%%EndComments
%%BeginProlog
%%BeginResource: procset (Apache XML Graphics Std ProcSet) 1.2 0
%%Version: 1.2 0
%%Copyright: (Copyright 2001-2003,2010 The Apache Software Foundation. License terms: http://www.apache.org/licenses/LICENSE-2.0)
/bd{bind def}bind def
/ld{load def}bd
/GR/grestore ld
/M/moveto ld
/LJ/setlinejoin ld
/C/curveto ld
/f/fill ld
/LW/setlinewidth ld
/GC/setgray ld
/t/show ld
/N/newpath ld
/CT/concat ld
/cp/closepath ld
/S/stroke ld
/L/lineto ld
/CC/setcmykcolor ld
/A/ashow ld
/GS/gsave ld
/RC/setrgbcolor ld
/RM/rmoveto ld
/ML/setmiterlimit ld
/re {4 2 roll M
1 index 0 rlineto
0 exch rlineto
neg 0 rlineto
cp } bd
/_ctm matrix def
/_tm matrix def
/BT { _ctm currentmatrix pop matrix _tm copy pop 0 0 moveto } bd
/ET { _ctm setmatrix } bd
/iTm { _ctm setmatrix _tm concat } bd
/Tm { _tm astore pop iTm 0 0 moveto } bd
/ux 0.0 def
/uy 0.0 def
/F {
  /Tp exch def
  /Tf exch def
  Tf findfont Tp scalefont setfont
  /cf Tf def  /cs Tp def
} bd
/ULS {currentpoint /uy exch def /ux exch def} bd
/ULE {
  /Tcx currentpoint pop def
  gsave
  newpath
  cf findfont cs scalefont dup
  /FontMatrix get 0 get /Ts exch def /FontInfo get dup
  /UnderlinePosition get Ts mul /To exch def
  /UnderlineThickness get Ts mul /Tt exch def
  ux uy To add moveto  Tcx uy To add lineto
  Tt setlinewidth stroke
  grestore
} bd
/OLE {
  /Tcx currentpoint pop def
  gsave
  newpath
  cf findfont cs scalefont dup
  /FontMatrix get 0 get /Ts exch def /FontInfo get dup
  /UnderlinePosition get Ts mul /To exch def
  /UnderlineThickness get Ts mul /Tt exch def
  ux uy To add cs add moveto Tcx uy To add cs add lineto
  Tt setlinewidth stroke
  grestore
} bd
/SOE {
  /Tcx currentpoint pop def
  gsave
  newpath
  cf findfont cs scalefont dup
  /FontMatrix get 0 get /Ts exch def /FontInfo get dup
  /UnderlinePosition get Ts mul /To exch def
  /UnderlineThickness get Ts mul /Tt exch def
  ux uy To add cs 10 mul 26 idiv add moveto Tcx uy To add cs 10 mul 26 idiv add lineto
  Tt setlinewidth stroke
  grestore
} bd
/QT {
/Y22 exch store
/X22 exch store
/Y21 exch store
/X21 exch store
currentpoint
/Y21 load 2 mul add 3 div exch
/X21 load 2 mul add 3 div exch
/X21 load 2 mul /X22 load add 3 div
/Y21 load 2 mul /Y22 load add 3 div
/X22 load /Y22 load curveto
} bd
/SSPD {
dup length /d exch dict def
{
/v exch def
/k exch def
currentpagedevice k known {
/cpdv currentpagedevice k get def
v cpdv ne {
/upd false def
/nullv v type /nulltype eq def
/nullcpdv cpdv type /nulltype eq def
nullv nullcpdv or
{
/upd true def
} {
/sametype v type cpdv type eq def
sametype {
v type /arraytype eq {
/vlen v length def
/cpdvlen cpdv length def
vlen cpdvlen eq {
0 1 vlen 1 sub {
/i exch def
/obj v i get def
/cpdobj cpdv i get def
obj cpdobj ne {
/upd true def
exit
} if
} for
} {
/upd true def
} ifelse
} {
v type /dicttype eq {
v {
/dv exch def
/dk exch def
/cpddv cpdv dk get def
dv cpddv ne {
/upd true def
exit
} if
} forall
} {
/upd true def
} ifelse
} ifelse
} if
} ifelse
upd true eq {
d k v put
} if
} if
} if
} forall
d length 0 gt {
d setpagedevice
} if
} bd
/RE { % /NewFontName [NewEncodingArray] /FontName RE -
  findfont dup length dict begin
  {
    1 index /FID ne
    {def} {pop pop} ifelse
  } forall
  /Encoding exch def
  /FontName 1 index def
  currentdict definefont pop
  end
} bind def
%%EndResource
%%BeginResource: procset (Apache XML Graphics EPS ProcSet) 1.0 0
%%Version: 1.0 0
%%Copyright: (Copyright 2002-2003 The Apache Software Foundation. License terms: http://www.apache.org/licenses/LICENSE-2.0)
/BeginEPSF { %def
/b4_Inc_state save def         % Save state for cleanup
/dict_count countdictstack def % Count objects on dict stack
/op_count count 1 sub def      % Count objects on operand stack
userdict begin                 % Push userdict on dict stack
/showpage { } def              % Redefine showpage, { } = null proc
0 setgray 0 setlinecap         % Prepare graphics state
1 setlinewidth 0 setlinejoin
10 setmiterlimit [ ] 0 setdash newpath
/languagelevel where           % If level not equal to 1 then
{pop languagelevel             % set strokeadjust and
1 ne                           % overprint to their defaults.
{false setstrokeadjust false setoverprint
} if
} if
} bd
/EndEPSF { %def
count op_count sub {pop} repeat            % Clean up stacks
countdictstack dict_count sub {end} repeat
b4_Inc_state restore
} bd
%%EndResource
%FOPBeginFontDict
%%IncludeResource: font Courier-Bold
%%IncludeResource: font Helvetica
%%IncludeResource: font Courier-BoldOblique
%%IncludeResource: font Courier-Oblique
%%IncludeResource: font Times-Roman
%%IncludeResource: font Helvetica-BoldOblique
%%IncludeResource: font Helvetica-Bold
%%IncludeResource: font Helvetica-Oblique
%%IncludeResource: font Times-BoldItalic
%%IncludeResource: font Courier
%%IncludeResource: font Times-Italic
%%IncludeResource: font Times-Bold
%%IncludeResource: font Symbol
%%IncludeResource: font ZapfDingbats
%FOPEndFontDict
%%BeginResource: encoding WinAnsiEncoding
/WinAnsiEncoding [
/.notdef /.notdef /.notdef /.notdef /.notdef
/.notdef /.notdef /.notdef /.notdef /.notdef
/.notdef /.notdef /.notdef /.notdef /.notdef
/.notdef /.notdef /.notdef /.notdef /.notdef
/.notdef /.notdef /.notdef /.notdef /.notdef
/.notdef /.notdef /.notdef /.notdef /.notdef
/.notdef /.notdef /space /exclam /quotedbl
/numbersign /dollar /percent /ampersand /quotesingle
/parenleft /parenright /asterisk /plus /comma
/hyphen /period /slash /zero /one
/two /three /four /five /six
/seven /eight /nine /colon /semicolon
/less /equal /greater /question /at
/A /B /C /D /E
/F /G /H /I /J
/K /L /M /N /O
/P /Q /R /S /T
/U /V /W /X /Y
/Z /bracketleft /backslash /bracketright /asciicircum
/underscore /quoteleft /a /b /c
/d /e /f /g /h
/i /j /k /l /m
/n /o /p /q /r
/s /t /u /v /w
/x /y /z /braceleft /bar
/braceright /asciitilde /bullet /Euro /bullet
/quotesinglbase /florin /quotedblbase /ellipsis /dagger
/daggerdbl /circumflex /perthousand /Scaron /guilsinglleft
/OE /bullet /Zcaron /bullet /bullet
/quoteleft /quoteright /quotedblleft /quotedblright /bullet
/endash /emdash /asciitilde /trademark /scaron
/guilsinglright /oe /bullet /zcaron /Ydieresis
/space /exclamdown /cent /sterling /currency
/yen /brokenbar /section /dieresis /copyright
/ordfeminine /guillemotleft /logicalnot /sfthyphen /registered
/macron /degree /plusminus /twosuperior /threesuperior
/acute /mu /paragraph /middot /cedilla
/onesuperior /ordmasculine /guillemotright /onequarter /onehalf
/threequarters /questiondown /Agrave /Aacute /Acircumflex
/Atilde /Adieresis /Aring /AE /Ccedilla
/Egrave /Eacute /Ecircumflex /Edieresis /Igrave
/Iacute /Icircumflex /Idieresis /Eth /Ntilde
/Ograve /Oacute /Ocircumflex /Otilde /Odieresis
/multiply /Oslash /Ugrave /Uacute /Ucircumflex
/Udieresis /Yacute /Thorn /germandbls /agrave
/aacute /acircumflex /atilde /adieresis /aring
/ae /ccedilla /egrave /eacute /ecircumflex
/edieresis /igrave /iacute /icircumflex /idieresis
/eth /ntilde /ograve /oacute /ocircumflex
/otilde /odieresis /divide /oslash /ugrave
/uacute /ucircumflex /udieresis /yacute /thorn
/ydieresis
] def
%%EndResource
%FOPBeginFontReencode
/Courier-Bold findfont
dup length dict begin
  {1 index /FID ne {def} {pop pop} ifelse} forall
  /Encoding WinAnsiEncoding def
  currentdict
end
/Courier-Bold exch definefont pop
/Helvetica findfont
dup length dict begin
  {1 index /FID ne {def} {pop pop} ifelse} forall
  /Encoding WinAnsiEncoding def
  currentdict
end
/Helvetica exch definefont pop
/Courier-BoldOblique findfont
dup length dict begin
  {1 index /FID ne {def} {pop pop} ifelse} forall
  /Encoding WinAnsiEncoding def
  currentdict
end
/Courier-BoldOblique exch definefont pop
/Courier-Oblique findfont
dup length dict begin
  {1 index /FID ne {def} {pop pop} ifelse} forall
  /Encoding WinAnsiEncoding def
  currentdict
end
/Courier-Oblique exch definefont pop
/Times-Roman findfont
dup length dict begin
  {1 index /FID ne {def} {pop pop} ifelse} forall
  /Encoding WinAnsiEncoding def
  currentdict
end
/Times-Roman exch definefont pop
/Helvetica-BoldOblique findfont
dup length dict begin
  {1 index /FID ne {def} {pop pop} ifelse} forall
  /Encoding WinAnsiEncoding def
  currentdict
end
/Helvetica-BoldOblique exch definefont pop
/Helvetica-Bold findfont
dup length dict begin
  {1 index /FID ne {def} {pop pop} ifelse} forall
  /Encoding WinAnsiEncoding def
  currentdict
end
/Helvetica-Bold exch definefont pop
/Helvetica-Oblique findfont
dup length dict begin
  {1 index /FID ne {def} {pop pop} ifelse} forall
  /Encoding WinAnsiEncoding def
  currentdict
end
/Helvetica-Oblique exch definefont pop
/Times-BoldItalic findfont
dup length dict begin
  {1 index /FID ne {def} {pop pop} ifelse} forall
  /Encoding WinAnsiEncoding def
  currentdict
end
/Times-BoldItalic exch definefont pop
/Courier findfont
dup length dict begin
  {1 index /FID ne {def} {pop pop} ifelse} forall
  /Encoding WinAnsiEncoding def
  currentdict
end
/Courier exch definefont pop
/Times-Italic findfont
dup length dict begin
  {1 index /FID ne {def} {pop pop} ifelse} forall
  /Encoding WinAnsiEncoding def
  currentdict
end
/Times-Italic exch definefont pop
/Times-Bold findfont
dup length dict begin
  {1 index /FID ne {def} {pop pop} ifelse} forall
  /Encoding WinAnsiEncoding def
  currentdict
end
/Times-Bold exch definefont pop
%FOPEndFontReencode
%%EndProlog
%%Page: 1 1
%%PageBoundingBox: 0 0 686 358
%%BeginPageSetup
[1 0 0 -1 0 358] CT
%%EndPageSetup
GS
[0.75 0 0 0.75 0 0.25] CT
1 GC
N
0 0 914 477 re
f
GR
GS
[0.75 0 0 0.75 0 0.25] CT
1 GC
N
0 0 914 477 re
f
GR
GS
[0.75 0 0 0.75 0 0.25] CT
1 GC
N
119 198 M
827 198 L
827 36 L
119 36 L
cp
f
GR
GS
[0.75 0 0 0.75 354.75034 25.1875] CT
/Helvetica-Bold 14.667 F
GS
[1 0 0 1 0 0] CT
-126.5 -4 moveto 
1 -1 scale
(Comparison of rotation errors) t 
GR
GR
GS
[0.75 0 0 0.75 0 0.25] CT
0.149 GC
1 LJ
0.667 LW
N
119 198 M
827 198 L
S
GR
GS
[0.75 0 0 0.75 0 0.25] CT
0.929 0.694 0.125 RC
N
135.258 198 M
139.453 198 L
139.453 171.741 L
135.258 171.741 L
cp
f
GR
GS
[0.75 0 0 0.75 0 0.25] CT
0.929 0.694 0.125 RC
N
158.858 198 M
163.053 198 L
163.053 186.949 L
158.858 186.949 L
cp
f
GR
GS
[0.75 0 0 0.75 0 0.25] CT
0.929 0.694 0.125 RC
N
182.458 198 M
186.653 198 L
186.653 184.863 L
182.458 184.863 L
cp
f
GR
GS
[0.75 0 0 0.75 0 0.25] CT
0.929 0.694 0.125 RC
N
206.058 198 M
210.253 198 L
210.253 66.027 L
206.058 66.027 L
cp
f
GR
GS
[0.75 0 0 0.75 0 0.25] CT
0.929 0.694 0.125 RC
N
229.658 198 M
233.853 198 L
233.853 122.047 L
229.658 122.047 L
cp
f
GR
GS
[0.75 0 0 0.75 0 0.25] CT
0.929 0.694 0.125 RC
N
253.258 198 M
257.453 198 L
257.453 135.586 L
253.258 135.586 L
cp
f
GR
GS
[0.75 0 0 0.75 0 0.25] CT
0.929 0.694 0.125 RC
N
276.858 198 M
281.053 198 L
281.053 193.035 L
276.858 193.035 L
cp
f
GR
GS
[0.75 0 0 0.75 0 0.25] CT
0.929 0.694 0.125 RC
N
300.458 198 M
304.653 198 L
304.653 196.912 L
300.458 196.912 L
cp
f
GR
GS
[0.75 0 0 0.75 0 0.25] CT
0.929 0.694 0.125 RC
N
324.058 198 M
328.253 198 L
328.253 179.36 L
324.058 179.36 L
cp
f
GR
GS
[0.75 0 0 0.75 0 0.25] CT
0.929 0.694 0.125 RC
N
347.658 198 M
351.853 198 L
351.853 122.227 L
347.658 122.227 L
cp
f
GR
GS
[0.75 0 0 0.75 0 0.25] CT
0.929 0.694 0.125 RC
N
371.258 198 M
375.453 198 L
375.453 143.854 L
371.258 143.854 L
cp
f
GR
GS
[0.75 0 0 0.75 0 0.25] CT
0.929 0.694 0.125 RC
N
394.858 198 M
399.053 198 L
399.053 173.484 L
394.858 173.484 L
cp
f
GR
GS
[0.75 0 0 0.75 0 0.25] CT
0.929 0.694 0.125 RC
N
418.458 198 M
422.653 198 L
422.653 163.204 L
418.458 163.204 L
cp
f
GR
GS
[0.75 0 0 0.75 0 0.25] CT
0.929 0.694 0.125 RC
N
442.058 198 M
446.253 198 L
446.253 186.448 L
442.058 186.448 L
cp
f
GR
GS
[0.75 0 0 0.75 0 0.25] CT
0.929 0.694 0.125 RC
N
465.658 198 M
469.853 198 L
469.853 191.525 L
465.658 191.525 L
cp
f
GR
GS
[0.75 0 0 0.75 0 0.25] CT
0.929 0.694 0.125 RC
N
489.258 198 M
493.453 198 L
493.453 130.139 L
489.258 130.139 L
cp
f
GR
GS
[0.75 0 0 0.75 0 0.25] CT
0.929 0.694 0.125 RC
N
512.858 198 M
517.053 198 L
517.053 197.965 L
512.858 197.965 L
cp
f
GR
GS
[0.75 0 0 0.75 0 0.25] CT
0.929 0.694 0.125 RC
N
536.458 198 M
540.653 198 L
540.653 119.106 L
536.458 119.106 L
cp
f
GR
GS
[0.75 0 0 0.75 0 0.25] CT
0.929 0.694 0.125 RC
N
560.058 198 M
564.253 198 L
564.253 197.965 L
560.058 197.965 L
cp
f
GR
GS
[0.75 0 0 0.75 0 0.25] CT
0.929 0.694 0.125 RC
N
583.658 198 M
587.853 198 L
587.853 197.654 L
583.658 197.654 L
cp
f
GR
GS
[0.75 0 0 0.75 0 0.25] CT
0.929 0.694 0.125 RC
N
607.258 198 M
611.453 198 L
611.453 138.053 L
607.258 138.053 L
cp
f
GR
GS
[0.75 0 0 0.75 0 0.25] CT
0.929 0.694 0.125 RC
N
630.858 198 M
635.053 198 L
635.053 171.866 L
630.858 171.866 L
cp
f
GR
GS
[0.75 0 0 0.75 0 0.25] CT
0.929 0.694 0.125 RC
N
654.458 198 M
658.653 198 L
658.653 121.439 L
654.458 121.439 L
cp
f
GR
GS
[0.75 0 0 0.75 0 0.25] CT
0.929 0.694 0.125 RC
N
678.058 198 M
682.253 198 L
682.253 130.469 L
678.058 130.469 L
cp
f
GR
GS
[0.75 0 0 0.75 0 0.25] CT
0.929 0.694 0.125 RC
N
701.658 198 M
705.853 198 L
705.853 146.837 L
701.658 146.837 L
cp
f
GR
GS
[0.75 0 0 0.75 0 0.25] CT
0.929 0.694 0.125 RC
N
725.258 198 M
729.453 198 L
729.453 159.362 L
725.258 159.362 L
cp
f
GR
GS
[0.75 0 0 0.75 0 0.25] CT
0.929 0.694 0.125 RC
N
748.858 198 M
753.053 198 L
753.053 180.039 L
748.858 180.039 L
cp
f
GR
GS
[0.75 0 0 0.75 0 0.25] CT
0.929 0.694 0.125 RC
N
772.458 198 M
776.653 198 L
776.653 167.494 L
772.458 167.494 L
cp
f
GR
GS
[0.75 0 0 0.75 0 0.25] CT
0.929 0.694 0.125 RC
N
796.058 198 M
800.253 198 L
800.253 169.394 L
796.058 169.394 L
cp
f
GR
GS
[0.75 0 0 0.75 0 0.25] CT
10.0 ML
0.667 LW
N
135.258 198 M
135.258 171.741 L
139.453 171.741 L
139.453 198 L
cp
S
GR
GS
[0.75 0 0 0.75 0 0.25] CT
10.0 ML
0.667 LW
N
158.858 198 M
158.858 186.949 L
163.053 186.949 L
163.053 198 L
cp
S
GR
GS
[0.75 0 0 0.75 0 0.25] CT
10.0 ML
0.667 LW
N
182.458 198 M
182.458 184.863 L
186.653 184.863 L
186.653 198 L
cp
S
GR
GS
[0.75 0 0 0.75 0 0.25] CT
10.0 ML
0.667 LW
N
206.058 198 M
206.058 66.027 L
210.253 66.027 L
210.253 198 L
cp
S
GR
GS
[0.75 0 0 0.75 0 0.25] CT
10.0 ML
0.667 LW
N
229.658 198 M
229.658 122.047 L
233.853 122.047 L
233.853 198 L
cp
S
GR
GS
[0.75 0 0 0.75 0 0.25] CT
10.0 ML
0.667 LW
N
253.258 198 M
253.258 135.586 L
257.453 135.586 L
257.453 198 L
cp
S
GR
GS
[0.75 0 0 0.75 0 0.25] CT
10.0 ML
0.667 LW
N
276.858 198 M
276.858 193.035 L
281.053 193.035 L
281.053 198 L
cp
S
GR
GS
[0.75 0 0 0.75 0 0.25] CT
10.0 ML
0.667 LW
N
300.458 198 M
300.458 196.912 L
304.653 196.912 L
304.653 198 L
cp
S
GR
GS
[0.75 0 0 0.75 0 0.25] CT
10.0 ML
0.667 LW
N
324.058 198 M
324.058 179.36 L
328.253 179.36 L
328.253 198 L
cp
S
GR
GS
[0.75 0 0 0.75 0 0.25] CT
10.0 ML
0.667 LW
N
347.658 198 M
347.658 122.227 L
351.853 122.227 L
351.853 198 L
cp
S
GR
GS
[0.75 0 0 0.75 0 0.25] CT
10.0 ML
0.667 LW
N
371.258 198 M
371.258 143.854 L
375.453 143.854 L
375.453 198 L
cp
S
GR
GS
[0.75 0 0 0.75 0 0.25] CT
10.0 ML
0.667 LW
N
394.858 198 M
394.858 173.484 L
399.053 173.484 L
399.053 198 L
cp
S
GR
GS
[0.75 0 0 0.75 0 0.25] CT
10.0 ML
0.667 LW
N
418.458 198 M
418.458 163.204 L
422.653 163.204 L
422.653 198 L
cp
S
GR
GS
[0.75 0 0 0.75 0 0.25] CT
10.0 ML
0.667 LW
N
442.058 198 M
442.058 186.448 L
446.253 186.448 L
446.253 198 L
cp
S
GR
GS
[0.75 0 0 0.75 0 0.25] CT
10.0 ML
0.667 LW
N
465.658 198 M
465.658 191.525 L
469.853 191.525 L
469.853 198 L
cp
S
GR
GS
[0.75 0 0 0.75 0 0.25] CT
10.0 ML
0.667 LW
N
489.258 198 M
489.258 130.139 L
493.453 130.139 L
493.453 198 L
cp
S
GR
GS
[0.75 0 0 0.75 0 0.25] CT
10.0 ML
0.667 LW
N
512.858 198 M
512.858 197.965 L
517.053 197.965 L
517.053 198 L
cp
S
GR
GS
[0.75 0 0 0.75 0 0.25] CT
10.0 ML
0.667 LW
N
536.458 198 M
536.458 119.106 L
540.653 119.106 L
540.653 198 L
cp
S
GR
GS
[0.75 0 0 0.75 0 0.25] CT
10.0 ML
0.667 LW
N
560.058 198 M
560.058 197.965 L
564.253 197.965 L
564.253 198 L
cp
S
GR
GS
[0.75 0 0 0.75 0 0.25] CT
10.0 ML
0.667 LW
N
583.658 198 M
583.658 197.654 L
587.853 197.654 L
587.853 198 L
cp
S
GR
GS
[0.75 0 0 0.75 0 0.25] CT
10.0 ML
0.667 LW
N
607.258 198 M
607.258 138.053 L
611.453 138.053 L
611.453 198 L
cp
S
GR
GS
[0.75 0 0 0.75 0 0.25] CT
10.0 ML
0.667 LW
N
630.858 198 M
630.858 171.866 L
635.053 171.866 L
635.053 198 L
cp
S
GR
GS
[0.75 0 0 0.75 0 0.25] CT
10.0 ML
0.667 LW
N
654.458 198 M
654.458 121.439 L
658.653 121.439 L
658.653 198 L
cp
S
GR
GS
[0.75 0 0 0.75 0 0.25] CT
10.0 ML
0.667 LW
N
678.058 198 M
678.058 130.469 L
682.253 130.469 L
682.253 198 L
cp
S
GR
GS
[0.75 0 0 0.75 0 0.25] CT
10.0 ML
0.667 LW
N
701.658 198 M
701.658 146.837 L
705.853 146.837 L
705.853 198 L
cp
S
GR
GS
[0.75 0 0 0.75 0 0.25] CT
10.0 ML
0.667 LW
N
725.258 198 M
725.258 159.362 L
729.453 159.362 L
729.453 198 L
cp
S
GR
GS
[0.75 0 0 0.75 0 0.25] CT
10.0 ML
0.667 LW
N
748.858 198 M
748.858 180.039 L
753.053 180.039 L
753.053 198 L
cp
S
GR
GS
[0.75 0 0 0.75 0 0.25] CT
10.0 ML
0.667 LW
N
772.458 198 M
772.458 167.494 L
776.653 167.494 L
776.653 198 L
cp
S
GR
GS
[0.75 0 0 0.75 0 0.25] CT
10.0 ML
0.667 LW
N
796.058 198 M
796.058 169.394 L
800.253 169.394 L
800.253 198 L
cp
S
GR
GS
[0.75 0 0 0.75 0 0.25] CT
0.302 0.745 0.933 RC
N
140.502 198 M
144.698 198 L
144.698 171.739 L
140.502 171.739 L
cp
f
GR
GS
[0.75 0 0 0.75 0 0.25] CT
0.302 0.745 0.933 RC
N
164.102 198 M
168.298 198 L
168.298 186.945 L
164.102 186.945 L
cp
f
GR
GS
[0.75 0 0 0.75 0 0.25] CT
0.302 0.745 0.933 RC
N
187.702 198 M
191.898 198 L
191.898 184.857 L
187.702 184.857 L
cp
f
GR
GS
[0.75 0 0 0.75 0 0.25] CT
0.302 0.745 0.933 RC
N
211.302 198 M
215.498 198 L
215.498 63.99 L
211.302 63.99 L
cp
f
GR
GS
[0.75 0 0 0.75 0 0.25] CT
0.302 0.745 0.933 RC
N
234.902 198 M
239.098 198 L
239.098 122.057 L
234.902 122.057 L
cp
f
GR
GS
[0.75 0 0 0.75 0 0.25] CT
0.302 0.745 0.933 RC
N
258.502 198 M
262.698 198 L
262.698 137.664 L
258.502 137.664 L
cp
f
GR
GS
[0.75 0 0 0.75 0 0.25] CT
0.302 0.745 0.933 RC
N
282.102 198 M
286.298 198 L
286.298 193.059 L
282.102 193.059 L
cp
f
GR
GS
[0.75 0 0 0.75 0 0.25] CT
0.302 0.745 0.933 RC
N
305.702 198 M
309.898 198 L
309.898 196.692 L
305.702 196.692 L
cp
f
GR
GS
[0.75 0 0 0.75 0 0.25] CT
0.302 0.745 0.933 RC
N
329.302 198 M
333.498 198 L
333.498 180.883 L
329.302 180.883 L
cp
f
GR
GS
[0.75 0 0 0.75 0 0.25] CT
0.302 0.745 0.933 RC
N
352.902 198 M
357.098 198 L
357.098 123.979 L
352.902 123.979 L
cp
f
GR
GS
[0.75 0 0 0.75 0 0.25] CT
0.302 0.745 0.933 RC
N
376.502 198 M
380.698 198 L
380.698 143.832 L
376.502 143.832 L
cp
f
GR
GS
[0.75 0 0 0.75 0 0.25] CT
0.302 0.745 0.933 RC
N
400.102 198 M
404.298 198 L
404.298 173.486 L
400.102 173.486 L
cp
f
GR
GS
[0.75 0 0 0.75 0 0.25] CT
0.302 0.745 0.933 RC
N
423.702 198 M
427.898 198 L
427.898 163.326 L
423.702 163.326 L
cp
f
GR
GS
[0.75 0 0 0.75 0 0.25] CT
0.302 0.745 0.933 RC
N
447.302 198 M
451.498 198 L
451.498 185.941 L
447.302 185.941 L
cp
f
GR
GS
[0.75 0 0 0.75 0 0.25] CT
0.302 0.745 0.933 RC
N
470.902 198 M
475.098 198 L
475.098 191.539 L
470.902 191.539 L
cp
f
GR
GS
[0.75 0 0 0.75 0 0.25] CT
0.302 0.745 0.933 RC
N
494.502 198 M
498.698 198 L
498.698 131.113 L
494.502 131.113 L
cp
f
GR
GS
[0.75 0 0 0.75 0 0.25] CT
0.302 0.745 0.933 RC
N
518.102 198 M
522.298 198 L
522.298 183.353 L
518.102 183.353 L
cp
f
GR
GS
[0.75 0 0 0.75 0 0.25] CT
0.302 0.745 0.933 RC
N
541.702 198 M
545.898 198 L
545.898 118.304 L
541.702 118.304 L
cp
f
GR
GS
[0.75 0 0 0.75 0 0.25] CT
0.302 0.745 0.933 RC
N
565.302 198 M
569.498 198 L
569.498 192.773 L
565.302 192.773 L
cp
f
GR
GS
[0.75 0 0 0.75 0 0.25] CT
0.302 0.745 0.933 RC
N
588.902 198 M
593.098 198 L
593.098 194.171 L
588.902 194.171 L
cp
f
GR
GS
[0.75 0 0 0.75 0 0.25] CT
0.302 0.745 0.933 RC
N
612.502 198 M
616.698 198 L
616.698 138.058 L
612.502 138.058 L
cp
f
GR
GS
[0.75 0 0 0.75 0 0.25] CT
0.302 0.745 0.933 RC
N
636.102 198 M
640.298 198 L
640.298 171.86 L
636.102 171.86 L
cp
f
GR
GS
[0.75 0 0 0.75 0 0.25] CT
0.302 0.745 0.933 RC
N
659.702 198 M
663.898 198 L
663.898 121.444 L
659.702 121.444 L
cp
f
GR
GS
[0.75 0 0 0.75 0 0.25] CT
0.302 0.745 0.933 RC
N
683.302 198 M
687.498 198 L
687.498 130.226 L
683.302 130.226 L
cp
f
GR
GS
[0.75 0 0 0.75 0 0.25] CT
0.302 0.745 0.933 RC
N
706.902 198 M
711.098 198 L
711.098 146.85 L
706.902 146.85 L
cp
f
GR
GS
[0.75 0 0 0.75 0 0.25] CT
0.302 0.745 0.933 RC
N
730.502 198 M
734.698 198 L
734.698 159.362 L
730.502 159.362 L
cp
f
GR
GS
[0.75 0 0 0.75 0 0.25] CT
0.302 0.745 0.933 RC
N
754.102 198 M
758.298 198 L
758.298 180.036 L
754.102 180.036 L
cp
f
GR
GS
[0.75 0 0 0.75 0 0.25] CT
0.302 0.745 0.933 RC
N
777.702 198 M
781.898 198 L
781.898 167.494 L
777.702 167.494 L
cp
f
GR
GS
[0.75 0 0 0.75 0 0.25] CT
0.302 0.745 0.933 RC
N
801.302 198 M
805.498 198 L
805.498 169.4 L
801.302 169.4 L
cp
f
GR
GS
[0.75 0 0 0.75 0 0.25] CT
10.0 ML
0.667 LW
N
140.502 198 M
140.502 171.739 L
144.698 171.739 L
144.698 198 L
cp
S
GR
GS
[0.75 0 0 0.75 0 0.25] CT
10.0 ML
0.667 LW
N
164.102 198 M
164.102 186.945 L
168.298 186.945 L
168.298 198 L
cp
S
GR
GS
[0.75 0 0 0.75 0 0.25] CT
10.0 ML
0.667 LW
N
187.702 198 M
187.702 184.857 L
191.898 184.857 L
191.898 198 L
cp
S
GR
GS
[0.75 0 0 0.75 0 0.25] CT
10.0 ML
0.667 LW
N
211.302 198 M
211.302 63.99 L
215.498 63.99 L
215.498 198 L
cp
S
GR
GS
[0.75 0 0 0.75 0 0.25] CT
10.0 ML
0.667 LW
N
234.902 198 M
234.902 122.057 L
239.098 122.057 L
239.098 198 L
cp
S
GR
GS
[0.75 0 0 0.75 0 0.25] CT
10.0 ML
0.667 LW
N
258.502 198 M
258.502 137.664 L
262.698 137.664 L
262.698 198 L
cp
S
GR
GS
[0.75 0 0 0.75 0 0.25] CT
10.0 ML
0.667 LW
N
282.102 198 M
282.102 193.059 L
286.298 193.059 L
286.298 198 L
cp
S
GR
GS
[0.75 0 0 0.75 0 0.25] CT
10.0 ML
0.667 LW
N
305.702 198 M
305.702 196.692 L
309.898 196.692 L
309.898 198 L
cp
S
GR
GS
[0.75 0 0 0.75 0 0.25] CT
10.0 ML
0.667 LW
N
329.302 198 M
329.302 180.883 L
333.498 180.883 L
333.498 198 L
cp
S
GR
GS
[0.75 0 0 0.75 0 0.25] CT
10.0 ML
0.667 LW
N
352.902 198 M
352.902 123.979 L
357.098 123.979 L
357.098 198 L
cp
S
GR
GS
[0.75 0 0 0.75 0 0.25] CT
10.0 ML
0.667 LW
N
376.502 198 M
376.502 143.832 L
380.698 143.832 L
380.698 198 L
cp
S
GR
GS
[0.75 0 0 0.75 0 0.25] CT
10.0 ML
0.667 LW
N
400.102 198 M
400.102 173.486 L
404.298 173.486 L
404.298 198 L
cp
S
GR
GS
[0.75 0 0 0.75 0 0.25] CT
10.0 ML
0.667 LW
N
423.702 198 M
423.702 163.326 L
427.898 163.326 L
427.898 198 L
cp
S
GR
GS
[0.75 0 0 0.75 0 0.25] CT
10.0 ML
0.667 LW
N
447.302 198 M
447.302 185.941 L
451.498 185.941 L
451.498 198 L
cp
S
GR
GS
[0.75 0 0 0.75 0 0.25] CT
10.0 ML
0.667 LW
N
470.902 198 M
470.902 191.539 L
475.098 191.539 L
475.098 198 L
cp
S
GR
GS
[0.75 0 0 0.75 0 0.25] CT
10.0 ML
0.667 LW
N
494.502 198 M
494.502 131.113 L
498.698 131.113 L
498.698 198 L
cp
S
GR
GS
[0.75 0 0 0.75 0 0.25] CT
10.0 ML
0.667 LW
N
518.102 198 M
518.102 183.353 L
522.298 183.353 L
522.298 198 L
cp
S
GR
GS
[0.75 0 0 0.75 0 0.25] CT
10.0 ML
0.667 LW
N
541.702 198 M
541.702 118.304 L
545.898 118.304 L
545.898 198 L
cp
S
GR
GS
[0.75 0 0 0.75 0 0.25] CT
10.0 ML
0.667 LW
N
565.302 198 M
565.302 192.773 L
569.498 192.773 L
569.498 198 L
cp
S
GR
GS
[0.75 0 0 0.75 0 0.25] CT
10.0 ML
0.667 LW
N
588.902 198 M
588.902 194.171 L
593.098 194.171 L
593.098 198 L
cp
S
GR
GS
[0.75 0 0 0.75 0 0.25] CT
10.0 ML
0.667 LW
N
612.502 198 M
612.502 138.058 L
616.698 138.058 L
616.698 198 L
cp
S
GR
GS
[0.75 0 0 0.75 0 0.25] CT
10.0 ML
0.667 LW
N
636.102 198 M
636.102 171.86 L
640.298 171.86 L
640.298 198 L
cp
S
GR
GS
[0.75 0 0 0.75 0 0.25] CT
10.0 ML
0.667 LW
N
659.702 198 M
659.702 121.444 L
663.898 121.444 L
663.898 198 L
cp
S
GR
GS
[0.75 0 0 0.75 0 0.25] CT
10.0 ML
0.667 LW
N
683.302 198 M
683.302 130.226 L
687.498 130.226 L
687.498 198 L
cp
S
GR
GS
[0.75 0 0 0.75 0 0.25] CT
10.0 ML
0.667 LW
N
706.902 198 M
706.902 146.85 L
711.098 146.85 L
711.098 198 L
cp
S
GR
GS
[0.75 0 0 0.75 0 0.25] CT
10.0 ML
0.667 LW
N
730.502 198 M
730.502 159.362 L
734.698 159.362 L
734.698 198 L
cp
S
GR
GS
[0.75 0 0 0.75 0 0.25] CT
10.0 ML
0.667 LW
N
754.102 198 M
754.102 180.036 L
758.298 180.036 L
758.298 198 L
cp
S
GR
GS
[0.75 0 0 0.75 0 0.25] CT
10.0 ML
0.667 LW
N
777.702 198 M
777.702 167.494 L
781.898 167.494 L
781.898 198 L
cp
S
GR
GS
[0.75 0 0 0.75 0 0.25] CT
10.0 ML
0.667 LW
N
801.302 198 M
801.302 169.4 L
805.498 169.4 L
805.498 198 L
cp
S
GR
GS
[0.75 0 0 0.75 0 0.25] CT
0.635 0.078 0.184 RC
N
145.747 198 M
149.942 198 L
149.942 171.739 L
145.747 171.739 L
cp
f
GR
GS
[0.75 0 0 0.75 0 0.25] CT
0.635 0.078 0.184 RC
N
169.347 198 M
173.542 198 L
173.542 186.945 L
169.347 186.945 L
cp
f
GR
GS
[0.75 0 0 0.75 0 0.25] CT
0.635 0.078 0.184 RC
N
192.947 198 M
197.142 198 L
197.142 184.858 L
192.947 184.858 L
cp
f
GR
GS
[0.75 0 0 0.75 0 0.25] CT
0.635 0.078 0.184 RC
N
216.547 198 M
220.742 198 L
220.742 63.995 L
216.547 63.995 L
cp
f
GR
GS
[0.75 0 0 0.75 0 0.25] CT
0.635 0.078 0.184 RC
N
240.147 198 M
244.342 198 L
244.342 122.058 L
240.147 122.058 L
cp
f
GR
GS
[0.75 0 0 0.75 0 0.25] CT
0.635 0.078 0.184 RC
N
263.747 198 M
267.942 198 L
267.942 137.666 L
263.747 137.666 L
cp
f
GR
GS
[0.75 0 0 0.75 0 0.25] CT
0.635 0.078 0.184 RC
N
287.347 198 M
291.542 198 L
291.542 193.105 L
287.347 193.105 L
cp
f
GR
GS
[0.75 0 0 0.75 0 0.25] CT
0.635 0.078 0.184 RC
N
310.947 198 M
315.142 198 L
315.142 196.855 L
310.947 196.855 L
cp
f
GR
GS
[0.75 0 0 0.75 0 0.25] CT
0.635 0.078 0.184 RC
N
334.547 198 M
338.742 198 L
338.742 180.882 L
334.547 180.882 L
cp
f
GR
GS
[0.75 0 0 0.75 0 0.25] CT
0.635 0.078 0.184 RC
N
358.147 198 M
362.342 198 L
362.342 123.975 L
358.147 123.975 L
cp
f
GR
GS
[0.75 0 0 0.75 0 0.25] CT
0.635 0.078 0.184 RC
N
381.747 198 M
385.942 198 L
385.942 143.832 L
381.747 143.832 L
cp
f
GR
GS
[0.75 0 0 0.75 0 0.25] CT
0.635 0.078 0.184 RC
N
405.347 198 M
409.542 198 L
409.542 173.486 L
405.347 173.486 L
cp
f
GR
GS
[0.75 0 0 0.75 0 0.25] CT
0.635 0.078 0.184 RC
N
428.947 198 M
433.142 198 L
433.142 163.338 L
428.947 163.338 L
cp
f
GR
GS
[0.75 0 0 0.75 0 0.25] CT
0.635 0.078 0.184 RC
N
452.547 198 M
456.742 198 L
456.742 185.952 L
452.547 185.952 L
cp
f
GR
GS
[0.75 0 0 0.75 0 0.25] CT
0.635 0.078 0.184 RC
N
476.147 198 M
480.342 198 L
480.342 191.539 L
476.147 191.539 L
cp
f
GR
GS
[0.75 0 0 0.75 0 0.25] CT
0.635 0.078 0.184 RC
N
499.747 198 M
503.942 198 L
503.942 131.113 L
499.747 131.113 L
cp
f
GR
GS
[0.75 0 0 0.75 0 0.25] CT
0.635 0.078 0.184 RC
N
523.347 198 M
527.542 198 L
527.542 183.374 L
523.347 183.374 L
cp
f
GR
GS
[0.75 0 0 0.75 0 0.25] CT
0.635 0.078 0.184 RC
N
546.947 198 M
551.142 198 L
551.142 118.305 L
546.947 118.305 L
cp
f
GR
GS
[0.75 0 0 0.75 0 0.25] CT
0.635 0.078 0.184 RC
N
570.547 198 M
574.742 198 L
574.742 192.87 L
570.547 192.87 L
cp
f
GR
GS
[0.75 0 0 0.75 0 0.25] CT
0.635 0.078 0.184 RC
N
594.147 198 M
598.342 198 L
598.342 194.192 L
594.147 194.192 L
cp
f
GR
GS
[0.75 0 0 0.75 0 0.25] CT
0.635 0.078 0.184 RC
N
617.747 198 M
621.942 198 L
621.942 138.058 L
617.747 138.058 L
cp
f
GR
GS
[0.75 0 0 0.75 0 0.25] CT
0.635 0.078 0.184 RC
N
641.347 198 M
645.542 198 L
645.542 171.86 L
641.347 171.86 L
cp
f
GR
GS
[0.75 0 0 0.75 0 0.25] CT
0.635 0.078 0.184 RC
N
664.947 198 M
669.142 198 L
669.142 121.445 L
664.947 121.445 L
cp
f
GR
GS
[0.75 0 0 0.75 0 0.25] CT
0.635 0.078 0.184 RC
N
688.547 198 M
692.742 198 L
692.742 130.233 L
688.547 130.233 L
cp
f
GR
GS
[0.75 0 0 0.75 0 0.25] CT
0.635 0.078 0.184 RC
N
712.147 198 M
716.342 198 L
716.342 146.814 L
712.147 146.814 L
cp
f
GR
GS
[0.75 0 0 0.75 0 0.25] CT
0.635 0.078 0.184 RC
N
735.747 198 M
739.942 198 L
739.942 159.364 L
735.747 159.364 L
cp
f
GR
GS
[0.75 0 0 0.75 0 0.25] CT
0.635 0.078 0.184 RC
N
759.347 198 M
763.542 198 L
763.542 180.036 L
759.347 180.036 L
cp
f
GR
GS
[0.75 0 0 0.75 0 0.25] CT
0.635 0.078 0.184 RC
N
782.947 198 M
787.142 198 L
787.142 167.494 L
782.947 167.494 L
cp
f
GR
GS
[0.75 0 0 0.75 0 0.25] CT
0.635 0.078 0.184 RC
N
806.547 198 M
810.742 198 L
810.742 169.4 L
806.547 169.4 L
cp
f
GR
GS
[0.75 0 0 0.75 0 0.25] CT
10.0 ML
0.667 LW
N
145.747 198 M
145.747 171.739 L
149.942 171.739 L
149.942 198 L
cp
S
GR
GS
[0.75 0 0 0.75 0 0.25] CT
10.0 ML
0.667 LW
N
169.347 198 M
169.347 186.945 L
173.542 186.945 L
173.542 198 L
cp
S
GR
GS
[0.75 0 0 0.75 0 0.25] CT
10.0 ML
0.667 LW
N
192.947 198 M
192.947 184.858 L
197.142 184.858 L
197.142 198 L
cp
S
GR
GS
[0.75 0 0 0.75 0 0.25] CT
10.0 ML
0.667 LW
N
216.547 198 M
216.547 63.995 L
220.742 63.995 L
220.742 198 L
cp
S
GR
GS
[0.75 0 0 0.75 0 0.25] CT
10.0 ML
0.667 LW
N
240.147 198 M
240.147 122.058 L
244.342 122.058 L
244.342 198 L
cp
S
GR
GS
[0.75 0 0 0.75 0 0.25] CT
10.0 ML
0.667 LW
N
263.747 198 M
263.747 137.666 L
267.942 137.666 L
267.942 198 L
cp
S
GR
GS
[0.75 0 0 0.75 0 0.25] CT
10.0 ML
0.667 LW
N
287.347 198 M
287.347 193.105 L
291.542 193.105 L
291.542 198 L
cp
S
GR
GS
[0.75 0 0 0.75 0 0.25] CT
10.0 ML
0.667 LW
N
310.947 198 M
310.947 196.855 L
315.142 196.855 L
315.142 198 L
cp
S
GR
GS
[0.75 0 0 0.75 0 0.25] CT
10.0 ML
0.667 LW
N
334.547 198 M
334.547 180.882 L
338.742 180.882 L
338.742 198 L
cp
S
GR
GS
[0.75 0 0 0.75 0 0.25] CT
10.0 ML
0.667 LW
N
358.147 198 M
358.147 123.975 L
362.342 123.975 L
362.342 198 L
cp
S
GR
GS
[0.75 0 0 0.75 0 0.25] CT
10.0 ML
0.667 LW
N
381.747 198 M
381.747 143.832 L
385.942 143.832 L
385.942 198 L
cp
S
GR
GS
[0.75 0 0 0.75 0 0.25] CT
10.0 ML
0.667 LW
N
405.347 198 M
405.347 173.486 L
409.542 173.486 L
409.542 198 L
cp
S
GR
GS
[0.75 0 0 0.75 0 0.25] CT
10.0 ML
0.667 LW
N
428.947 198 M
428.947 163.338 L
433.142 163.338 L
433.142 198 L
cp
S
GR
GS
[0.75 0 0 0.75 0 0.25] CT
10.0 ML
0.667 LW
N
452.547 198 M
452.547 185.952 L
456.742 185.952 L
456.742 198 L
cp
S
GR
GS
[0.75 0 0 0.75 0 0.25] CT
10.0 ML
0.667 LW
N
476.147 198 M
476.147 191.539 L
480.342 191.539 L
480.342 198 L
cp
S
GR
GS
[0.75 0 0 0.75 0 0.25] CT
10.0 ML
0.667 LW
N
499.747 198 M
499.747 131.113 L
503.942 131.113 L
503.942 198 L
cp
S
GR
GS
[0.75 0 0 0.75 0 0.25] CT
10.0 ML
0.667 LW
N
523.347 198 M
523.347 183.374 L
527.542 183.374 L
527.542 198 L
cp
S
GR
GS
[0.75 0 0 0.75 0 0.25] CT
10.0 ML
0.667 LW
N
546.947 198 M
546.947 118.305 L
551.142 118.305 L
551.142 198 L
cp
S
GR
GS
[0.75 0 0 0.75 0 0.25] CT
10.0 ML
0.667 LW
N
570.547 198 M
570.547 192.87 L
574.742 192.87 L
574.742 198 L
cp
S
GR
GS
[0.75 0 0 0.75 0 0.25] CT
10.0 ML
0.667 LW
N
594.147 198 M
594.147 194.192 L
598.342 194.192 L
598.342 198 L
cp
S
GR
GS
[0.75 0 0 0.75 0 0.25] CT
10.0 ML
0.667 LW
N
617.747 198 M
617.747 138.058 L
621.942 138.058 L
621.942 198 L
cp
S
GR
GS
[0.75 0 0 0.75 0 0.25] CT
10.0 ML
0.667 LW
N
641.347 198 M
641.347 171.86 L
645.542 171.86 L
645.542 198 L
cp
S
GR
GS
[0.75 0 0 0.75 0 0.25] CT
10.0 ML
0.667 LW
N
664.947 198 M
664.947 121.445 L
669.142 121.445 L
669.142 198 L
cp
S
GR
GS
[0.75 0 0 0.75 0 0.25] CT
10.0 ML
0.667 LW
N
688.547 198 M
688.547 130.233 L
692.742 130.233 L
692.742 198 L
cp
S
GR
GS
[0.75 0 0 0.75 0 0.25] CT
10.0 ML
0.667 LW
N
712.147 198 M
712.147 146.814 L
716.342 146.814 L
716.342 198 L
cp
S
GR
GS
[0.75 0 0 0.75 0 0.25] CT
10.0 ML
0.667 LW
N
735.747 198 M
735.747 159.364 L
739.942 159.364 L
739.942 198 L
cp
S
GR
GS
[0.75 0 0 0.75 0 0.25] CT
10.0 ML
0.667 LW
N
759.347 198 M
759.347 180.036 L
763.542 180.036 L
763.542 198 L
cp
S
GR
GS
[0.75 0 0 0.75 0 0.25] CT
10.0 ML
0.667 LW
N
782.947 198 M
782.947 167.494 L
787.142 167.494 L
787.142 198 L
cp
S
GR
GS
[0.75 0 0 0.75 0 0.25] CT
10.0 ML
0.667 LW
N
806.547 198 M
806.547 169.4 L
810.742 169.4 L
810.742 198 L
cp
S
GR
GS
[0.75 0 0 0.75 0 0.25] CT
0.149 GC
2 setlinecap
1 LJ
0.667 LW
N
119 198 M
827 198 L
S
GR
GS
[0.75 0 0 0.75 0 0.25] CT
0.149 GC
2 setlinecap
1 LJ
0.667 LW
N
119 36 M
827 36 L
S
GR
GS
[0.75 0 0 0.75 0 0.25] CT
0.149 GC
2 setlinecap
1 LJ
0.667 LW
N
142.6 198 M
142.6 190.92 L
S
GR
GS
[0.75 0 0 0.75 0 0.25] CT
0.149 GC
2 setlinecap
1 LJ
0.667 LW
N
166.2 198 M
166.2 190.92 L
S
GR
GS
[0.75 0 0 0.75 0 0.25] CT
0.149 GC
2 setlinecap
1 LJ
0.667 LW
N
189.8 198 M
189.8 190.92 L
S
GR
GS
[0.75 0 0 0.75 0 0.25] CT
0.149 GC
2 setlinecap
1 LJ
0.667 LW
N
213.4 198 M
213.4 190.92 L
S
GR
GS
[0.75 0 0 0.75 0 0.25] CT
0.149 GC
2 setlinecap
1 LJ
0.667 LW
N
237 198 M
237 190.92 L
S
GR
GS
[0.75 0 0 0.75 0 0.25] CT
0.149 GC
2 setlinecap
1 LJ
0.667 LW
N
260.6 198 M
260.6 190.92 L
S
GR
GS
[0.75 0 0 0.75 0 0.25] CT
0.149 GC
2 setlinecap
1 LJ
0.667 LW
N
284.2 198 M
284.2 190.92 L
S
GR
GS
[0.75 0 0 0.75 0 0.25] CT
0.149 GC
2 setlinecap
1 LJ
0.667 LW
N
307.8 198 M
307.8 190.92 L
S
GR
GS
[0.75 0 0 0.75 0 0.25] CT
0.149 GC
2 setlinecap
1 LJ
0.667 LW
N
331.4 198 M
331.4 190.92 L
S
GR
GS
[0.75 0 0 0.75 0 0.25] CT
0.149 GC
2 setlinecap
1 LJ
0.667 LW
N
355 198 M
355 190.92 L
S
GR
GS
[0.75 0 0 0.75 0 0.25] CT
0.149 GC
2 setlinecap
1 LJ
0.667 LW
N
378.6 198 M
378.6 190.92 L
S
GR
GS
[0.75 0 0 0.75 0 0.25] CT
0.149 GC
2 setlinecap
1 LJ
0.667 LW
N
402.2 198 M
402.2 190.92 L
S
GR
GS
[0.75 0 0 0.75 0 0.25] CT
0.149 GC
2 setlinecap
1 LJ
0.667 LW
N
425.8 198 M
425.8 190.92 L
S
GR
GS
[0.75 0 0 0.75 0 0.25] CT
0.149 GC
2 setlinecap
1 LJ
0.667 LW
N
449.4 198 M
449.4 190.92 L
S
GR
GS
[0.75 0 0 0.75 0 0.25] CT
0.149 GC
2 setlinecap
1 LJ
0.667 LW
N
473 198 M
473 190.92 L
S
GR
GS
[0.75 0 0 0.75 0 0.25] CT
0.149 GC
2 setlinecap
1 LJ
0.667 LW
N
496.6 198 M
496.6 190.92 L
S
GR
GS
[0.75 0 0 0.75 0 0.25] CT
0.149 GC
2 setlinecap
1 LJ
0.667 LW
N
520.2 198 M
520.2 190.92 L
S
GR
GS
[0.75 0 0 0.75 0 0.25] CT
0.149 GC
2 setlinecap
1 LJ
0.667 LW
N
543.8 198 M
543.8 190.92 L
S
GR
GS
[0.75 0 0 0.75 0 0.25] CT
0.149 GC
2 setlinecap
1 LJ
0.667 LW
N
567.4 198 M
567.4 190.92 L
S
GR
GS
[0.75 0 0 0.75 0 0.25] CT
0.149 GC
2 setlinecap
1 LJ
0.667 LW
N
591 198 M
591 190.92 L
S
GR
GS
[0.75 0 0 0.75 0 0.25] CT
0.149 GC
2 setlinecap
1 LJ
0.667 LW
N
614.6 198 M
614.6 190.92 L
S
GR
GS
[0.75 0 0 0.75 0 0.25] CT
0.149 GC
2 setlinecap
1 LJ
0.667 LW
N
638.2 198 M
638.2 190.92 L
S
GR
GS
[0.75 0 0 0.75 0 0.25] CT
0.149 GC
2 setlinecap
1 LJ
0.667 LW
N
661.8 198 M
661.8 190.92 L
S
GR
GS
[0.75 0 0 0.75 0 0.25] CT
0.149 GC
2 setlinecap
1 LJ
0.667 LW
N
685.4 198 M
685.4 190.92 L
S
GR
GS
[0.75 0 0 0.75 0 0.25] CT
0.149 GC
2 setlinecap
1 LJ
0.667 LW
N
709 198 M
709 190.92 L
S
GR
GS
[0.75 0 0 0.75 0 0.25] CT
0.149 GC
2 setlinecap
1 LJ
0.667 LW
N
732.6 198 M
732.6 190.92 L
S
GR
GS
[0.75 0 0 0.75 0 0.25] CT
0.149 GC
2 setlinecap
1 LJ
0.667 LW
N
756.2 198 M
756.2 190.92 L
S
GR
GS
[0.75 0 0 0.75 0 0.25] CT
0.149 GC
2 setlinecap
1 LJ
0.667 LW
N
779.8 198 M
779.8 190.92 L
S
GR
GS
[0.75 0 0 0.75 0 0.25] CT
0.149 GC
2 setlinecap
1 LJ
0.667 LW
N
803.4 198 M
803.4 190.92 L
S
GR
GS
[0.75 0 0 0.75 0 0.25] CT
0.149 GC
2 setlinecap
1 LJ
0.667 LW
N
142.6 36 M
142.6 43.08 L
S
GR
GS
[0.75 0 0 0.75 0 0.25] CT
0.149 GC
2 setlinecap
1 LJ
0.667 LW
N
166.2 36 M
166.2 43.08 L
S
GR
GS
[0.75 0 0 0.75 0 0.25] CT
0.149 GC
2 setlinecap
1 LJ
0.667 LW
N
189.8 36 M
189.8 43.08 L
S
GR
GS
[0.75 0 0 0.75 0 0.25] CT
0.149 GC
2 setlinecap
1 LJ
0.667 LW
N
213.4 36 M
213.4 43.08 L
S
GR
GS
[0.75 0 0 0.75 0 0.25] CT
0.149 GC
2 setlinecap
1 LJ
0.667 LW
N
237 36 M
237 43.08 L
S
GR
GS
[0.75 0 0 0.75 0 0.25] CT
0.149 GC
2 setlinecap
1 LJ
0.667 LW
N
260.6 36 M
260.6 43.08 L
S
GR
GS
[0.75 0 0 0.75 0 0.25] CT
0.149 GC
2 setlinecap
1 LJ
0.667 LW
N
284.2 36 M
284.2 43.08 L
S
GR
GS
[0.75 0 0 0.75 0 0.25] CT
0.149 GC
2 setlinecap
1 LJ
0.667 LW
N
307.8 36 M
307.8 43.08 L
S
GR
GS
[0.75 0 0 0.75 0 0.25] CT
0.149 GC
2 setlinecap
1 LJ
0.667 LW
N
331.4 36 M
331.4 43.08 L
S
GR
GS
[0.75 0 0 0.75 0 0.25] CT
0.149 GC
2 setlinecap
1 LJ
0.667 LW
N
355 36 M
355 43.08 L
S
GR
GS
[0.75 0 0 0.75 0 0.25] CT
0.149 GC
2 setlinecap
1 LJ
0.667 LW
N
378.6 36 M
378.6 43.08 L
S
GR
GS
[0.75 0 0 0.75 0 0.25] CT
0.149 GC
2 setlinecap
1 LJ
0.667 LW
N
402.2 36 M
402.2 43.08 L
S
GR
GS
[0.75 0 0 0.75 0 0.25] CT
0.149 GC
2 setlinecap
1 LJ
0.667 LW
N
425.8 36 M
425.8 43.08 L
S
GR
GS
[0.75 0 0 0.75 0 0.25] CT
0.149 GC
2 setlinecap
1 LJ
0.667 LW
N
449.4 36 M
449.4 43.08 L
S
GR
GS
[0.75 0 0 0.75 0 0.25] CT
0.149 GC
2 setlinecap
1 LJ
0.667 LW
N
473 36 M
473 43.08 L
S
GR
GS
[0.75 0 0 0.75 0 0.25] CT
0.149 GC
2 setlinecap
1 LJ
0.667 LW
N
496.6 36 M
496.6 43.08 L
S
GR
GS
[0.75 0 0 0.75 0 0.25] CT
0.149 GC
2 setlinecap
1 LJ
0.667 LW
N
520.2 36 M
520.2 43.08 L
S
GR
GS
[0.75 0 0 0.75 0 0.25] CT
0.149 GC
2 setlinecap
1 LJ
0.667 LW
N
543.8 36 M
543.8 43.08 L
S
GR
GS
[0.75 0 0 0.75 0 0.25] CT
0.149 GC
2 setlinecap
1 LJ
0.667 LW
N
567.4 36 M
567.4 43.08 L
S
GR
GS
[0.75 0 0 0.75 0 0.25] CT
0.149 GC
2 setlinecap
1 LJ
0.667 LW
N
591 36 M
591 43.08 L
S
GR
GS
[0.75 0 0 0.75 0 0.25] CT
0.149 GC
2 setlinecap
1 LJ
0.667 LW
N
614.6 36 M
614.6 43.08 L
S
GR
GS
[0.75 0 0 0.75 0 0.25] CT
0.149 GC
2 setlinecap
1 LJ
0.667 LW
N
638.2 36 M
638.2 43.08 L
S
GR
GS
[0.75 0 0 0.75 0 0.25] CT
0.149 GC
2 setlinecap
1 LJ
0.667 LW
N
661.8 36 M
661.8 43.08 L
S
GR
GS
[0.75 0 0 0.75 0 0.25] CT
0.149 GC
2 setlinecap
1 LJ
0.667 LW
N
685.4 36 M
685.4 43.08 L
S
GR
GS
[0.75 0 0 0.75 0 0.25] CT
0.149 GC
2 setlinecap
1 LJ
0.667 LW
N
709 36 M
709 43.08 L
S
GR
GS
[0.75 0 0 0.75 0 0.25] CT
0.149 GC
2 setlinecap
1 LJ
0.667 LW
N
732.6 36 M
732.6 43.08 L
S
GR
GS
[0.75 0 0 0.75 0 0.25] CT
0.149 GC
2 setlinecap
1 LJ
0.667 LW
N
756.2 36 M
756.2 43.08 L
S
GR
GS
[0.75 0 0 0.75 0 0.25] CT
0.149 GC
2 setlinecap
1 LJ
0.667 LW
N
779.8 36 M
779.8 43.08 L
S
GR
GS
[0.75 0 0 0.75 0 0.25] CT
0.149 GC
2 setlinecap
1 LJ
0.667 LW
N
803.4 36 M
803.4 43.08 L
S
GR
GS
[0.75 0 0 0.75 106.95 152.75] CT
0.149 GC
/Helvetica 13.333 F
GS
[1 0 0 1 0 0] CT
-4.5 13 moveto 
1 -1 scale
(1) t 
GR
GR
GS
[0.75 0 0 0.75 124.65 152.75] CT
0.149 GC
/Helvetica 13.333 F
GS
[1 0 0 1 0 0] CT
-4.5 13 moveto 
1 -1 scale
(2) t 
GR
GR
GS
[0.75 0 0 0.75 142.35 152.75] CT
0.149 GC
/Helvetica 13.333 F
GS
[1 0 0 1 0 0] CT
-4.5 13 moveto 
1 -1 scale
(3) t 
GR
GR
GS
[0.75 0 0 0.75 160.05 152.75] CT
0.149 GC
/Helvetica 13.333 F
GS
[1 0 0 1 0 0] CT
-4.5 13 moveto 
1 -1 scale
(4) t 
GR
GR
GS
[0.75 0 0 0.75 177.75 152.75] CT
0.149 GC
/Helvetica 13.333 F
GS
[1 0 0 1 0 0] CT
-4.5 13 moveto 
1 -1 scale
(5) t 
GR
GR
GS
[0.75 0 0 0.75 195.45 152.75] CT
0.149 GC
/Helvetica 13.333 F
GS
[1 0 0 1 0 0] CT
-4.5 13 moveto 
1 -1 scale
(6) t 
GR
GR
GS
[0.75 0 0 0.75 213.15001 152.75] CT
0.149 GC
/Helvetica 13.333 F
GS
[1 0 0 1 0 0] CT
-4.5 13 moveto 
1 -1 scale
(7) t 
GR
GR
GS
[0.75 0 0 0.75 230.84999 152.75] CT
0.149 GC
/Helvetica 13.333 F
GS
[1 0 0 1 0 0] CT
-4.5 13 moveto 
1 -1 scale
(8) t 
GR
GR
GS
[0.75 0 0 0.75 248.55 152.75] CT
0.149 GC
/Helvetica 13.333 F
GS
[1 0 0 1 0 0] CT
-4.5 13 moveto 
1 -1 scale
(9) t 
GR
GR
GS
[0.75 0 0 0.75 266.25 152.75] CT
0.149 GC
/Helvetica 13.333 F
GS
[1 0 0 1 0 0] CT
-8.5 13 moveto 
1 -1 scale
(10) t 
GR
GR
GS
[0.75 0 0 0.75 283.95 152.75] CT
0.149 GC
/Helvetica 13.333 F
GS
[1 0 0 1 0 0] CT
-8.5 13 moveto 
1 -1 scale
(11) t 
GR
GR
GS
[0.75 0 0 0.75 301.65001 152.75] CT
0.149 GC
/Helvetica 13.333 F
GS
[1 0 0 1 0 0] CT
-8.5 13 moveto 
1 -1 scale
(12) t 
GR
GR
GS
[0.75 0 0 0.75 319.34999 152.75] CT
0.149 GC
/Helvetica 13.333 F
GS
[1 0 0 1 0 0] CT
-8.5 13 moveto 
1 -1 scale
(13) t 
GR
GR
GS
[0.75 0 0 0.75 337.05 152.75] CT
0.149 GC
/Helvetica 13.333 F
GS
[1 0 0 1 0 0] CT
-8.5 13 moveto 
1 -1 scale
(14) t 
GR
GR
GS
[0.75 0 0 0.75 354.75 152.75] CT
0.149 GC
/Helvetica 13.333 F
GS
[1 0 0 1 0 0] CT
-8.5 13 moveto 
1 -1 scale
(15) t 
GR
GR
GS
[0.75 0 0 0.75 372.45 152.75] CT
0.149 GC
/Helvetica 13.333 F
GS
[1 0 0 1 0 0] CT
-8.5 13 moveto 
1 -1 scale
(16) t 
GR
GR
GS
[0.75 0 0 0.75 390.15001 152.75] CT
0.149 GC
/Helvetica 13.333 F
GS
[1 0 0 1 0 0] CT
-8.5 13 moveto 
1 -1 scale
(17) t 
GR
GR
GS
[0.75 0 0 0.75 407.84999 152.75] CT
0.149 GC
/Helvetica 13.333 F
GS
[1 0 0 1 0 0] CT
-8.5 13 moveto 
1 -1 scale
(18) t 
GR
GR
GS
[0.75 0 0 0.75 425.55002 152.75] CT
0.149 GC
/Helvetica 13.333 F
GS
[1 0 0 1 0 0] CT
-8.5 13 moveto 
1 -1 scale
(19) t 
GR
GR
GS
[0.75 0 0 0.75 443.25 152.75] CT
0.149 GC
/Helvetica 13.333 F
GS
[1 0 0 1 0 0] CT
-8.5 13 moveto 
1 -1 scale
(20) t 
GR
GR
GS
[0.75 0 0 0.75 460.94998 152.75] CT
0.149 GC
/Helvetica 13.333 F
GS
[1 0 0 1 0 0] CT
-8.5 13 moveto 
1 -1 scale
(21) t 
GR
GR
GS
[0.75 0 0 0.75 478.65001 152.75] CT
0.149 GC
/Helvetica 13.333 F
GS
[1 0 0 1 0 0] CT
-8.5 13 moveto 
1 -1 scale
(22) t 
GR
GR
GS
[0.75 0 0 0.75 496.34999 152.75] CT
0.149 GC
/Helvetica 13.333 F
GS
[1 0 0 1 0 0] CT
-8.5 13 moveto 
1 -1 scale
(23) t 
GR
GR
GS
[0.75 0 0 0.75 514.05002 152.75] CT
0.149 GC
/Helvetica 13.333 F
GS
[1 0 0 1 0 0] CT
-8.5 13 moveto 
1 -1 scale
(24) t 
GR
GR
GS
[0.75 0 0 0.75 531.75 152.75] CT
0.149 GC
/Helvetica 13.333 F
GS
[1 0 0 1 0 0] CT
-8.5 13 moveto 
1 -1 scale
(25) t 
GR
GR
GS
[0.75 0 0 0.75 549.44998 152.75] CT
0.149 GC
/Helvetica 13.333 F
GS
[1 0 0 1 0 0] CT
-8.5 13 moveto 
1 -1 scale
(27) t 
GR
GR
GS
[0.75 0 0 0.75 567.15001 152.75] CT
0.149 GC
/Helvetica 13.333 F
GS
[1 0 0 1 0 0] CT
-8.5 13 moveto 
1 -1 scale
(28) t 
GR
GR
GS
[0.75 0 0 0.75 584.84999 152.75] CT
0.149 GC
/Helvetica 13.333 F
GS
[1 0 0 1 0 0] CT
-8.5 13 moveto 
1 -1 scale
(29) t 
GR
GR
GS
[0.75 0 0 0.75 602.55002 152.75] CT
0.149 GC
/Helvetica 13.333 F
GS
[1 0 0 1 0 0] CT
-8.5 13 moveto 
1 -1 scale
(30) t 
GR
GR
GS
[0.75 0 0 0.75 354.75025 166.5] CT
0.149 GC
/Helvetica 14.667 F
GS
[1 0 0 1 0 0] CT
-45.5 14 moveto 
1 -1 scale
(Point clouds) t 
GR
GR
GS
[0.75 0 0 0.75 0 0.25] CT
0.149 GC
2 setlinecap
1 LJ
0.667 LW
N
119 198 M
119 36 L
S
GR
GS
[0.75 0 0 0.75 0 0.25] CT
0.149 GC
2 setlinecap
1 LJ
0.667 LW
N
827 198 M
827 36 L
S
GR
GS
[0.75 0 0 0.75 0 0.25] CT
0.149 GC
2 setlinecap
1 LJ
0.667 LW
N
119 198 M
126.08 198 L
S
GR
GS
[0.75 0 0 0.75 0 0.25] CT
0.149 GC
2 setlinecap
1 LJ
0.667 LW
N
119 157.5 M
126.08 157.5 L
S
GR
GS
[0.75 0 0 0.75 0 0.25] CT
0.149 GC
2 setlinecap
1 LJ
0.667 LW
N
119 117 M
126.08 117 L
S
GR
GS
[0.75 0 0 0.75 0 0.25] CT
0.149 GC
2 setlinecap
1 LJ
0.667 LW
N
119 76.5 M
126.08 76.5 L
S
GR
GS
[0.75 0 0 0.75 0 0.25] CT
0.149 GC
2 setlinecap
1 LJ
0.667 LW
N
119 36 M
126.08 36 L
S
GR
GS
[0.75 0 0 0.75 0 0.25] CT
0.149 GC
2 setlinecap
1 LJ
0.667 LW
N
827 198 M
819.92 198 L
S
GR
GS
[0.75 0 0 0.75 0 0.25] CT
0.149 GC
2 setlinecap
1 LJ
0.667 LW
N
827 157.5 M
819.92 157.5 L
S
GR
GS
[0.75 0 0 0.75 0 0.25] CT
0.149 GC
2 setlinecap
1 LJ
0.667 LW
N
827 117 M
819.92 117 L
S
GR
GS
[0.75 0 0 0.75 0 0.25] CT
0.149 GC
2 setlinecap
1 LJ
0.667 LW
N
827 76.5 M
819.92 76.5 L
S
GR
GS
[0.75 0 0 0.75 0 0.25] CT
0.149 GC
2 setlinecap
1 LJ
0.667 LW
N
827 36 M
819.92 36 L
S
GR
GS
[0.75 0 0 0.75 85.25 148.75] CT
0.149 GC
/Helvetica 13.333 F
GS
[1 0 0 1 0 0] CT
-9 4.5 moveto 
1 -1 scale
(0) t 
GR
GR
GS
[0.75 0 0 0.75 85.25 118.375] CT
0.149 GC
/Helvetica 13.333 F
GS
[1 0 0 1 0 0] CT
-29 4.5 moveto 
1 -1 scale
(0.05) t 
GR
GR
GS
[0.75 0 0 0.75 85.25 88] CT
0.149 GC
/Helvetica 13.333 F
GS
[1 0 0 1 0 0] CT
-21 4.5 moveto 
1 -1 scale
(0.1) t 
GR
GR
GS
[0.75 0 0 0.75 85.25 57.62499] CT
0.149 GC
/Helvetica 13.333 F
GS
[1 0 0 1 0 0] CT
-29 4.5 moveto 
1 -1 scale
(0.15) t 
GR
GR
GS
[0.75 0 0 0.75 85.25 27.25] CT
0.149 GC
/Helvetica 13.333 F
GS
[1 0 0 1 0 0] CT
-21 4.5 moveto 
1 -1 scale
(0.2) t 
GR
GR
GS
[0 -0.75 0.75 0 53.25 98.5] CT
0.149 GC
/Helvetica 14.667 F
GS
[1 0 0 1 0 0] CT
0 0 moveto 
1 -1 scale
(err) t 
GR
GR
GS
[0 -0.75 0.75 0 58.5 82] CT
0.149 GC
/Helvetica 11.733 F
GS
[1 0 0 1 0 0] CT
0 0 moveto 
1 -1 scale
(r) t 
GR
GR
GS
[0.75 0 0 0.75 0 0.25] CT
1 GC
N
718 99 M
718 49 L
814 49 L
814 99 L
cp
f
GR
GS
[0.75 0 0 0.75 573.75 44.125] CT
/Helvetica 12 F
GS
[1 0 0 1 0 0] CT
0 4.5 moveto 
1 -1 scale
(original) t 
GR
GR
GS
[0.75 0 0 0.75 0 0.25] CT
0.929 0.694 0.125 RC
N
722 64.25 M
722 52.75 L
762 52.75 L
762 64.25 L
cp
f
GR
GS
[0.75 0 0 0.75 0 0.25] CT
10.0 ML
0.667 LW
N
722 64.25 M
722 52.75 L
762 52.75 L
762 64.25 L
cp
S
GR
GS
[0.75 0 0 0.75 573.75 55.75] CT
/Helvetica 12 F
GS
[1 0 0 1 0 0] CT
0 4.5 moveto 
1 -1 scale
(v2) t 
GR
GR
GS
[0.75 0 0 0.75 0 0.25] CT
0.302 0.745 0.933 RC
N
722 79.75 M
722 68.25 L
762 68.25 L
762 79.75 L
cp
f
GR
GS
[0.75 0 0 0.75 0 0.25] CT
10.0 ML
0.667 LW
N
722 79.75 M
722 68.25 L
762 68.25 L
762 79.75 L
cp
S
GR
GS
[0.75 0 0 0.75 573.75 67.375] CT
/Helvetica 12 F
GS
[1 0 0 1 0 0] CT
0 4.5 moveto 
1 -1 scale
(v2.1) t 
GR
GR
GS
[0.75 0 0 0.75 0 0.25] CT
0.635 0.078 0.184 RC
N
722 95.25 M
722 83.75 L
762 83.75 L
762 95.25 L
cp
f
GR
GS
[0.75 0 0 0.75 0 0.25] CT
10.0 ML
0.667 LW
N
722 95.25 M
722 83.75 L
762 83.75 L
762 95.25 L
cp
S
GR
GS
[0.75 0 0 0.75 0 0.25] CT
0.149 GC
10.0 ML
0.667 LW
N
718 99 M
718 49 L
814 49 L
814 99 L
cp
S
GR
GS
[0.75 0 0 0.75 0 0.25] CT
1 GC
N
119 424 M
827 424 L
827 262 L
119 262 L
cp
f
GR
GS
[0.75 0 0 0.75 0 0.25] CT
0.149 GC
1 LJ
0.667 LW
N
119 294.4 M
827 294.4 L
S
GR
GS
[0.75 0 0 0.75 0 0.25] CT
0.302 0.745 0.933 RC
N
136.531 294.4 M
141.926 294.4 L
141.926 294.416 L
136.531 294.416 L
cp
f
GR
GS
[0.75 0 0 0.75 0 0.25] CT
0.302 0.745 0.933 RC
N
160.131 294.4 M
165.526 294.4 L
165.526 294.433 L
160.131 294.433 L
cp
f
GR
GS
[0.75 0 0 0.75 0 0.25] CT
0.302 0.745 0.933 RC
N
183.731 294.4 M
189.126 294.4 L
189.126 294.451 L
183.731 294.451 L
cp
f
GR
GS
[0.75 0 0 0.75 0 0.25] CT
0.302 0.745 0.933 RC
N
207.331 294.4 M
212.726 294.4 L
212.726 310.7 L
207.331 310.7 L
cp
f
GR
GS
[0.75 0 0 0.75 0 0.25] CT
0.302 0.745 0.933 RC
N
230.931 294.4 M
236.326 294.4 L
236.326 294.316 L
230.931 294.316 L
cp
f
GR
GS
[0.75 0 0 0.75 0 0.25] CT
0.302 0.745 0.933 RC
N
254.531 294.4 M
259.926 294.4 L
259.926 277.778 L
254.531 277.778 L
cp
f
GR
GS
[0.75 0 0 0.75 0 0.25] CT
0.302 0.745 0.933 RC
N
278.131 294.4 M
283.526 294.4 L
283.526 294.212 L
278.131 294.212 L
cp
f
GR
GS
[0.75 0 0 0.75 0 0.25] CT
0.302 0.745 0.933 RC
N
301.731 294.4 M
307.126 294.4 L
307.126 296.156 L
301.731 296.156 L
cp
f
GR
GS
[0.75 0 0 0.75 0 0.25] CT
0.302 0.745 0.933 RC
N
325.331 294.4 M
330.726 294.4 L
330.726 282.218 L
325.331 282.218 L
cp
f
GR
GS
[0.75 0 0 0.75 0 0.25] CT
0.302 0.745 0.933 RC
N
348.931 294.4 M
354.326 294.4 L
354.326 280.382 L
348.931 280.382 L
cp
f
GR
GS
[0.75 0 0 0.75 0 0.25] CT
0.302 0.745 0.933 RC
N
372.531 294.4 M
377.926 294.4 L
377.926 294.577 L
372.531 294.577 L
cp
f
GR
GS
[0.75 0 0 0.75 0 0.25] CT
0.302 0.745 0.933 RC
N
396.131 294.4 M
401.526 294.4 L
401.526 294.382 L
396.131 294.382 L
cp
f
GR
GS
[0.75 0 0 0.75 0 0.25] CT
0.302 0.745 0.933 RC
N
419.731 294.4 M
425.126 294.4 L
425.126 293.428 L
419.731 293.428 L
cp
f
GR
GS
[0.75 0 0 0.75 0 0.25] CT
0.302 0.745 0.933 RC
N
443.331 294.4 M
448.726 294.4 L
448.726 298.457 L
443.331 298.457 L
cp
f
GR
GS
[0.75 0 0 0.75 0 0.25] CT
0.302 0.745 0.933 RC
N
466.931 294.4 M
472.326 294.4 L
472.326 294.282 L
466.931 294.282 L
cp
f
GR
GS
[0.75 0 0 0.75 0 0.25] CT
0.302 0.745 0.933 RC
N
490.531 294.4 M
495.926 294.4 L
495.926 286.608 L
490.531 286.608 L
cp
f
GR
GS
[0.75 0 0 0.75 0 0.25] CT
0.302 0.745 0.933 RC
N
514.131 294.4 M
519.526 294.4 L
519.526 411.301 L
514.131 411.301 L
cp
f
GR
GS
[0.75 0 0 0.75 0 0.25] CT
0.302 0.745 0.933 RC
N
537.731 294.4 M
543.126 294.4 L
543.126 300.819 L
537.731 300.819 L
cp
f
GR
GS
[0.75 0 0 0.75 0 0.25] CT
0.302 0.745 0.933 RC
N
561.331 294.4 M
566.726 294.4 L
566.726 335.933 L
561.331 335.933 L
cp
f
GR
GS
[0.75 0 0 0.75 0 0.25] CT
0.302 0.745 0.933 RC
N
584.931 294.4 M
590.326 294.4 L
590.326 322.265 L
584.931 322.265 L
cp
f
GR
GS
[0.75 0 0 0.75 0 0.25] CT
0.302 0.745 0.933 RC
N
608.531 294.4 M
613.926 294.4 L
613.926 294.363 L
608.531 294.363 L
cp
f
GR
GS
[0.75 0 0 0.75 0 0.25] CT
0.302 0.745 0.933 RC
N
632.131 294.4 M
637.526 294.4 L
637.526 294.447 L
632.131 294.447 L
cp
f
GR
GS
[0.75 0 0 0.75 0 0.25] CT
0.302 0.745 0.933 RC
N
655.731 294.4 M
661.126 294.4 L
661.126 294.359 L
655.731 294.359 L
cp
f
GR
GS
[0.75 0 0 0.75 0 0.25] CT
0.302 0.745 0.933 RC
N
679.331 294.4 M
684.726 294.4 L
684.726 296.341 L
679.331 296.341 L
cp
f
GR
GS
[0.75 0 0 0.75 0 0.25] CT
0.302 0.745 0.933 RC
N
702.931 294.4 M
708.326 294.4 L
708.326 294.298 L
702.931 294.298 L
cp
f
GR
GS
[0.75 0 0 0.75 0 0.25] CT
0.302 0.745 0.933 RC
N
726.531 294.4 M
731.926 294.4 L
731.926 294.404 L
726.531 294.404 L
cp
f
GR
GS
[0.75 0 0 0.75 0 0.25] CT
0.302 0.745 0.933 RC
N
750.131 294.4 M
755.526 294.4 L
755.526 294.42 L
750.131 294.42 L
cp
f
GR
GS
[0.75 0 0 0.75 0 0.25] CT
0.302 0.745 0.933 RC
N
773.731 294.4 M
779.126 294.4 L
779.126 294.4 L
773.731 294.4 L
cp
f
GR
GS
[0.75 0 0 0.75 0 0.25] CT
0.302 0.745 0.933 RC
N
797.331 294.4 M
802.726 294.4 L
802.726 294.347 L
797.331 294.347 L
cp
f
GR
GS
[0.75 0 0 0.75 0 0.25] CT
10.0 ML
0.667 LW
N
136.531 294.4 M
136.531 294.416 L
141.926 294.416 L
141.926 294.4 L
cp
S
GR
GS
[0.75 0 0 0.75 0 0.25] CT
10.0 ML
0.667 LW
N
160.131 294.4 M
160.131 294.433 L
165.526 294.433 L
165.526 294.4 L
cp
S
GR
GS
[0.75 0 0 0.75 0 0.25] CT
10.0 ML
0.667 LW
N
183.731 294.4 M
183.731 294.451 L
189.126 294.451 L
189.126 294.4 L
cp
S
GR
GS
[0.75 0 0 0.75 0 0.25] CT
10.0 ML
0.667 LW
N
207.331 294.4 M
207.331 310.7 L
212.726 310.7 L
212.726 294.4 L
cp
S
GR
GS
[0.75 0 0 0.75 0 0.25] CT
10.0 ML
0.667 LW
N
230.931 294.4 M
230.931 294.316 L
236.326 294.316 L
236.326 294.4 L
cp
S
GR
GS
[0.75 0 0 0.75 0 0.25] CT
10.0 ML
0.667 LW
N
254.531 294.4 M
254.531 277.778 L
259.926 277.778 L
259.926 294.4 L
cp
S
GR
GS
[0.75 0 0 0.75 0 0.25] CT
10.0 ML
0.667 LW
N
278.131 294.4 M
278.131 294.212 L
283.526 294.212 L
283.526 294.4 L
cp
S
GR
GS
[0.75 0 0 0.75 0 0.25] CT
10.0 ML
0.667 LW
N
301.731 294.4 M
301.731 296.156 L
307.126 296.156 L
307.126 294.4 L
cp
S
GR
GS
[0.75 0 0 0.75 0 0.25] CT
10.0 ML
0.667 LW
N
325.331 294.4 M
325.331 282.218 L
330.726 282.218 L
330.726 294.4 L
cp
S
GR
GS
[0.75 0 0 0.75 0 0.25] CT
10.0 ML
0.667 LW
N
348.931 294.4 M
348.931 280.382 L
354.326 280.382 L
354.326 294.4 L
cp
S
GR
GS
[0.75 0 0 0.75 0 0.25] CT
10.0 ML
0.667 LW
N
372.531 294.4 M
372.531 294.577 L
377.926 294.577 L
377.926 294.4 L
cp
S
GR
GS
[0.75 0 0 0.75 0 0.25] CT
10.0 ML
0.667 LW
N
396.131 294.4 M
396.131 294.382 L
401.526 294.382 L
401.526 294.4 L
cp
S
GR
GS
[0.75 0 0 0.75 0 0.25] CT
10.0 ML
0.667 LW
N
419.731 294.4 M
419.731 293.428 L
425.126 293.428 L
425.126 294.4 L
cp
S
GR
GS
[0.75 0 0 0.75 0 0.25] CT
10.0 ML
0.667 LW
N
443.331 294.4 M
443.331 298.457 L
448.726 298.457 L
448.726 294.4 L
cp
S
GR
GS
[0.75 0 0 0.75 0 0.25] CT
10.0 ML
0.667 LW
N
466.931 294.4 M
466.931 294.282 L
472.326 294.282 L
472.326 294.4 L
cp
S
GR
GS
[0.75 0 0 0.75 0 0.25] CT
10.0 ML
0.667 LW
N
490.531 294.4 M
490.531 286.608 L
495.926 286.608 L
495.926 294.4 L
cp
S
GR
GS
[0.75 0 0 0.75 0 0.25] CT
10.0 ML
0.667 LW
N
514.131 294.4 M
514.131 411.301 L
519.526 411.301 L
519.526 294.4 L
cp
S
GR
GS
[0.75 0 0 0.75 0 0.25] CT
10.0 ML
0.667 LW
N
537.731 294.4 M
537.731 300.819 L
543.126 300.819 L
543.126 294.4 L
cp
S
GR
GS
[0.75 0 0 0.75 0 0.25] CT
10.0 ML
0.667 LW
N
561.331 294.4 M
561.331 335.933 L
566.726 335.933 L
566.726 294.4 L
cp
S
GR
GS
[0.75 0 0 0.75 0 0.25] CT
10.0 ML
0.667 LW
N
584.931 294.4 M
584.931 322.265 L
590.326 322.265 L
590.326 294.4 L
cp
S
GR
GS
[0.75 0 0 0.75 0 0.25] CT
10.0 ML
0.667 LW
N
608.531 294.4 M
608.531 294.363 L
613.926 294.363 L
613.926 294.4 L
cp
S
GR
GS
[0.75 0 0 0.75 0 0.25] CT
10.0 ML
0.667 LW
N
632.131 294.4 M
632.131 294.447 L
637.526 294.447 L
637.526 294.4 L
cp
S
GR
GS
[0.75 0 0 0.75 0 0.25] CT
10.0 ML
0.667 LW
N
655.731 294.4 M
655.731 294.359 L
661.126 294.359 L
661.126 294.4 L
cp
S
GR
GS
[0.75 0 0 0.75 0 0.25] CT
10.0 ML
0.667 LW
N
679.331 294.4 M
679.331 296.341 L
684.726 296.341 L
684.726 294.4 L
cp
S
GR
GS
[0.75 0 0 0.75 0 0.25] CT
10.0 ML
0.667 LW
N
702.931 294.4 M
702.931 294.298 L
708.326 294.298 L
708.326 294.4 L
cp
S
GR
GS
[0.75 0 0 0.75 0 0.25] CT
10.0 ML
0.667 LW
N
726.531 294.4 M
726.531 294.404 L
731.926 294.404 L
731.926 294.4 L
cp
S
GR
GS
[0.75 0 0 0.75 0 0.25] CT
10.0 ML
0.667 LW
N
750.131 294.4 M
750.131 294.42 L
755.526 294.42 L
755.526 294.4 L
cp
S
GR
GS
[0.75 0 0 0.75 0 0.25] CT
10.0 ML
0.667 LW
N
773.731 294.4 M
773.731 294.4 L
779.126 294.4 L
779.126 294.4 L
cp
S
GR
GS
[0.75 0 0 0.75 0 0.25] CT
10.0 ML
0.667 LW
N
797.331 294.4 M
797.331 294.347 L
802.726 294.347 L
802.726 294.4 L
cp
S
GR
GS
[0.75 0 0 0.75 0 0.25] CT
0.635 0.078 0.184 RC
N
143.274 294.4 M
148.669 294.4 L
148.669 294.411 L
143.274 294.411 L
cp
f
GR
GS
[0.75 0 0 0.75 0 0.25] CT
0.635 0.078 0.184 RC
N
166.874 294.4 M
172.269 294.4 L
172.269 294.434 L
166.874 294.434 L
cp
f
GR
GS
[0.75 0 0 0.75 0 0.25] CT
0.635 0.078 0.184 RC
N
190.474 294.4 M
195.869 294.4 L
195.869 294.444 L
190.474 294.444 L
cp
f
GR
GS
[0.75 0 0 0.75 0 0.25] CT
0.635 0.078 0.184 RC
N
214.074 294.4 M
219.469 294.4 L
219.469 310.662 L
214.074 310.662 L
cp
f
GR
GS
[0.75 0 0 0.75 0 0.25] CT
0.635 0.078 0.184 RC
N
237.674 294.4 M
243.069 294.4 L
243.069 294.311 L
237.674 294.311 L
cp
f
GR
GS
[0.75 0 0 0.75 0 0.25] CT
0.635 0.078 0.184 RC
N
261.274 294.4 M
266.669 294.4 L
266.669 277.757 L
261.274 277.757 L
cp
f
GR
GS
[0.75 0 0 0.75 0 0.25] CT
0.635 0.078 0.184 RC
N
284.874 294.4 M
290.269 294.4 L
290.269 293.843 L
284.874 293.843 L
cp
f
GR
GS
[0.75 0 0 0.75 0 0.25] CT
0.635 0.078 0.184 RC
N
308.474 294.4 M
313.869 294.4 L
313.869 294.852 L
308.474 294.852 L
cp
f
GR
GS
[0.75 0 0 0.75 0 0.25] CT
0.635 0.078 0.184 RC
N
332.074 294.4 M
337.469 294.4 L
337.469 282.222 L
332.074 282.222 L
cp
f
GR
GS
[0.75 0 0 0.75 0 0.25] CT
0.635 0.078 0.184 RC
N
355.674 294.4 M
361.069 294.4 L
361.069 280.417 L
355.674 280.417 L
cp
f
GR
GS
[0.75 0 0 0.75 0 0.25] CT
0.635 0.078 0.184 RC
N
379.274 294.4 M
384.669 294.4 L
384.669 294.574 L
379.274 294.574 L
cp
f
GR
GS
[0.75 0 0 0.75 0 0.25] CT
0.635 0.078 0.184 RC
N
402.874 294.4 M
408.269 294.4 L
408.269 294.382 L
402.874 294.382 L
cp
f
GR
GS
[0.75 0 0 0.75 0 0.25] CT
0.635 0.078 0.184 RC
N
426.474 294.4 M
431.869 294.4 L
431.869 293.333 L
426.474 293.333 L
cp
f
GR
GS
[0.75 0 0 0.75 0 0.25] CT
0.635 0.078 0.184 RC
N
450.074 294.4 M
455.469 294.4 L
455.469 298.366 L
450.074 298.366 L
cp
f
GR
GS
[0.75 0 0 0.75 0 0.25] CT
0.635 0.078 0.184 RC
N
473.674 294.4 M
479.069 294.4 L
479.069 294.284 L
473.674 294.284 L
cp
f
GR
GS
[0.75 0 0 0.75 0 0.25] CT
0.635 0.078 0.184 RC
N
497.274 294.4 M
502.669 294.4 L
502.669 286.609 L
497.274 286.609 L
cp
f
GR
GS
[0.75 0 0 0.75 0 0.25] CT
0.635 0.078 0.184 RC
N
520.874 294.4 M
526.269 294.4 L
526.269 411.126 L
520.874 411.126 L
cp
f
GR
GS
[0.75 0 0 0.75 0 0.25] CT
0.635 0.078 0.184 RC
N
544.474 294.4 M
549.869 294.4 L
549.869 300.811 L
544.474 300.811 L
cp
f
GR
GS
[0.75 0 0 0.75 0 0.25] CT
0.635 0.078 0.184 RC
N
568.074 294.4 M
573.469 294.4 L
573.469 335.163 L
568.074 335.163 L
cp
f
GR
GS
[0.75 0 0 0.75 0 0.25] CT
0.635 0.078 0.184 RC
N
591.674 294.4 M
597.069 294.4 L
597.069 322.097 L
591.674 322.097 L
cp
f
GR
GS
[0.75 0 0 0.75 0 0.25] CT
0.635 0.078 0.184 RC
N
615.274 294.4 M
620.669 294.4 L
620.669 294.365 L
615.274 294.365 L
cp
f
GR
GS
[0.75 0 0 0.75 0 0.25] CT
0.635 0.078 0.184 RC
N
638.874 294.4 M
644.269 294.4 L
644.269 294.447 L
638.874 294.447 L
cp
f
GR
GS
[0.75 0 0 0.75 0 0.25] CT
0.635 0.078 0.184 RC
N
662.474 294.4 M
667.869 294.4 L
667.869 294.357 L
662.474 294.357 L
cp
f
GR
GS
[0.75 0 0 0.75 0 0.25] CT
0.635 0.078 0.184 RC
N
686.074 294.4 M
691.469 294.4 L
691.469 296.286 L
686.074 296.286 L
cp
f
GR
GS
[0.75 0 0 0.75 0 0.25] CT
0.635 0.078 0.184 RC
N
709.674 294.4 M
715.069 294.4 L
715.069 294.586 L
709.674 294.586 L
cp
f
GR
GS
[0.75 0 0 0.75 0 0.25] CT
0.635 0.078 0.184 RC
N
733.274 294.4 M
738.669 294.4 L
738.669 294.387 L
733.274 294.387 L
cp
f
GR
GS
[0.75 0 0 0.75 0 0.25] CT
0.635 0.078 0.184 RC
N
756.874 294.4 M
762.269 294.4 L
762.269 294.421 L
756.874 294.421 L
cp
f
GR
GS
[0.75 0 0 0.75 0 0.25] CT
0.635 0.078 0.184 RC
N
780.474 294.4 M
785.869 294.4 L
785.869 294.4 L
780.474 294.4 L
cp
f
GR
GS
[0.75 0 0 0.75 0 0.25] CT
0.635 0.078 0.184 RC
N
804.074 294.4 M
809.469 294.4 L
809.469 294.346 L
804.074 294.346 L
cp
f
GR
GS
[0.75 0 0 0.75 0 0.25] CT
10.0 ML
0.667 LW
N
143.274 294.4 M
143.274 294.411 L
148.669 294.411 L
148.669 294.4 L
cp
S
GR
GS
[0.75 0 0 0.75 0 0.25] CT
10.0 ML
0.667 LW
N
166.874 294.4 M
166.874 294.434 L
172.269 294.434 L
172.269 294.4 L
cp
S
GR
GS
[0.75 0 0 0.75 0 0.25] CT
10.0 ML
0.667 LW
N
190.474 294.4 M
190.474 294.444 L
195.869 294.444 L
195.869 294.4 L
cp
S
GR
GS
[0.75 0 0 0.75 0 0.25] CT
10.0 ML
0.667 LW
N
214.074 294.4 M
214.074 310.662 L
219.469 310.662 L
219.469 294.4 L
cp
S
GR
GS
[0.75 0 0 0.75 0 0.25] CT
10.0 ML
0.667 LW
N
237.674 294.4 M
237.674 294.311 L
243.069 294.311 L
243.069 294.4 L
cp
S
GR
GS
[0.75 0 0 0.75 0 0.25] CT
10.0 ML
0.667 LW
N
261.274 294.4 M
261.274 277.757 L
266.669 277.757 L
266.669 294.4 L
cp
S
GR
GS
[0.75 0 0 0.75 0 0.25] CT
10.0 ML
0.667 LW
N
284.874 294.4 M
284.874 293.843 L
290.269 293.843 L
290.269 294.4 L
cp
S
GR
GS
[0.75 0 0 0.75 0 0.25] CT
10.0 ML
0.667 LW
N
308.474 294.4 M
308.474 294.852 L
313.869 294.852 L
313.869 294.4 L
cp
S
GR
GS
[0.75 0 0 0.75 0 0.25] CT
10.0 ML
0.667 LW
N
332.074 294.4 M
332.074 282.222 L
337.469 282.222 L
337.469 294.4 L
cp
S
GR
GS
[0.75 0 0 0.75 0 0.25] CT
10.0 ML
0.667 LW
N
355.674 294.4 M
355.674 280.417 L
361.069 280.417 L
361.069 294.4 L
cp
S
GR
GS
[0.75 0 0 0.75 0 0.25] CT
10.0 ML
0.667 LW
N
379.274 294.4 M
379.274 294.574 L
384.669 294.574 L
384.669 294.4 L
cp
S
GR
GS
[0.75 0 0 0.75 0 0.25] CT
10.0 ML
0.667 LW
N
402.874 294.4 M
402.874 294.382 L
408.269 294.382 L
408.269 294.4 L
cp
S
GR
GS
[0.75 0 0 0.75 0 0.25] CT
10.0 ML
0.667 LW
N
426.474 294.4 M
426.474 293.333 L
431.869 293.333 L
431.869 294.4 L
cp
S
GR
GS
[0.75 0 0 0.75 0 0.25] CT
10.0 ML
0.667 LW
N
450.074 294.4 M
450.074 298.366 L
455.469 298.366 L
455.469 294.4 L
cp
S
GR
GS
[0.75 0 0 0.75 0 0.25] CT
10.0 ML
0.667 LW
N
473.674 294.4 M
473.674 294.284 L
479.069 294.284 L
479.069 294.4 L
cp
S
GR
GS
[0.75 0 0 0.75 0 0.25] CT
10.0 ML
0.667 LW
N
497.274 294.4 M
497.274 286.609 L
502.669 286.609 L
502.669 294.4 L
cp
S
GR
GS
[0.75 0 0 0.75 0 0.25] CT
10.0 ML
0.667 LW
N
520.874 294.4 M
520.874 411.126 L
526.269 411.126 L
526.269 294.4 L
cp
S
GR
GS
[0.75 0 0 0.75 0 0.25] CT
10.0 ML
0.667 LW
N
544.474 294.4 M
544.474 300.811 L
549.869 300.811 L
549.869 294.4 L
cp
S
GR
GS
[0.75 0 0 0.75 0 0.25] CT
10.0 ML
0.667 LW
N
568.074 294.4 M
568.074 335.163 L
573.469 335.163 L
573.469 294.4 L
cp
S
GR
GS
[0.75 0 0 0.75 0 0.25] CT
10.0 ML
0.667 LW
N
591.674 294.4 M
591.674 322.097 L
597.069 322.097 L
597.069 294.4 L
cp
S
GR
GS
[0.75 0 0 0.75 0 0.25] CT
10.0 ML
0.667 LW
N
615.274 294.4 M
615.274 294.365 L
620.669 294.365 L
620.669 294.4 L
cp
S
GR
GS
[0.75 0 0 0.75 0 0.25] CT
10.0 ML
0.667 LW
N
638.874 294.4 M
638.874 294.447 L
644.269 294.447 L
644.269 294.4 L
cp
S
GR
GS
[0.75 0 0 0.75 0 0.25] CT
10.0 ML
0.667 LW
N
662.474 294.4 M
662.474 294.357 L
667.869 294.357 L
667.869 294.4 L
cp
S
GR
GS
[0.75 0 0 0.75 0 0.25] CT
10.0 ML
0.667 LW
N
686.074 294.4 M
686.074 296.286 L
691.469 296.286 L
691.469 294.4 L
cp
S
GR
GS
[0.75 0 0 0.75 0 0.25] CT
10.0 ML
0.667 LW
N
709.674 294.4 M
709.674 294.586 L
715.069 294.586 L
715.069 294.4 L
cp
S
GR
GS
[0.75 0 0 0.75 0 0.25] CT
10.0 ML
0.667 LW
N
733.274 294.4 M
733.274 294.387 L
738.669 294.387 L
738.669 294.4 L
cp
S
GR
GS
[0.75 0 0 0.75 0 0.25] CT
10.0 ML
0.667 LW
N
756.874 294.4 M
756.874 294.421 L
762.269 294.421 L
762.269 294.4 L
cp
S
GR
GS
[0.75 0 0 0.75 0 0.25] CT
10.0 ML
0.667 LW
N
780.474 294.4 M
780.474 294.4 L
785.869 294.4 L
785.869 294.4 L
cp
S
GR
GS
[0.75 0 0 0.75 0 0.25] CT
10.0 ML
0.667 LW
N
804.074 294.4 M
804.074 294.346 L
809.469 294.346 L
809.469 294.4 L
cp
S
GR
GS
[0.75 0 0 0.75 0 0.25] CT
0.149 GC
2 setlinecap
1 LJ
0.667 LW
N
119 424 M
827 424 L
S
GR
GS
[0.75 0 0 0.75 0 0.25] CT
0.149 GC
2 setlinecap
1 LJ
0.667 LW
N
119 262 M
827 262 L
S
GR
GS
[0.75 0 0 0.75 0 0.25] CT
0.149 GC
2 setlinecap
1 LJ
0.667 LW
N
142.6 424 M
142.6 416.92 L
S
GR
GS
[0.75 0 0 0.75 0 0.25] CT
0.149 GC
2 setlinecap
1 LJ
0.667 LW
N
166.2 424 M
166.2 416.92 L
S
GR
GS
[0.75 0 0 0.75 0 0.25] CT
0.149 GC
2 setlinecap
1 LJ
0.667 LW
N
189.8 424 M
189.8 416.92 L
S
GR
GS
[0.75 0 0 0.75 0 0.25] CT
0.149 GC
2 setlinecap
1 LJ
0.667 LW
N
213.4 424 M
213.4 416.92 L
S
GR
GS
[0.75 0 0 0.75 0 0.25] CT
0.149 GC
2 setlinecap
1 LJ
0.667 LW
N
237 424 M
237 416.92 L
S
GR
GS
[0.75 0 0 0.75 0 0.25] CT
0.149 GC
2 setlinecap
1 LJ
0.667 LW
N
260.6 424 M
260.6 416.92 L
S
GR
GS
[0.75 0 0 0.75 0 0.25] CT
0.149 GC
2 setlinecap
1 LJ
0.667 LW
N
284.2 424 M
284.2 416.92 L
S
GR
GS
[0.75 0 0 0.75 0 0.25] CT
0.149 GC
2 setlinecap
1 LJ
0.667 LW
N
307.8 424 M
307.8 416.92 L
S
GR
GS
[0.75 0 0 0.75 0 0.25] CT
0.149 GC
2 setlinecap
1 LJ
0.667 LW
N
331.4 424 M
331.4 416.92 L
S
GR
GS
[0.75 0 0 0.75 0 0.25] CT
0.149 GC
2 setlinecap
1 LJ
0.667 LW
N
355 424 M
355 416.92 L
S
GR
GS
[0.75 0 0 0.75 0 0.25] CT
0.149 GC
2 setlinecap
1 LJ
0.667 LW
N
378.6 424 M
378.6 416.92 L
S
GR
GS
[0.75 0 0 0.75 0 0.25] CT
0.149 GC
2 setlinecap
1 LJ
0.667 LW
N
402.2 424 M
402.2 416.92 L
S
GR
GS
[0.75 0 0 0.75 0 0.25] CT
0.149 GC
2 setlinecap
1 LJ
0.667 LW
N
425.8 424 M
425.8 416.92 L
S
GR
GS
[0.75 0 0 0.75 0 0.25] CT
0.149 GC
2 setlinecap
1 LJ
0.667 LW
N
449.4 424 M
449.4 416.92 L
S
GR
GS
[0.75 0 0 0.75 0 0.25] CT
0.149 GC
2 setlinecap
1 LJ
0.667 LW
N
473 424 M
473 416.92 L
S
GR
GS
[0.75 0 0 0.75 0 0.25] CT
0.149 GC
2 setlinecap
1 LJ
0.667 LW
N
496.6 424 M
496.6 416.92 L
S
GR
GS
[0.75 0 0 0.75 0 0.25] CT
0.149 GC
2 setlinecap
1 LJ
0.667 LW
N
520.2 424 M
520.2 416.92 L
S
GR
GS
[0.75 0 0 0.75 0 0.25] CT
0.149 GC
2 setlinecap
1 LJ
0.667 LW
N
543.8 424 M
543.8 416.92 L
S
GR
GS
[0.75 0 0 0.75 0 0.25] CT
0.149 GC
2 setlinecap
1 LJ
0.667 LW
N
567.4 424 M
567.4 416.92 L
S
GR
GS
[0.75 0 0 0.75 0 0.25] CT
0.149 GC
2 setlinecap
1 LJ
0.667 LW
N
591 424 M
591 416.92 L
S
GR
GS
[0.75 0 0 0.75 0 0.25] CT
0.149 GC
2 setlinecap
1 LJ
0.667 LW
N
614.6 424 M
614.6 416.92 L
S
GR
GS
[0.75 0 0 0.75 0 0.25] CT
0.149 GC
2 setlinecap
1 LJ
0.667 LW
N
638.2 424 M
638.2 416.92 L
S
GR
GS
[0.75 0 0 0.75 0 0.25] CT
0.149 GC
2 setlinecap
1 LJ
0.667 LW
N
661.8 424 M
661.8 416.92 L
S
GR
GS
[0.75 0 0 0.75 0 0.25] CT
0.149 GC
2 setlinecap
1 LJ
0.667 LW
N
685.4 424 M
685.4 416.92 L
S
GR
GS
[0.75 0 0 0.75 0 0.25] CT
0.149 GC
2 setlinecap
1 LJ
0.667 LW
N
709 424 M
709 416.92 L
S
GR
GS
[0.75 0 0 0.75 0 0.25] CT
0.149 GC
2 setlinecap
1 LJ
0.667 LW
N
732.6 424 M
732.6 416.92 L
S
GR
GS
[0.75 0 0 0.75 0 0.25] CT
0.149 GC
2 setlinecap
1 LJ
0.667 LW
N
756.2 424 M
756.2 416.92 L
S
GR
GS
[0.75 0 0 0.75 0 0.25] CT
0.149 GC
2 setlinecap
1 LJ
0.667 LW
N
779.8 424 M
779.8 416.92 L
S
GR
GS
[0.75 0 0 0.75 0 0.25] CT
0.149 GC
2 setlinecap
1 LJ
0.667 LW
N
803.4 424 M
803.4 416.92 L
S
GR
GS
[0.75 0 0 0.75 0 0.25] CT
0.149 GC
2 setlinecap
1 LJ
0.667 LW
N
142.6 262 M
142.6 269.08 L
S
GR
GS
[0.75 0 0 0.75 0 0.25] CT
0.149 GC
2 setlinecap
1 LJ
0.667 LW
N
166.2 262 M
166.2 269.08 L
S
GR
GS
[0.75 0 0 0.75 0 0.25] CT
0.149 GC
2 setlinecap
1 LJ
0.667 LW
N
189.8 262 M
189.8 269.08 L
S
GR
GS
[0.75 0 0 0.75 0 0.25] CT
0.149 GC
2 setlinecap
1 LJ
0.667 LW
N
213.4 262 M
213.4 269.08 L
S
GR
GS
[0.75 0 0 0.75 0 0.25] CT
0.149 GC
2 setlinecap
1 LJ
0.667 LW
N
237 262 M
237 269.08 L
S
GR
GS
[0.75 0 0 0.75 0 0.25] CT
0.149 GC
2 setlinecap
1 LJ
0.667 LW
N
260.6 262 M
260.6 269.08 L
S
GR
GS
[0.75 0 0 0.75 0 0.25] CT
0.149 GC
2 setlinecap
1 LJ
0.667 LW
N
284.2 262 M
284.2 269.08 L
S
GR
GS
[0.75 0 0 0.75 0 0.25] CT
0.149 GC
2 setlinecap
1 LJ
0.667 LW
N
307.8 262 M
307.8 269.08 L
S
GR
GS
[0.75 0 0 0.75 0 0.25] CT
0.149 GC
2 setlinecap
1 LJ
0.667 LW
N
331.4 262 M
331.4 269.08 L
S
GR
GS
[0.75 0 0 0.75 0 0.25] CT
0.149 GC
2 setlinecap
1 LJ
0.667 LW
N
355 262 M
355 269.08 L
S
GR
GS
[0.75 0 0 0.75 0 0.25] CT
0.149 GC
2 setlinecap
1 LJ
0.667 LW
N
378.6 262 M
378.6 269.08 L
S
GR
GS
[0.75 0 0 0.75 0 0.25] CT
0.149 GC
2 setlinecap
1 LJ
0.667 LW
N
402.2 262 M
402.2 269.08 L
S
GR
GS
[0.75 0 0 0.75 0 0.25] CT
0.149 GC
2 setlinecap
1 LJ
0.667 LW
N
425.8 262 M
425.8 269.08 L
S
GR
GS
[0.75 0 0 0.75 0 0.25] CT
0.149 GC
2 setlinecap
1 LJ
0.667 LW
N
449.4 262 M
449.4 269.08 L
S
GR
GS
[0.75 0 0 0.75 0 0.25] CT
0.149 GC
2 setlinecap
1 LJ
0.667 LW
N
473 262 M
473 269.08 L
S
GR
GS
[0.75 0 0 0.75 0 0.25] CT
0.149 GC
2 setlinecap
1 LJ
0.667 LW
N
496.6 262 M
496.6 269.08 L
S
GR
GS
[0.75 0 0 0.75 0 0.25] CT
0.149 GC
2 setlinecap
1 LJ
0.667 LW
N
520.2 262 M
520.2 269.08 L
S
GR
GS
[0.75 0 0 0.75 0 0.25] CT
0.149 GC
2 setlinecap
1 LJ
0.667 LW
N
543.8 262 M
543.8 269.08 L
S
GR
GS
[0.75 0 0 0.75 0 0.25] CT
0.149 GC
2 setlinecap
1 LJ
0.667 LW
N
567.4 262 M
567.4 269.08 L
S
GR
GS
[0.75 0 0 0.75 0 0.25] CT
0.149 GC
2 setlinecap
1 LJ
0.667 LW
N
591 262 M
591 269.08 L
S
GR
GS
[0.75 0 0 0.75 0 0.25] CT
0.149 GC
2 setlinecap
1 LJ
0.667 LW
N
614.6 262 M
614.6 269.08 L
S
GR
GS
[0.75 0 0 0.75 0 0.25] CT
0.149 GC
2 setlinecap
1 LJ
0.667 LW
N
638.2 262 M
638.2 269.08 L
S
GR
GS
[0.75 0 0 0.75 0 0.25] CT
0.149 GC
2 setlinecap
1 LJ
0.667 LW
N
661.8 262 M
661.8 269.08 L
S
GR
GS
[0.75 0 0 0.75 0 0.25] CT
0.149 GC
2 setlinecap
1 LJ
0.667 LW
N
685.4 262 M
685.4 269.08 L
S
GR
GS
[0.75 0 0 0.75 0 0.25] CT
0.149 GC
2 setlinecap
1 LJ
0.667 LW
N
709 262 M
709 269.08 L
S
GR
GS
[0.75 0 0 0.75 0 0.25] CT
0.149 GC
2 setlinecap
1 LJ
0.667 LW
N
732.6 262 M
732.6 269.08 L
S
GR
GS
[0.75 0 0 0.75 0 0.25] CT
0.149 GC
2 setlinecap
1 LJ
0.667 LW
N
756.2 262 M
756.2 269.08 L
S
GR
GS
[0.75 0 0 0.75 0 0.25] CT
0.149 GC
2 setlinecap
1 LJ
0.667 LW
N
779.8 262 M
779.8 269.08 L
S
GR
GS
[0.75 0 0 0.75 0 0.25] CT
0.149 GC
2 setlinecap
1 LJ
0.667 LW
N
803.4 262 M
803.4 269.08 L
S
GR
GS
[0.75 0 0 0.75 106.95 322.25001] CT
0.149 GC
/Helvetica 13.333 F
GS
[1 0 0 1 0 0] CT
-4.5 13 moveto 
1 -1 scale
(1) t 
GR
GR
GS
[0.75 0 0 0.75 124.65 322.25001] CT
0.149 GC
/Helvetica 13.333 F
GS
[1 0 0 1 0 0] CT
-4.5 13 moveto 
1 -1 scale
(2) t 
GR
GR
GS
[0.75 0 0 0.75 142.35 322.25001] CT
0.149 GC
/Helvetica 13.333 F
GS
[1 0 0 1 0 0] CT
-4.5 13 moveto 
1 -1 scale
(3) t 
GR
GR
GS
[0.75 0 0 0.75 160.05 322.25001] CT
0.149 GC
/Helvetica 13.333 F
GS
[1 0 0 1 0 0] CT
-4.5 13 moveto 
1 -1 scale
(4) t 
GR
GR
GS
[0.75 0 0 0.75 177.75 322.25001] CT
0.149 GC
/Helvetica 13.333 F
GS
[1 0 0 1 0 0] CT
-4.5 13 moveto 
1 -1 scale
(5) t 
GR
GR
GS
[0.75 0 0 0.75 195.45 322.25001] CT
0.149 GC
/Helvetica 13.333 F
GS
[1 0 0 1 0 0] CT
-4.5 13 moveto 
1 -1 scale
(6) t 
GR
GR
GS
[0.75 0 0 0.75 213.15001 322.25001] CT
0.149 GC
/Helvetica 13.333 F
GS
[1 0 0 1 0 0] CT
-4.5 13 moveto 
1 -1 scale
(7) t 
GR
GR
GS
[0.75 0 0 0.75 230.84999 322.25001] CT
0.149 GC
/Helvetica 13.333 F
GS
[1 0 0 1 0 0] CT
-4.5 13 moveto 
1 -1 scale
(8) t 
GR
GR
GS
[0.75 0 0 0.75 248.55 322.25001] CT
0.149 GC
/Helvetica 13.333 F
GS
[1 0 0 1 0 0] CT
-4.5 13 moveto 
1 -1 scale
(9) t 
GR
GR
GS
[0.75 0 0 0.75 266.25 322.25001] CT
0.149 GC
/Helvetica 13.333 F
GS
[1 0 0 1 0 0] CT
-8.5 13 moveto 
1 -1 scale
(10) t 
GR
GR
GS
[0.75 0 0 0.75 283.95 322.25001] CT
0.149 GC
/Helvetica 13.333 F
GS
[1 0 0 1 0 0] CT
-8.5 13 moveto 
1 -1 scale
(11) t 
GR
GR
GS
[0.75 0 0 0.75 301.65001 322.25001] CT
0.149 GC
/Helvetica 13.333 F
GS
[1 0 0 1 0 0] CT
-8.5 13 moveto 
1 -1 scale
(12) t 
GR
GR
GS
[0.75 0 0 0.75 319.34999 322.25001] CT
0.149 GC
/Helvetica 13.333 F
GS
[1 0 0 1 0 0] CT
-8.5 13 moveto 
1 -1 scale
(13) t 
GR
GR
GS
[0.75 0 0 0.75 337.05 322.25001] CT
0.149 GC
/Helvetica 13.333 F
GS
[1 0 0 1 0 0] CT
-8.5 13 moveto 
1 -1 scale
(14) t 
GR
GR
GS
[0.75 0 0 0.75 354.75 322.25001] CT
0.149 GC
/Helvetica 13.333 F
GS
[1 0 0 1 0 0] CT
-8.5 13 moveto 
1 -1 scale
(15) t 
GR
GR
GS
[0.75 0 0 0.75 372.45 322.25001] CT
0.149 GC
/Helvetica 13.333 F
GS
[1 0 0 1 0 0] CT
-8.5 13 moveto 
1 -1 scale
(16) t 
GR
GR
GS
[0.75 0 0 0.75 390.15001 322.25001] CT
0.149 GC
/Helvetica 13.333 F
GS
[1 0 0 1 0 0] CT
-8.5 13 moveto 
1 -1 scale
(17) t 
GR
GR
GS
[0.75 0 0 0.75 407.84999 322.25001] CT
0.149 GC
/Helvetica 13.333 F
GS
[1 0 0 1 0 0] CT
-8.5 13 moveto 
1 -1 scale
(18) t 
GR
GR
GS
[0.75 0 0 0.75 425.55002 322.25001] CT
0.149 GC
/Helvetica 13.333 F
GS
[1 0 0 1 0 0] CT
-8.5 13 moveto 
1 -1 scale
(19) t 
GR
GR
GS
[0.75 0 0 0.75 443.25 322.25001] CT
0.149 GC
/Helvetica 13.333 F
GS
[1 0 0 1 0 0] CT
-8.5 13 moveto 
1 -1 scale
(20) t 
GR
GR
GS
[0.75 0 0 0.75 460.94998 322.25001] CT
0.149 GC
/Helvetica 13.333 F
GS
[1 0 0 1 0 0] CT
-8.5 13 moveto 
1 -1 scale
(21) t 
GR
GR
GS
[0.75 0 0 0.75 478.65001 322.25001] CT
0.149 GC
/Helvetica 13.333 F
GS
[1 0 0 1 0 0] CT
-8.5 13 moveto 
1 -1 scale
(22) t 
GR
GR
GS
[0.75 0 0 0.75 496.34999 322.25001] CT
0.149 GC
/Helvetica 13.333 F
GS
[1 0 0 1 0 0] CT
-8.5 13 moveto 
1 -1 scale
(23) t 
GR
GR
GS
[0.75 0 0 0.75 514.05002 322.25001] CT
0.149 GC
/Helvetica 13.333 F
GS
[1 0 0 1 0 0] CT
-8.5 13 moveto 
1 -1 scale
(24) t 
GR
GR
GS
[0.75 0 0 0.75 531.75 322.25001] CT
0.149 GC
/Helvetica 13.333 F
GS
[1 0 0 1 0 0] CT
-8.5 13 moveto 
1 -1 scale
(25) t 
GR
GR
GS
[0.75 0 0 0.75 549.44998 322.25001] CT
0.149 GC
/Helvetica 13.333 F
GS
[1 0 0 1 0 0] CT
-8.5 13 moveto 
1 -1 scale
(27) t 
GR
GR
GS
[0.75 0 0 0.75 567.15001 322.25001] CT
0.149 GC
/Helvetica 13.333 F
GS
[1 0 0 1 0 0] CT
-8.5 13 moveto 
1 -1 scale
(28) t 
GR
GR
GS
[0.75 0 0 0.75 584.84999 322.25001] CT
0.149 GC
/Helvetica 13.333 F
GS
[1 0 0 1 0 0] CT
-8.5 13 moveto 
1 -1 scale
(29) t 
GR
GR
GS
[0.75 0 0 0.75 602.55002 322.25001] CT
0.149 GC
/Helvetica 13.333 F
GS
[1 0 0 1 0 0] CT
-8.5 13 moveto 
1 -1 scale
(30) t 
GR
GR
GS
[0.75 0 0 0.75 354.75025 335.99999] CT
0.149 GC
/Helvetica 14.667 F
GS
[1 0 0 1 0 0] CT
-45.5 14 moveto 
1 -1 scale
(Point clouds) t 
GR
GR
GS
[0.75 0 0 0.75 0 0.25] CT
0.149 GC
2 setlinecap
1 LJ
0.667 LW
N
119 424 M
119 262 L
S
GR
GS
[0.75 0 0 0.75 0 0.25] CT
0.149 GC
2 setlinecap
1 LJ
0.667 LW
N
827 424 M
827 262 L
S
GR
GS
[0.75 0 0 0.75 0 0.25] CT
0.149 GC
2 setlinecap
1 LJ
0.667 LW
N
119 424 M
126.08 424 L
S
GR
GS
[0.75 0 0 0.75 0 0.25] CT
0.149 GC
2 setlinecap
1 LJ
0.667 LW
N
119 391.6 M
126.08 391.6 L
S
GR
GS
[0.75 0 0 0.75 0 0.25] CT
0.149 GC
2 setlinecap
1 LJ
0.667 LW
N
119 359.2 M
126.08 359.2 L
S
GR
GS
[0.75 0 0 0.75 0 0.25] CT
0.149 GC
2 setlinecap
1 LJ
0.667 LW
N
119 326.8 M
126.08 326.8 L
S
GR
GS
[0.75 0 0 0.75 0 0.25] CT
0.149 GC
2 setlinecap
1 LJ
0.667 LW
N
119 294.4 M
126.08 294.4 L
S
GR
GS
[0.75 0 0 0.75 0 0.25] CT
0.149 GC
2 setlinecap
1 LJ
0.667 LW
N
119 262 M
126.08 262 L
S
GR
GS
[0.75 0 0 0.75 0 0.25] CT
0.149 GC
2 setlinecap
1 LJ
0.667 LW
N
827 424 M
819.92 424 L
S
GR
GS
[0.75 0 0 0.75 0 0.25] CT
0.149 GC
2 setlinecap
1 LJ
0.667 LW
N
827 391.6 M
819.92 391.6 L
S
GR
GS
[0.75 0 0 0.75 0 0.25] CT
0.149 GC
2 setlinecap
1 LJ
0.667 LW
N
827 359.2 M
819.92 359.2 L
S
GR
GS
[0.75 0 0 0.75 0 0.25] CT
0.149 GC
2 setlinecap
1 LJ
0.667 LW
N
827 326.8 M
819.92 326.8 L
S
GR
GS
[0.75 0 0 0.75 0 0.25] CT
0.149 GC
2 setlinecap
1 LJ
0.667 LW
N
827 294.4 M
819.92 294.4 L
S
GR
GS
[0.75 0 0 0.75 0 0.25] CT
0.149 GC
2 setlinecap
1 LJ
0.667 LW
N
827 262 M
819.92 262 L
S
GR
GS
[0.75 0 0 0.75 85.25 318.25] CT
0.149 GC
/Helvetica 13.333 F
GS
[1 0 0 1 0 0] CT
-22 4.5 moveto 
1 -1 scale
(-20) t 
GR
GR
GS
[0.75 0 0 0.75 85.25 293.95] CT
0.149 GC
/Helvetica 13.333 F
GS
[1 0 0 1 0 0] CT
-22 4.5 moveto 
1 -1 scale
(-15) t 
GR
GR
GS
[0.75 0 0 0.75 85.25 269.65001] CT
0.149 GC
/Helvetica 13.333 F
GS
[1 0 0 1 0 0] CT
-22 4.5 moveto 
1 -1 scale
(-10) t 
GR
GR
GS
[0.75 0 0 0.75 85.25 245.34999] CT
0.149 GC
/Helvetica 13.333 F
GS
[1 0 0 1 0 0] CT
-13 4.5 moveto 
1 -1 scale
(-5) t 
GR
GR
GS
[0.75 0 0 0.75 85.25 221.05] CT
0.149 GC
/Helvetica 13.333 F
GS
[1 0 0 1 0 0] CT
-9 4.5 moveto 
1 -1 scale
(0) t 
GR
GR
GS
[0.75 0 0 0.75 85.25 196.75] CT
0.149 GC
/Helvetica 13.333 F
GS
[1 0 0 1 0 0] CT
-9 4.5 moveto 
1 -1 scale
(5) t 
GR
GR
GS
[0 -0.75 0.75 0 65.75 257.49993] CT
0.149 GC
/Helvetica 14.667 F
GS
[1 0 0 1 0 0] CT
-32.5 -4 moveto 
1 -1 scale
(delta-err) t 
GR
GR
GS
[0.75 0 0 0.75 89.25 193.75] CT
0.149 GC
N
1.906 -0.375 M
1.906 -0.469 1.969 -0.563 QT
4.672 -3.25 L
1.969 -5.953 L
1.906 -6.016 1.906 -6.125 QT
1.906 -6.219 1.984 -6.305 QT
2.063 -6.391 2.172 -6.391 QT
2.266 -6.391 2.375 -6.297 QT
5.063 -3.609 L
7.734 -6.297 L
7.844 -6.391 7.922 -6.391 QT
8.031 -6.391 8.109 -6.313 QT
8.188 -6.234 8.188 -6.125 QT
8.188 -6.016 8.125 -5.953 QT
5.422 -3.25 L
8.125 -0.563 L
8.188 -0.469 8.188 -0.375 QT
8.188 -0.266 8.109 -0.188 QT
8.031 -0.109 7.922 -0.109 QT
7.828 -0.109 7.734 -0.203 QT
5.063 -2.891 L
2.375 -0.203 L
2.266 -0.109 2.172 -0.109 QT
2.063 -0.109 1.984 -0.195 QT
1.906 -0.281 1.906 -0.375 QT
cp
f
GR
GS
[0.75 0 0 0.75 97.5 193.75] CT
0.149 GC
/Helvetica 13.333 F
GS
[1 0 0 1 0 0] CT
0 0 moveto 
1 -1 scale
(10) t 
GR
GR
GS
[0.75 0 0 0.75 110.25 189.25] CT
0.149 GC
/Helvetica 10.667 F
GS
[1 0 0 1 0 0] CT
0 0 moveto 
1 -1 scale
(-3) t 
GR
GR
%%Trailer
%%Pages: 1
%%EOF
