%!PS-Adobe-3.0 EPSF-3.0
%%Creator: (MATLAB, The Mathworks, Inc. Version 9.2.0.538062 \(R2017a\). Operating System: Linux)
%%Title: /home/nicola/Scrivania/RESEARCH/Projects/TrimBot2020/RESEARCH/Speedup/evaluation_GTX1080ti/gtx-tranerr.eps
%%CreationDate: 2019-09-25T19:13:23
%%Pages: (atend)
%%BoundingBox: 0 0 684 358
%%LanguageLevel: 3
%%EndComments
%%BeginProlog
%%BeginResource: procset (Apache XML Graphics Std ProcSet) 1.2 0
%%Version: 1.2 0
%%Copyright: (Copyright 2001-2003,2010 The Apache Software Foundation. License terms: http://www.apache.org/licenses/LICENSE-2.0)
/bd{bind def}bind def
/ld{load def}bd
/GR/grestore ld
/M/moveto ld
/LJ/setlinejoin ld
/C/curveto ld
/f/fill ld
/LW/setlinewidth ld
/GC/setgray ld
/t/show ld
/N/newpath ld
/CT/concat ld
/cp/closepath ld
/S/stroke ld
/L/lineto ld
/CC/setcmykcolor ld
/A/ashow ld
/GS/gsave ld
/RC/setrgbcolor ld
/RM/rmoveto ld
/ML/setmiterlimit ld
/re {4 2 roll M
1 index 0 rlineto
0 exch rlineto
neg 0 rlineto
cp } bd
/_ctm matrix def
/_tm matrix def
/BT { _ctm currentmatrix pop matrix _tm copy pop 0 0 moveto } bd
/ET { _ctm setmatrix } bd
/iTm { _ctm setmatrix _tm concat } bd
/Tm { _tm astore pop iTm 0 0 moveto } bd
/ux 0.0 def
/uy 0.0 def
/F {
  /Tp exch def
  /Tf exch def
  Tf findfont Tp scalefont setfont
  /cf Tf def  /cs Tp def
} bd
/ULS {currentpoint /uy exch def /ux exch def} bd
/ULE {
  /Tcx currentpoint pop def
  gsave
  newpath
  cf findfont cs scalefont dup
  /FontMatrix get 0 get /Ts exch def /FontInfo get dup
  /UnderlinePosition get Ts mul /To exch def
  /UnderlineThickness get Ts mul /Tt exch def
  ux uy To add moveto  Tcx uy To add lineto
  Tt setlinewidth stroke
  grestore
} bd
/OLE {
  /Tcx currentpoint pop def
  gsave
  newpath
  cf findfont cs scalefont dup
  /FontMatrix get 0 get /Ts exch def /FontInfo get dup
  /UnderlinePosition get Ts mul /To exch def
  /UnderlineThickness get Ts mul /Tt exch def
  ux uy To add cs add moveto Tcx uy To add cs add lineto
  Tt setlinewidth stroke
  grestore
} bd
/SOE {
  /Tcx currentpoint pop def
  gsave
  newpath
  cf findfont cs scalefont dup
  /FontMatrix get 0 get /Ts exch def /FontInfo get dup
  /UnderlinePosition get Ts mul /To exch def
  /UnderlineThickness get Ts mul /Tt exch def
  ux uy To add cs 10 mul 26 idiv add moveto Tcx uy To add cs 10 mul 26 idiv add lineto
  Tt setlinewidth stroke
  grestore
} bd
/QT {
/Y22 exch store
/X22 exch store
/Y21 exch store
/X21 exch store
currentpoint
/Y21 load 2 mul add 3 div exch
/X21 load 2 mul add 3 div exch
/X21 load 2 mul /X22 load add 3 div
/Y21 load 2 mul /Y22 load add 3 div
/X22 load /Y22 load curveto
} bd
/SSPD {
dup length /d exch dict def
{
/v exch def
/k exch def
currentpagedevice k known {
/cpdv currentpagedevice k get def
v cpdv ne {
/upd false def
/nullv v type /nulltype eq def
/nullcpdv cpdv type /nulltype eq def
nullv nullcpdv or
{
/upd true def
} {
/sametype v type cpdv type eq def
sametype {
v type /arraytype eq {
/vlen v length def
/cpdvlen cpdv length def
vlen cpdvlen eq {
0 1 vlen 1 sub {
/i exch def
/obj v i get def
/cpdobj cpdv i get def
obj cpdobj ne {
/upd true def
exit
} if
} for
} {
/upd true def
} ifelse
} {
v type /dicttype eq {
v {
/dv exch def
/dk exch def
/cpddv cpdv dk get def
dv cpddv ne {
/upd true def
exit
} if
} forall
} {
/upd true def
} ifelse
} ifelse
} if
} ifelse
upd true eq {
d k v put
} if
} if
} if
} forall
d length 0 gt {
d setpagedevice
} if
} bd
/RE { % /NewFontName [NewEncodingArray] /FontName RE -
  findfont dup length dict begin
  {
    1 index /FID ne
    {def} {pop pop} ifelse
  } forall
  /Encoding exch def
  /FontName 1 index def
  currentdict definefont pop
  end
} bind def
%%EndResource
%%BeginResource: procset (Apache XML Graphics EPS ProcSet) 1.0 0
%%Version: 1.0 0
%%Copyright: (Copyright 2002-2003 The Apache Software Foundation. License terms: http://www.apache.org/licenses/LICENSE-2.0)
/BeginEPSF { %def
/b4_Inc_state save def         % Save state for cleanup
/dict_count countdictstack def % Count objects on dict stack
/op_count count 1 sub def      % Count objects on operand stack
userdict begin                 % Push userdict on dict stack
/showpage { } def              % Redefine showpage, { } = null proc
0 setgray 0 setlinecap         % Prepare graphics state
1 setlinewidth 0 setlinejoin
10 setmiterlimit [ ] 0 setdash newpath
/languagelevel where           % If level not equal to 1 then
{pop languagelevel             % set strokeadjust and
1 ne                           % overprint to their defaults.
{false setstrokeadjust false setoverprint
} if
} if
} bd
/EndEPSF { %def
count op_count sub {pop} repeat            % Clean up stacks
countdictstack dict_count sub {end} repeat
b4_Inc_state restore
} bd
%%EndResource
%FOPBeginFontDict
%%IncludeResource: font Courier-Bold
%%IncludeResource: font Helvetica
%%IncludeResource: font Courier-BoldOblique
%%IncludeResource: font Courier-Oblique
%%IncludeResource: font Times-Roman
%%IncludeResource: font Helvetica-BoldOblique
%%IncludeResource: font Helvetica-Bold
%%IncludeResource: font Helvetica-Oblique
%%IncludeResource: font Times-BoldItalic
%%IncludeResource: font Courier
%%IncludeResource: font Times-Italic
%%IncludeResource: font Times-Bold
%%IncludeResource: font Symbol
%%IncludeResource: font ZapfDingbats
%FOPEndFontDict
%%BeginResource: encoding WinAnsiEncoding
/WinAnsiEncoding [
/.notdef /.notdef /.notdef /.notdef /.notdef
/.notdef /.notdef /.notdef /.notdef /.notdef
/.notdef /.notdef /.notdef /.notdef /.notdef
/.notdef /.notdef /.notdef /.notdef /.notdef
/.notdef /.notdef /.notdef /.notdef /.notdef
/.notdef /.notdef /.notdef /.notdef /.notdef
/.notdef /.notdef /space /exclam /quotedbl
/numbersign /dollar /percent /ampersand /quotesingle
/parenleft /parenright /asterisk /plus /comma
/hyphen /period /slash /zero /one
/two /three /four /five /six
/seven /eight /nine /colon /semicolon
/less /equal /greater /question /at
/A /B /C /D /E
/F /G /H /I /J
/K /L /M /N /O
/P /Q /R /S /T
/U /V /W /X /Y
/Z /bracketleft /backslash /bracketright /asciicircum
/underscore /quoteleft /a /b /c
/d /e /f /g /h
/i /j /k /l /m
/n /o /p /q /r
/s /t /u /v /w
/x /y /z /braceleft /bar
/braceright /asciitilde /bullet /Euro /bullet
/quotesinglbase /florin /quotedblbase /ellipsis /dagger
/daggerdbl /circumflex /perthousand /Scaron /guilsinglleft
/OE /bullet /Zcaron /bullet /bullet
/quoteleft /quoteright /quotedblleft /quotedblright /bullet
/endash /emdash /asciitilde /trademark /scaron
/guilsinglright /oe /bullet /zcaron /Ydieresis
/space /exclamdown /cent /sterling /currency
/yen /brokenbar /section /dieresis /copyright
/ordfeminine /guillemotleft /logicalnot /sfthyphen /registered
/macron /degree /plusminus /twosuperior /threesuperior
/acute /mu /paragraph /middot /cedilla
/onesuperior /ordmasculine /guillemotright /onequarter /onehalf
/threequarters /questiondown /Agrave /Aacute /Acircumflex
/Atilde /Adieresis /Aring /AE /Ccedilla
/Egrave /Eacute /Ecircumflex /Edieresis /Igrave
/Iacute /Icircumflex /Idieresis /Eth /Ntilde
/Ograve /Oacute /Ocircumflex /Otilde /Odieresis
/multiply /Oslash /Ugrave /Uacute /Ucircumflex
/Udieresis /Yacute /Thorn /germandbls /agrave
/aacute /acircumflex /atilde /adieresis /aring
/ae /ccedilla /egrave /eacute /ecircumflex
/edieresis /igrave /iacute /icircumflex /idieresis
/eth /ntilde /ograve /oacute /ocircumflex
/otilde /odieresis /divide /oslash /ugrave
/uacute /ucircumflex /udieresis /yacute /thorn
/ydieresis
] def
%%EndResource
%FOPBeginFontReencode
/Courier-Bold findfont
dup length dict begin
  {1 index /FID ne {def} {pop pop} ifelse} forall
  /Encoding WinAnsiEncoding def
  currentdict
end
/Courier-Bold exch definefont pop
/Helvetica findfont
dup length dict begin
  {1 index /FID ne {def} {pop pop} ifelse} forall
  /Encoding WinAnsiEncoding def
  currentdict
end
/Helvetica exch definefont pop
/Courier-BoldOblique findfont
dup length dict begin
  {1 index /FID ne {def} {pop pop} ifelse} forall
  /Encoding WinAnsiEncoding def
  currentdict
end
/Courier-BoldOblique exch definefont pop
/Courier-Oblique findfont
dup length dict begin
  {1 index /FID ne {def} {pop pop} ifelse} forall
  /Encoding WinAnsiEncoding def
  currentdict
end
/Courier-Oblique exch definefont pop
/Times-Roman findfont
dup length dict begin
  {1 index /FID ne {def} {pop pop} ifelse} forall
  /Encoding WinAnsiEncoding def
  currentdict
end
/Times-Roman exch definefont pop
/Helvetica-BoldOblique findfont
dup length dict begin
  {1 index /FID ne {def} {pop pop} ifelse} forall
  /Encoding WinAnsiEncoding def
  currentdict
end
/Helvetica-BoldOblique exch definefont pop
/Helvetica-Bold findfont
dup length dict begin
  {1 index /FID ne {def} {pop pop} ifelse} forall
  /Encoding WinAnsiEncoding def
  currentdict
end
/Helvetica-Bold exch definefont pop
/Helvetica-Oblique findfont
dup length dict begin
  {1 index /FID ne {def} {pop pop} ifelse} forall
  /Encoding WinAnsiEncoding def
  currentdict
end
/Helvetica-Oblique exch definefont pop
/Times-BoldItalic findfont
dup length dict begin
  {1 index /FID ne {def} {pop pop} ifelse} forall
  /Encoding WinAnsiEncoding def
  currentdict
end
/Times-BoldItalic exch definefont pop
/Courier findfont
dup length dict begin
  {1 index /FID ne {def} {pop pop} ifelse} forall
  /Encoding WinAnsiEncoding def
  currentdict
end
/Courier exch definefont pop
/Times-Italic findfont
dup length dict begin
  {1 index /FID ne {def} {pop pop} ifelse} forall
  /Encoding WinAnsiEncoding def
  currentdict
end
/Times-Italic exch definefont pop
/Times-Bold findfont
dup length dict begin
  {1 index /FID ne {def} {pop pop} ifelse} forall
  /Encoding WinAnsiEncoding def
  currentdict
end
/Times-Bold exch definefont pop
%FOPEndFontReencode
%%EndProlog
%%Page: 1 1
%%PageBoundingBox: 0 0 684 358
%%BeginPageSetup
[1 0 0 -1 0 358] CT
%%EndPageSetup
GS
[0.75 0 0 0.75 0 0.25] CT
1 GC
N
0 0 912 477 re
f
GR
GS
[0.75 0 0 0.75 0 0.25] CT
1 GC
N
0 0 912 477 re
f
GR
GS
[0.75 0 0 0.75 0 0.25] CT
1 GC
N
119 198 M
825 198 L
825 36 L
119 36 L
cp
f
GR
GS
[0.75 0 0 0.75 354.00034 25.1875] CT
/Helvetica-Bold 14.667 F
GS
[1 0 0 1 0 0] CT
-139 -4 moveto 
1 -1 scale
(Comparison of translation errors) t 
GR
GR
GS
[0.75 0 0 0.75 0 0.25] CT
0.149 GC
1 LJ
0.667 LW
N
119 198 M
825 198 L
S
GR
GS
[0.75 0 0 0.75 0 0.25] CT
0.929 0.694 0.125 RC
N
135.212 198 M
139.396 198 L
139.396 84.066 L
135.212 84.066 L
cp
f
GR
GS
[0.75 0 0 0.75 0 0.25] CT
0.929 0.694 0.125 RC
N
158.745 198 M
162.929 198 L
162.929 138.369 L
158.745 138.369 L
cp
f
GR
GS
[0.75 0 0 0.75 0 0.25] CT
0.929 0.694 0.125 RC
N
182.279 198 M
186.462 198 L
186.462 162.641 L
182.279 162.641 L
cp
f
GR
GS
[0.75 0 0 0.75 0 0.25] CT
0.929 0.694 0.125 RC
N
205.812 198 M
209.996 198 L
209.996 41.193 L
205.812 41.193 L
cp
f
GR
GS
[0.75 0 0 0.75 0 0.25] CT
0.929 0.694 0.125 RC
N
229.345 198 M
233.529 198 L
233.529 154.288 L
229.345 154.288 L
cp
f
GR
GS
[0.75 0 0 0.75 0 0.25] CT
0.929 0.694 0.125 RC
N
252.879 198 M
257.062 198 L
257.062 114.989 L
252.879 114.989 L
cp
f
GR
GS
[0.75 0 0 0.75 0 0.25] CT
0.929 0.694 0.125 RC
N
276.412 198 M
280.596 198 L
280.596 191.741 L
276.412 191.741 L
cp
f
GR
GS
[0.75 0 0 0.75 0 0.25] CT
0.929 0.694 0.125 RC
N
299.945 198 M
304.129 198 L
304.129 197.604 L
299.945 197.604 L
cp
f
GR
GS
[0.75 0 0 0.75 0 0.25] CT
0.929 0.694 0.125 RC
N
323.479 198 M
327.662 198 L
327.662 102.537 L
323.479 102.537 L
cp
f
GR
GS
[0.75 0 0 0.75 0 0.25] CT
0.929 0.694 0.125 RC
N
347.012 198 M
351.196 198 L
351.196 60.706 L
347.012 60.706 L
cp
f
GR
GS
[0.75 0 0 0.75 0 0.25] CT
0.929 0.694 0.125 RC
N
370.545 198 M
374.729 198 L
374.729 146.253 L
370.545 146.253 L
cp
f
GR
GS
[0.75 0 0 0.75 0 0.25] CT
0.929 0.694 0.125 RC
N
394.079 198 M
398.262 198 L
398.262 149.09 L
394.079 149.09 L
cp
f
GR
GS
[0.75 0 0 0.75 0 0.25] CT
0.929 0.694 0.125 RC
N
417.612 198 M
421.796 198 L
421.796 75.841 L
417.612 75.841 L
cp
f
GR
GS
[0.75 0 0 0.75 0 0.25] CT
0.929 0.694 0.125 RC
N
441.145 198 M
445.329 198 L
445.329 102.925 L
441.145 102.925 L
cp
f
GR
GS
[0.75 0 0 0.75 0 0.25] CT
0.929 0.694 0.125 RC
N
464.678 198 M
468.862 198 L
468.862 144.047 L
464.678 144.047 L
cp
f
GR
GS
[0.75 0 0 0.75 0 0.25] CT
0.929 0.694 0.125 RC
N
488.212 198 M
492.396 198 L
492.396 156.793 L
488.212 156.793 L
cp
f
GR
GS
[0.75 0 0 0.75 0 0.25] CT
0.929 0.694 0.125 RC
N
511.745 198 M
515.929 198 L
515.929 64.411 L
511.745 64.411 L
cp
f
GR
GS
[0.75 0 0 0.75 0 0.25] CT
0.929 0.694 0.125 RC
N
535.279 198 M
539.462 198 L
539.462 61.703 L
535.279 61.703 L
cp
f
GR
GS
[0.75 0 0 0.75 0 0.25] CT
0.929 0.694 0.125 RC
N
558.812 198 M
562.996 198 L
562.996 104.938 L
558.812 104.938 L
cp
f
GR
GS
[0.75 0 0 0.75 0 0.25] CT
0.929 0.694 0.125 RC
N
582.345 198 M
586.529 198 L
586.529 196.843 L
582.345 196.843 L
cp
f
GR
GS
[0.75 0 0 0.75 0 0.25] CT
0.929 0.694 0.125 RC
N
605.879 198 M
610.062 198 L
610.062 145.056 L
605.879 145.056 L
cp
f
GR
GS
[0.75 0 0 0.75 0 0.25] CT
0.929 0.694 0.125 RC
N
629.412 198 M
633.596 198 L
633.596 176.169 L
629.412 176.169 L
cp
f
GR
GS
[0.75 0 0 0.75 0 0.25] CT
0.929 0.694 0.125 RC
N
652.945 198 M
657.129 198 L
657.129 49.138 L
652.945 49.138 L
cp
f
GR
GS
[0.75 0 0 0.75 0 0.25] CT
0.929 0.694 0.125 RC
N
676.479 198 M
680.662 198 L
680.662 93.314 L
676.479 93.314 L
cp
f
GR
GS
[0.75 0 0 0.75 0 0.25] CT
0.929 0.694 0.125 RC
N
700.012 198 M
704.196 198 L
704.196 136.194 L
700.012 136.194 L
cp
f
GR
GS
[0.75 0 0 0.75 0 0.25] CT
0.929 0.694 0.125 RC
N
723.545 198 M
727.729 198 L
727.729 144.625 L
723.545 144.625 L
cp
f
GR
GS
[0.75 0 0 0.75 0 0.25] CT
0.929 0.694 0.125 RC
N
747.078 198 M
751.262 198 L
751.262 129.582 L
747.078 129.582 L
cp
f
GR
GS
[0.75 0 0 0.75 0 0.25] CT
0.929 0.694 0.125 RC
N
770.612 198 M
774.796 198 L
774.796 169.205 L
770.612 169.205 L
cp
f
GR
GS
[0.75 0 0 0.75 0 0.25] CT
0.929 0.694 0.125 RC
N
794.145 198 M
798.329 198 L
798.329 136.915 L
794.145 136.915 L
cp
f
GR
GS
[0.75 0 0 0.75 0 0.25] CT
10.0 ML
0.667 LW
N
135.212 198 M
135.212 84.066 L
139.396 84.066 L
139.396 198 L
cp
S
GR
GS
[0.75 0 0 0.75 0 0.25] CT
10.0 ML
0.667 LW
N
158.745 198 M
158.745 138.369 L
162.929 138.369 L
162.929 198 L
cp
S
GR
GS
[0.75 0 0 0.75 0 0.25] CT
10.0 ML
0.667 LW
N
182.279 198 M
182.279 162.641 L
186.462 162.641 L
186.462 198 L
cp
S
GR
GS
[0.75 0 0 0.75 0 0.25] CT
10.0 ML
0.667 LW
N
205.812 198 M
205.812 41.193 L
209.996 41.193 L
209.996 198 L
cp
S
GR
GS
[0.75 0 0 0.75 0 0.25] CT
10.0 ML
0.667 LW
N
229.345 198 M
229.345 154.288 L
233.529 154.288 L
233.529 198 L
cp
S
GR
GS
[0.75 0 0 0.75 0 0.25] CT
10.0 ML
0.667 LW
N
252.879 198 M
252.879 114.989 L
257.062 114.989 L
257.062 198 L
cp
S
GR
GS
[0.75 0 0 0.75 0 0.25] CT
10.0 ML
0.667 LW
N
276.412 198 M
276.412 191.741 L
280.596 191.741 L
280.596 198 L
cp
S
GR
GS
[0.75 0 0 0.75 0 0.25] CT
10.0 ML
0.667 LW
N
299.945 198 M
299.945 197.604 L
304.129 197.604 L
304.129 198 L
cp
S
GR
GS
[0.75 0 0 0.75 0 0.25] CT
10.0 ML
0.667 LW
N
323.479 198 M
323.479 102.537 L
327.662 102.537 L
327.662 198 L
cp
S
GR
GS
[0.75 0 0 0.75 0 0.25] CT
10.0 ML
0.667 LW
N
347.012 198 M
347.012 60.706 L
351.196 60.706 L
351.196 198 L
cp
S
GR
GS
[0.75 0 0 0.75 0 0.25] CT
10.0 ML
0.667 LW
N
370.545 198 M
370.545 146.253 L
374.729 146.253 L
374.729 198 L
cp
S
GR
GS
[0.75 0 0 0.75 0 0.25] CT
10.0 ML
0.667 LW
N
394.079 198 M
394.079 149.09 L
398.262 149.09 L
398.262 198 L
cp
S
GR
GS
[0.75 0 0 0.75 0 0.25] CT
10.0 ML
0.667 LW
N
417.612 198 M
417.612 75.841 L
421.796 75.841 L
421.796 198 L
cp
S
GR
GS
[0.75 0 0 0.75 0 0.25] CT
10.0 ML
0.667 LW
N
441.145 198 M
441.145 102.925 L
445.329 102.925 L
445.329 198 L
cp
S
GR
GS
[0.75 0 0 0.75 0 0.25] CT
10.0 ML
0.667 LW
N
464.678 198 M
464.678 144.047 L
468.862 144.047 L
468.862 198 L
cp
S
GR
GS
[0.75 0 0 0.75 0 0.25] CT
10.0 ML
0.667 LW
N
488.212 198 M
488.212 156.793 L
492.396 156.793 L
492.396 198 L
cp
S
GR
GS
[0.75 0 0 0.75 0 0.25] CT
10.0 ML
0.667 LW
N
511.745 198 M
511.745 64.411 L
515.929 64.411 L
515.929 198 L
cp
S
GR
GS
[0.75 0 0 0.75 0 0.25] CT
10.0 ML
0.667 LW
N
535.279 198 M
535.279 61.703 L
539.462 61.703 L
539.462 198 L
cp
S
GR
GS
[0.75 0 0 0.75 0 0.25] CT
10.0 ML
0.667 LW
N
558.812 198 M
558.812 104.938 L
562.996 104.938 L
562.996 198 L
cp
S
GR
GS
[0.75 0 0 0.75 0 0.25] CT
10.0 ML
0.667 LW
N
582.345 198 M
582.345 196.843 L
586.529 196.843 L
586.529 198 L
cp
S
GR
GS
[0.75 0 0 0.75 0 0.25] CT
10.0 ML
0.667 LW
N
605.879 198 M
605.879 145.056 L
610.062 145.056 L
610.062 198 L
cp
S
GR
GS
[0.75 0 0 0.75 0 0.25] CT
10.0 ML
0.667 LW
N
629.412 198 M
629.412 176.169 L
633.596 176.169 L
633.596 198 L
cp
S
GR
GS
[0.75 0 0 0.75 0 0.25] CT
10.0 ML
0.667 LW
N
652.945 198 M
652.945 49.138 L
657.129 49.138 L
657.129 198 L
cp
S
GR
GS
[0.75 0 0 0.75 0 0.25] CT
10.0 ML
0.667 LW
N
676.479 198 M
676.479 93.314 L
680.662 93.314 L
680.662 198 L
cp
S
GR
GS
[0.75 0 0 0.75 0 0.25] CT
10.0 ML
0.667 LW
N
700.012 198 M
700.012 136.194 L
704.196 136.194 L
704.196 198 L
cp
S
GR
GS
[0.75 0 0 0.75 0 0.25] CT
10.0 ML
0.667 LW
N
723.545 198 M
723.545 144.625 L
727.729 144.625 L
727.729 198 L
cp
S
GR
GS
[0.75 0 0 0.75 0 0.25] CT
10.0 ML
0.667 LW
N
747.078 198 M
747.078 129.582 L
751.262 129.582 L
751.262 198 L
cp
S
GR
GS
[0.75 0 0 0.75 0 0.25] CT
10.0 ML
0.667 LW
N
770.612 198 M
770.612 169.205 L
774.796 169.205 L
774.796 198 L
cp
S
GR
GS
[0.75 0 0 0.75 0 0.25] CT
10.0 ML
0.667 LW
N
794.145 198 M
794.145 136.915 L
798.329 136.915 L
798.329 198 L
cp
S
GR
GS
[0.75 0 0 0.75 0 0.25] CT
0.302 0.745 0.933 RC
N
140.441 198 M
144.625 198 L
144.625 84.058 L
140.441 84.058 L
cp
f
GR
GS
[0.75 0 0 0.75 0 0.25] CT
0.302 0.745 0.933 RC
N
163.975 198 M
168.159 198 L
168.159 138.362 L
163.975 138.362 L
cp
f
GR
GS
[0.75 0 0 0.75 0 0.25] CT
0.302 0.745 0.933 RC
N
187.508 198 M
191.692 198 L
191.692 162.623 L
187.508 162.623 L
cp
f
GR
GS
[0.75 0 0 0.75 0 0.25] CT
0.302 0.745 0.933 RC
N
211.041 198 M
215.225 198 L
215.225 39.232 L
211.041 39.232 L
cp
f
GR
GS
[0.75 0 0 0.75 0 0.25] CT
0.302 0.745 0.933 RC
N
234.575 198 M
238.759 198 L
238.759 154.29 L
234.575 154.29 L
cp
f
GR
GS
[0.75 0 0 0.75 0 0.25] CT
0.302 0.745 0.933 RC
N
258.108 198 M
262.292 198 L
262.292 117.061 L
258.108 117.061 L
cp
f
GR
GS
[0.75 0 0 0.75 0 0.25] CT
0.302 0.745 0.933 RC
N
281.641 198 M
285.825 198 L
285.825 191.803 L
281.641 191.803 L
cp
f
GR
GS
[0.75 0 0 0.75 0 0.25] CT
0.302 0.745 0.933 RC
N
305.175 198 M
309.359 198 L
309.359 197.46 L
305.175 197.46 L
cp
f
GR
GS
[0.75 0 0 0.75 0 0.25] CT
0.302 0.745 0.933 RC
N
328.708 198 M
332.892 198 L
332.892 102.464 L
328.708 102.464 L
cp
f
GR
GS
[0.75 0 0 0.75 0 0.25] CT
0.302 0.745 0.933 RC
N
352.241 198 M
356.425 198 L
356.425 68.106 L
352.241 68.106 L
cp
f
GR
GS
[0.75 0 0 0.75 0 0.25] CT
0.302 0.745 0.933 RC
N
375.775 198 M
379.959 198 L
379.959 146.25 L
375.775 146.25 L
cp
f
GR
GS
[0.75 0 0 0.75 0 0.25] CT
0.302 0.745 0.933 RC
N
399.308 198 M
403.492 198 L
403.492 149.109 L
399.308 149.109 L
cp
f
GR
GS
[0.75 0 0 0.75 0 0.25] CT
0.302 0.745 0.933 RC
N
422.841 198 M
427.025 198 L
427.025 76.06 L
422.841 76.06 L
cp
f
GR
GS
[0.75 0 0 0.75 0 0.25] CT
0.302 0.745 0.933 RC
N
446.375 198 M
450.559 198 L
450.559 102.454 L
446.375 102.454 L
cp
f
GR
GS
[0.75 0 0 0.75 0 0.25] CT
0.302 0.745 0.933 RC
N
469.908 198 M
474.092 198 L
474.092 144.055 L
469.908 144.055 L
cp
f
GR
GS
[0.75 0 0 0.75 0 0.25] CT
0.302 0.745 0.933 RC
N
493.441 198 M
497.625 198 L
497.625 157.417 L
493.441 157.417 L
cp
f
GR
GS
[0.75 0 0 0.75 0 0.25] CT
0.302 0.745 0.933 RC
N
516.975 198 M
521.159 198 L
521.159 59.042 L
516.975 59.042 L
cp
f
GR
GS
[0.75 0 0 0.75 0 0.25] CT
0.302 0.745 0.933 RC
N
540.508 198 M
544.692 198 L
544.692 58.928 L
540.508 58.928 L
cp
f
GR
GS
[0.75 0 0 0.75 0 0.25] CT
0.302 0.745 0.933 RC
N
564.042 198 M
568.225 198 L
568.225 103.017 L
564.042 103.017 L
cp
f
GR
GS
[0.75 0 0 0.75 0 0.25] CT
0.302 0.745 0.933 RC
N
587.575 198 M
591.758 198 L
591.758 193.002 L
587.575 193.002 L
cp
f
GR
GS
[0.75 0 0 0.75 0 0.25] CT
0.302 0.745 0.933 RC
N
611.108 198 M
615.292 198 L
615.292 145.095 L
611.108 145.095 L
cp
f
GR
GS
[0.75 0 0 0.75 0 0.25] CT
0.302 0.745 0.933 RC
N
634.641 198 M
638.825 198 L
638.825 176.151 L
634.641 176.151 L
cp
f
GR
GS
[0.75 0 0 0.75 0 0.25] CT
0.302 0.745 0.933 RC
N
658.175 198 M
662.359 198 L
662.359 49.131 L
658.175 49.131 L
cp
f
GR
GS
[0.75 0 0 0.75 0 0.25] CT
0.302 0.745 0.933 RC
N
681.708 198 M
685.892 198 L
685.892 92.788 L
681.708 92.788 L
cp
f
GR
GS
[0.75 0 0 0.75 0 0.25] CT
0.302 0.745 0.933 RC
N
705.242 198 M
709.425 198 L
709.425 136.238 L
705.242 136.238 L
cp
f
GR
GS
[0.75 0 0 0.75 0 0.25] CT
0.302 0.745 0.933 RC
N
728.775 198 M
732.958 198 L
732.958 144.623 L
728.775 144.623 L
cp
f
GR
GS
[0.75 0 0 0.75 0 0.25] CT
0.302 0.745 0.933 RC
N
752.308 198 M
756.492 198 L
756.492 129.574 L
752.308 129.574 L
cp
f
GR
GS
[0.75 0 0 0.75 0 0.25] CT
0.302 0.745 0.933 RC
N
775.841 198 M
780.025 198 L
780.025 169.205 L
775.841 169.205 L
cp
f
GR
GS
[0.75 0 0 0.75 0 0.25] CT
0.302 0.745 0.933 RC
N
799.375 198 M
803.558 198 L
803.558 137.074 L
799.375 137.074 L
cp
f
GR
GS
[0.75 0 0 0.75 0 0.25] CT
10.0 ML
0.667 LW
N
140.441 198 M
140.441 84.058 L
144.625 84.058 L
144.625 198 L
cp
S
GR
GS
[0.75 0 0 0.75 0 0.25] CT
10.0 ML
0.667 LW
N
163.975 198 M
163.975 138.362 L
168.159 138.362 L
168.159 198 L
cp
S
GR
GS
[0.75 0 0 0.75 0 0.25] CT
10.0 ML
0.667 LW
N
187.508 198 M
187.508 162.623 L
191.692 162.623 L
191.692 198 L
cp
S
GR
GS
[0.75 0 0 0.75 0 0.25] CT
10.0 ML
0.667 LW
N
211.041 198 M
211.041 39.232 L
215.225 39.232 L
215.225 198 L
cp
S
GR
GS
[0.75 0 0 0.75 0 0.25] CT
10.0 ML
0.667 LW
N
234.575 198 M
234.575 154.29 L
238.759 154.29 L
238.759 198 L
cp
S
GR
GS
[0.75 0 0 0.75 0 0.25] CT
10.0 ML
0.667 LW
N
258.108 198 M
258.108 117.061 L
262.292 117.061 L
262.292 198 L
cp
S
GR
GS
[0.75 0 0 0.75 0 0.25] CT
10.0 ML
0.667 LW
N
281.641 198 M
281.641 191.803 L
285.825 191.803 L
285.825 198 L
cp
S
GR
GS
[0.75 0 0 0.75 0 0.25] CT
10.0 ML
0.667 LW
N
305.175 198 M
305.175 197.46 L
309.359 197.46 L
309.359 198 L
cp
S
GR
GS
[0.75 0 0 0.75 0 0.25] CT
10.0 ML
0.667 LW
N
328.708 198 M
328.708 102.464 L
332.892 102.464 L
332.892 198 L
cp
S
GR
GS
[0.75 0 0 0.75 0 0.25] CT
10.0 ML
0.667 LW
N
352.241 198 M
352.241 68.106 L
356.425 68.106 L
356.425 198 L
cp
S
GR
GS
[0.75 0 0 0.75 0 0.25] CT
10.0 ML
0.667 LW
N
375.775 198 M
375.775 146.25 L
379.959 146.25 L
379.959 198 L
cp
S
GR
GS
[0.75 0 0 0.75 0 0.25] CT
10.0 ML
0.667 LW
N
399.308 198 M
399.308 149.109 L
403.492 149.109 L
403.492 198 L
cp
S
GR
GS
[0.75 0 0 0.75 0 0.25] CT
10.0 ML
0.667 LW
N
422.841 198 M
422.841 76.06 L
427.025 76.06 L
427.025 198 L
cp
S
GR
GS
[0.75 0 0 0.75 0 0.25] CT
10.0 ML
0.667 LW
N
446.375 198 M
446.375 102.454 L
450.559 102.454 L
450.559 198 L
cp
S
GR
GS
[0.75 0 0 0.75 0 0.25] CT
10.0 ML
0.667 LW
N
469.908 198 M
469.908 144.055 L
474.092 144.055 L
474.092 198 L
cp
S
GR
GS
[0.75 0 0 0.75 0 0.25] CT
10.0 ML
0.667 LW
N
493.441 198 M
493.441 157.417 L
497.625 157.417 L
497.625 198 L
cp
S
GR
GS
[0.75 0 0 0.75 0 0.25] CT
10.0 ML
0.667 LW
N
516.975 198 M
516.975 59.042 L
521.159 59.042 L
521.159 198 L
cp
S
GR
GS
[0.75 0 0 0.75 0 0.25] CT
10.0 ML
0.667 LW
N
540.508 198 M
540.508 58.928 L
544.692 58.928 L
544.692 198 L
cp
S
GR
GS
[0.75 0 0 0.75 0 0.25] CT
10.0 ML
0.667 LW
N
564.042 198 M
564.042 103.017 L
568.225 103.017 L
568.225 198 L
cp
S
GR
GS
[0.75 0 0 0.75 0 0.25] CT
10.0 ML
0.667 LW
N
587.575 198 M
587.575 193.002 L
591.758 193.002 L
591.758 198 L
cp
S
GR
GS
[0.75 0 0 0.75 0 0.25] CT
10.0 ML
0.667 LW
N
611.108 198 M
611.108 145.095 L
615.292 145.095 L
615.292 198 L
cp
S
GR
GS
[0.75 0 0 0.75 0 0.25] CT
10.0 ML
0.667 LW
N
634.641 198 M
634.641 176.151 L
638.825 176.151 L
638.825 198 L
cp
S
GR
GS
[0.75 0 0 0.75 0 0.25] CT
10.0 ML
0.667 LW
N
658.175 198 M
658.175 49.131 L
662.359 49.131 L
662.359 198 L
cp
S
GR
GS
[0.75 0 0 0.75 0 0.25] CT
10.0 ML
0.667 LW
N
681.708 198 M
681.708 92.788 L
685.892 92.788 L
685.892 198 L
cp
S
GR
GS
[0.75 0 0 0.75 0 0.25] CT
10.0 ML
0.667 LW
N
705.242 198 M
705.242 136.238 L
709.425 136.238 L
709.425 198 L
cp
S
GR
GS
[0.75 0 0 0.75 0 0.25] CT
10.0 ML
0.667 LW
N
728.775 198 M
728.775 144.623 L
732.958 144.623 L
732.958 198 L
cp
S
GR
GS
[0.75 0 0 0.75 0 0.25] CT
10.0 ML
0.667 LW
N
752.308 198 M
752.308 129.574 L
756.492 129.574 L
756.492 198 L
cp
S
GR
GS
[0.75 0 0 0.75 0 0.25] CT
10.0 ML
0.667 LW
N
775.841 198 M
775.841 169.205 L
780.025 169.205 L
780.025 198 L
cp
S
GR
GS
[0.75 0 0 0.75 0 0.25] CT
10.0 ML
0.667 LW
N
799.375 198 M
799.375 137.074 L
803.558 137.074 L
803.558 198 L
cp
S
GR
GS
[0.75 0 0 0.75 0 0.25] CT
0.635 0.078 0.184 RC
N
145.671 198 M
149.855 198 L
149.855 84.059 L
145.671 84.059 L
cp
f
GR
GS
[0.75 0 0 0.75 0 0.25] CT
0.635 0.078 0.184 RC
N
169.204 198 M
173.388 198 L
173.388 138.361 L
169.204 138.361 L
cp
f
GR
GS
[0.75 0 0 0.75 0 0.25] CT
0.635 0.078 0.184 RC
N
192.738 198 M
196.921 198 L
196.921 162.627 L
192.738 162.627 L
cp
f
GR
GS
[0.75 0 0 0.75 0 0.25] CT
0.635 0.078 0.184 RC
N
216.271 198 M
220.455 198 L
220.455 39.236 L
216.271 39.236 L
cp
f
GR
GS
[0.75 0 0 0.75 0 0.25] CT
0.635 0.078 0.184 RC
N
239.804 198 M
243.988 198 L
243.988 154.29 L
239.804 154.29 L
cp
f
GR
GS
[0.75 0 0 0.75 0 0.25] CT
0.635 0.078 0.184 RC
N
263.338 198 M
267.521 198 L
267.521 117.063 L
263.338 117.063 L
cp
f
GR
GS
[0.75 0 0 0.75 0 0.25] CT
0.635 0.078 0.184 RC
N
286.871 198 M
291.055 198 L
291.055 191.839 L
286.871 191.839 L
cp
f
GR
GS
[0.75 0 0 0.75 0 0.25] CT
0.635 0.078 0.184 RC
N
310.404 198 M
314.588 198 L
314.588 197.559 L
310.404 197.559 L
cp
f
GR
GS
[0.75 0 0 0.75 0 0.25] CT
0.635 0.078 0.184 RC
N
333.938 198 M
338.121 198 L
338.121 102.465 L
333.938 102.465 L
cp
f
GR
GS
[0.75 0 0 0.75 0 0.25] CT
0.635 0.078 0.184 RC
N
357.471 198 M
361.655 198 L
361.655 68.082 L
357.471 68.082 L
cp
f
GR
GS
[0.75 0 0 0.75 0 0.25] CT
0.635 0.078 0.184 RC
N
381.004 198 M
385.188 198 L
385.188 146.249 L
381.004 146.249 L
cp
f
GR
GS
[0.75 0 0 0.75 0 0.25] CT
0.635 0.078 0.184 RC
N
404.538 198 M
408.721 198 L
408.721 149.109 L
404.538 149.109 L
cp
f
GR
GS
[0.75 0 0 0.75 0 0.25] CT
0.635 0.078 0.184 RC
N
428.071 198 M
432.255 198 L
432.255 76.069 L
428.071 76.069 L
cp
f
GR
GS
[0.75 0 0 0.75 0 0.25] CT
0.635 0.078 0.184 RC
N
451.604 198 M
455.788 198 L
455.788 102.527 L
451.604 102.527 L
cp
f
GR
GS
[0.75 0 0 0.75 0 0.25] CT
0.635 0.078 0.184 RC
N
475.138 198 M
479.322 198 L
479.322 144.057 L
475.138 144.057 L
cp
f
GR
GS
[0.75 0 0 0.75 0 0.25] CT
0.635 0.078 0.184 RC
N
498.671 198 M
502.855 198 L
502.855 157.417 L
498.671 157.417 L
cp
f
GR
GS
[0.75 0 0 0.75 0 0.25] CT
0.635 0.078 0.184 RC
N
522.204 198 M
526.388 198 L
526.388 59.049 L
522.204 59.049 L
cp
f
GR
GS
[0.75 0 0 0.75 0 0.25] CT
0.635 0.078 0.184 RC
N
545.738 198 M
549.922 198 L
549.922 58.93 L
545.738 58.93 L
cp
f
GR
GS
[0.75 0 0 0.75 0 0.25] CT
0.635 0.078 0.184 RC
N
569.271 198 M
573.455 198 L
573.455 103.054 L
569.271 103.054 L
cp
f
GR
GS
[0.75 0 0 0.75 0 0.25] CT
0.635 0.078 0.184 RC
N
592.804 198 M
596.988 198 L
596.988 193.03 L
592.804 193.03 L
cp
f
GR
GS
[0.75 0 0 0.75 0 0.25] CT
0.635 0.078 0.184 RC
N
616.338 198 M
620.521 198 L
620.521 145.095 L
616.338 145.095 L
cp
f
GR
GS
[0.75 0 0 0.75 0 0.25] CT
0.635 0.078 0.184 RC
N
639.871 198 M
644.055 198 L
644.055 176.151 L
639.871 176.151 L
cp
f
GR
GS
[0.75 0 0 0.75 0 0.25] CT
0.635 0.078 0.184 RC
N
663.404 198 M
667.588 198 L
667.588 49.134 L
663.404 49.134 L
cp
f
GR
GS
[0.75 0 0 0.75 0 0.25] CT
0.635 0.078 0.184 RC
N
686.938 198 M
691.121 198 L
691.121 92.809 L
686.938 92.809 L
cp
f
GR
GS
[0.75 0 0 0.75 0 0.25] CT
0.635 0.078 0.184 RC
N
710.471 198 M
714.655 198 L
714.655 136.292 L
710.471 136.292 L
cp
f
GR
GS
[0.75 0 0 0.75 0 0.25] CT
0.635 0.078 0.184 RC
N
734.004 198 M
738.188 198 L
738.188 144.626 L
734.004 144.626 L
cp
f
GR
GS
[0.75 0 0 0.75 0 0.25] CT
0.635 0.078 0.184 RC
N
757.538 198 M
761.721 198 L
761.721 129.574 L
757.538 129.574 L
cp
f
GR
GS
[0.75 0 0 0.75 0 0.25] CT
0.635 0.078 0.184 RC
N
781.071 198 M
785.255 198 L
785.255 169.205 L
781.071 169.205 L
cp
f
GR
GS
[0.75 0 0 0.75 0 0.25] CT
0.635 0.078 0.184 RC
N
804.604 198 M
808.788 198 L
808.788 137.075 L
804.604 137.075 L
cp
f
GR
GS
[0.75 0 0 0.75 0 0.25] CT
10.0 ML
0.667 LW
N
145.671 198 M
145.671 84.059 L
149.855 84.059 L
149.855 198 L
cp
S
GR
GS
[0.75 0 0 0.75 0 0.25] CT
10.0 ML
0.667 LW
N
169.204 198 M
169.204 138.361 L
173.388 138.361 L
173.388 198 L
cp
S
GR
GS
[0.75 0 0 0.75 0 0.25] CT
10.0 ML
0.667 LW
N
192.738 198 M
192.738 162.627 L
196.921 162.627 L
196.921 198 L
cp
S
GR
GS
[0.75 0 0 0.75 0 0.25] CT
10.0 ML
0.667 LW
N
216.271 198 M
216.271 39.236 L
220.455 39.236 L
220.455 198 L
cp
S
GR
GS
[0.75 0 0 0.75 0 0.25] CT
10.0 ML
0.667 LW
N
239.804 198 M
239.804 154.29 L
243.988 154.29 L
243.988 198 L
cp
S
GR
GS
[0.75 0 0 0.75 0 0.25] CT
10.0 ML
0.667 LW
N
263.338 198 M
263.338 117.063 L
267.521 117.063 L
267.521 198 L
cp
S
GR
GS
[0.75 0 0 0.75 0 0.25] CT
10.0 ML
0.667 LW
N
286.871 198 M
286.871 191.839 L
291.055 191.839 L
291.055 198 L
cp
S
GR
GS
[0.75 0 0 0.75 0 0.25] CT
10.0 ML
0.667 LW
N
310.404 198 M
310.404 197.559 L
314.588 197.559 L
314.588 198 L
cp
S
GR
GS
[0.75 0 0 0.75 0 0.25] CT
10.0 ML
0.667 LW
N
333.938 198 M
333.938 102.465 L
338.121 102.465 L
338.121 198 L
cp
S
GR
GS
[0.75 0 0 0.75 0 0.25] CT
10.0 ML
0.667 LW
N
357.471 198 M
357.471 68.082 L
361.655 68.082 L
361.655 198 L
cp
S
GR
GS
[0.75 0 0 0.75 0 0.25] CT
10.0 ML
0.667 LW
N
381.004 198 M
381.004 146.249 L
385.188 146.249 L
385.188 198 L
cp
S
GR
GS
[0.75 0 0 0.75 0 0.25] CT
10.0 ML
0.667 LW
N
404.538 198 M
404.538 149.109 L
408.721 149.109 L
408.721 198 L
cp
S
GR
GS
[0.75 0 0 0.75 0 0.25] CT
10.0 ML
0.667 LW
N
428.071 198 M
428.071 76.069 L
432.255 76.069 L
432.255 198 L
cp
S
GR
GS
[0.75 0 0 0.75 0 0.25] CT
10.0 ML
0.667 LW
N
451.604 198 M
451.604 102.527 L
455.788 102.527 L
455.788 198 L
cp
S
GR
GS
[0.75 0 0 0.75 0 0.25] CT
10.0 ML
0.667 LW
N
475.138 198 M
475.138 144.057 L
479.322 144.057 L
479.322 198 L
cp
S
GR
GS
[0.75 0 0 0.75 0 0.25] CT
10.0 ML
0.667 LW
N
498.671 198 M
498.671 157.417 L
502.855 157.417 L
502.855 198 L
cp
S
GR
GS
[0.75 0 0 0.75 0 0.25] CT
10.0 ML
0.667 LW
N
522.204 198 M
522.204 59.049 L
526.388 59.049 L
526.388 198 L
cp
S
GR
GS
[0.75 0 0 0.75 0 0.25] CT
10.0 ML
0.667 LW
N
545.738 198 M
545.738 58.93 L
549.922 58.93 L
549.922 198 L
cp
S
GR
GS
[0.75 0 0 0.75 0 0.25] CT
10.0 ML
0.667 LW
N
569.271 198 M
569.271 103.054 L
573.455 103.054 L
573.455 198 L
cp
S
GR
GS
[0.75 0 0 0.75 0 0.25] CT
10.0 ML
0.667 LW
N
592.804 198 M
592.804 193.03 L
596.988 193.03 L
596.988 198 L
cp
S
GR
GS
[0.75 0 0 0.75 0 0.25] CT
10.0 ML
0.667 LW
N
616.338 198 M
616.338 145.095 L
620.521 145.095 L
620.521 198 L
cp
S
GR
GS
[0.75 0 0 0.75 0 0.25] CT
10.0 ML
0.667 LW
N
639.871 198 M
639.871 176.151 L
644.055 176.151 L
644.055 198 L
cp
S
GR
GS
[0.75 0 0 0.75 0 0.25] CT
10.0 ML
0.667 LW
N
663.404 198 M
663.404 49.134 L
667.588 49.134 L
667.588 198 L
cp
S
GR
GS
[0.75 0 0 0.75 0 0.25] CT
10.0 ML
0.667 LW
N
686.938 198 M
686.938 92.809 L
691.121 92.809 L
691.121 198 L
cp
S
GR
GS
[0.75 0 0 0.75 0 0.25] CT
10.0 ML
0.667 LW
N
710.471 198 M
710.471 136.292 L
714.655 136.292 L
714.655 198 L
cp
S
GR
GS
[0.75 0 0 0.75 0 0.25] CT
10.0 ML
0.667 LW
N
734.004 198 M
734.004 144.626 L
738.188 144.626 L
738.188 198 L
cp
S
GR
GS
[0.75 0 0 0.75 0 0.25] CT
10.0 ML
0.667 LW
N
757.538 198 M
757.538 129.574 L
761.721 129.574 L
761.721 198 L
cp
S
GR
GS
[0.75 0 0 0.75 0 0.25] CT
10.0 ML
0.667 LW
N
781.071 198 M
781.071 169.205 L
785.255 169.205 L
785.255 198 L
cp
S
GR
GS
[0.75 0 0 0.75 0 0.25] CT
10.0 ML
0.667 LW
N
804.604 198 M
804.604 137.075 L
808.788 137.075 L
808.788 198 L
cp
S
GR
GS
[0.75 0 0 0.75 0 0.25] CT
0.149 GC
2 setlinecap
1 LJ
0.667 LW
N
119 198 M
825 198 L
S
GR
GS
[0.75 0 0 0.75 0 0.25] CT
0.149 GC
2 setlinecap
1 LJ
0.667 LW
N
119 36 M
825 36 L
S
GR
GS
[0.75 0 0 0.75 0 0.25] CT
0.149 GC
2 setlinecap
1 LJ
0.667 LW
N
142.533 198 M
142.533 190.94 L
S
GR
GS
[0.75 0 0 0.75 0 0.25] CT
0.149 GC
2 setlinecap
1 LJ
0.667 LW
N
166.067 198 M
166.067 190.94 L
S
GR
GS
[0.75 0 0 0.75 0 0.25] CT
0.149 GC
2 setlinecap
1 LJ
0.667 LW
N
189.6 198 M
189.6 190.94 L
S
GR
GS
[0.75 0 0 0.75 0 0.25] CT
0.149 GC
2 setlinecap
1 LJ
0.667 LW
N
213.133 198 M
213.133 190.94 L
S
GR
GS
[0.75 0 0 0.75 0 0.25] CT
0.149 GC
2 setlinecap
1 LJ
0.667 LW
N
236.667 198 M
236.667 190.94 L
S
GR
GS
[0.75 0 0 0.75 0 0.25] CT
0.149 GC
2 setlinecap
1 LJ
0.667 LW
N
260.2 198 M
260.2 190.94 L
S
GR
GS
[0.75 0 0 0.75 0 0.25] CT
0.149 GC
2 setlinecap
1 LJ
0.667 LW
N
283.733 198 M
283.733 190.94 L
S
GR
GS
[0.75 0 0 0.75 0 0.25] CT
0.149 GC
2 setlinecap
1 LJ
0.667 LW
N
307.267 198 M
307.267 190.94 L
S
GR
GS
[0.75 0 0 0.75 0 0.25] CT
0.149 GC
2 setlinecap
1 LJ
0.667 LW
N
330.8 198 M
330.8 190.94 L
S
GR
GS
[0.75 0 0 0.75 0 0.25] CT
0.149 GC
2 setlinecap
1 LJ
0.667 LW
N
354.333 198 M
354.333 190.94 L
S
GR
GS
[0.75 0 0 0.75 0 0.25] CT
0.149 GC
2 setlinecap
1 LJ
0.667 LW
N
377.867 198 M
377.867 190.94 L
S
GR
GS
[0.75 0 0 0.75 0 0.25] CT
0.149 GC
2 setlinecap
1 LJ
0.667 LW
N
401.4 198 M
401.4 190.94 L
S
GR
GS
[0.75 0 0 0.75 0 0.25] CT
0.149 GC
2 setlinecap
1 LJ
0.667 LW
N
424.933 198 M
424.933 190.94 L
S
GR
GS
[0.75 0 0 0.75 0 0.25] CT
0.149 GC
2 setlinecap
1 LJ
0.667 LW
N
448.467 198 M
448.467 190.94 L
S
GR
GS
[0.75 0 0 0.75 0 0.25] CT
0.149 GC
2 setlinecap
1 LJ
0.667 LW
N
472 198 M
472 190.94 L
S
GR
GS
[0.75 0 0 0.75 0 0.25] CT
0.149 GC
2 setlinecap
1 LJ
0.667 LW
N
495.533 198 M
495.533 190.94 L
S
GR
GS
[0.75 0 0 0.75 0 0.25] CT
0.149 GC
2 setlinecap
1 LJ
0.667 LW
N
519.067 198 M
519.067 190.94 L
S
GR
GS
[0.75 0 0 0.75 0 0.25] CT
0.149 GC
2 setlinecap
1 LJ
0.667 LW
N
542.6 198 M
542.6 190.94 L
S
GR
GS
[0.75 0 0 0.75 0 0.25] CT
0.149 GC
2 setlinecap
1 LJ
0.667 LW
N
566.133 198 M
566.133 190.94 L
S
GR
GS
[0.75 0 0 0.75 0 0.25] CT
0.149 GC
2 setlinecap
1 LJ
0.667 LW
N
589.667 198 M
589.667 190.94 L
S
GR
GS
[0.75 0 0 0.75 0 0.25] CT
0.149 GC
2 setlinecap
1 LJ
0.667 LW
N
613.2 198 M
613.2 190.94 L
S
GR
GS
[0.75 0 0 0.75 0 0.25] CT
0.149 GC
2 setlinecap
1 LJ
0.667 LW
N
636.733 198 M
636.733 190.94 L
S
GR
GS
[0.75 0 0 0.75 0 0.25] CT
0.149 GC
2 setlinecap
1 LJ
0.667 LW
N
660.267 198 M
660.267 190.94 L
S
GR
GS
[0.75 0 0 0.75 0 0.25] CT
0.149 GC
2 setlinecap
1 LJ
0.667 LW
N
683.8 198 M
683.8 190.94 L
S
GR
GS
[0.75 0 0 0.75 0 0.25] CT
0.149 GC
2 setlinecap
1 LJ
0.667 LW
N
707.333 198 M
707.333 190.94 L
S
GR
GS
[0.75 0 0 0.75 0 0.25] CT
0.149 GC
2 setlinecap
1 LJ
0.667 LW
N
730.867 198 M
730.867 190.94 L
S
GR
GS
[0.75 0 0 0.75 0 0.25] CT
0.149 GC
2 setlinecap
1 LJ
0.667 LW
N
754.4 198 M
754.4 190.94 L
S
GR
GS
[0.75 0 0 0.75 0 0.25] CT
0.149 GC
2 setlinecap
1 LJ
0.667 LW
N
777.933 198 M
777.933 190.94 L
S
GR
GS
[0.75 0 0 0.75 0 0.25] CT
0.149 GC
2 setlinecap
1 LJ
0.667 LW
N
801.467 198 M
801.467 190.94 L
S
GR
GS
[0.75 0 0 0.75 0 0.25] CT
0.149 GC
2 setlinecap
1 LJ
0.667 LW
N
142.533 36 M
142.533 43.06 L
S
GR
GS
[0.75 0 0 0.75 0 0.25] CT
0.149 GC
2 setlinecap
1 LJ
0.667 LW
N
166.067 36 M
166.067 43.06 L
S
GR
GS
[0.75 0 0 0.75 0 0.25] CT
0.149 GC
2 setlinecap
1 LJ
0.667 LW
N
189.6 36 M
189.6 43.06 L
S
GR
GS
[0.75 0 0 0.75 0 0.25] CT
0.149 GC
2 setlinecap
1 LJ
0.667 LW
N
213.133 36 M
213.133 43.06 L
S
GR
GS
[0.75 0 0 0.75 0 0.25] CT
0.149 GC
2 setlinecap
1 LJ
0.667 LW
N
236.667 36 M
236.667 43.06 L
S
GR
GS
[0.75 0 0 0.75 0 0.25] CT
0.149 GC
2 setlinecap
1 LJ
0.667 LW
N
260.2 36 M
260.2 43.06 L
S
GR
GS
[0.75 0 0 0.75 0 0.25] CT
0.149 GC
2 setlinecap
1 LJ
0.667 LW
N
283.733 36 M
283.733 43.06 L
S
GR
GS
[0.75 0 0 0.75 0 0.25] CT
0.149 GC
2 setlinecap
1 LJ
0.667 LW
N
307.267 36 M
307.267 43.06 L
S
GR
GS
[0.75 0 0 0.75 0 0.25] CT
0.149 GC
2 setlinecap
1 LJ
0.667 LW
N
330.8 36 M
330.8 43.06 L
S
GR
GS
[0.75 0 0 0.75 0 0.25] CT
0.149 GC
2 setlinecap
1 LJ
0.667 LW
N
354.333 36 M
354.333 43.06 L
S
GR
GS
[0.75 0 0 0.75 0 0.25] CT
0.149 GC
2 setlinecap
1 LJ
0.667 LW
N
377.867 36 M
377.867 43.06 L
S
GR
GS
[0.75 0 0 0.75 0 0.25] CT
0.149 GC
2 setlinecap
1 LJ
0.667 LW
N
401.4 36 M
401.4 43.06 L
S
GR
GS
[0.75 0 0 0.75 0 0.25] CT
0.149 GC
2 setlinecap
1 LJ
0.667 LW
N
424.933 36 M
424.933 43.06 L
S
GR
GS
[0.75 0 0 0.75 0 0.25] CT
0.149 GC
2 setlinecap
1 LJ
0.667 LW
N
448.467 36 M
448.467 43.06 L
S
GR
GS
[0.75 0 0 0.75 0 0.25] CT
0.149 GC
2 setlinecap
1 LJ
0.667 LW
N
472 36 M
472 43.06 L
S
GR
GS
[0.75 0 0 0.75 0 0.25] CT
0.149 GC
2 setlinecap
1 LJ
0.667 LW
N
495.533 36 M
495.533 43.06 L
S
GR
GS
[0.75 0 0 0.75 0 0.25] CT
0.149 GC
2 setlinecap
1 LJ
0.667 LW
N
519.067 36 M
519.067 43.06 L
S
GR
GS
[0.75 0 0 0.75 0 0.25] CT
0.149 GC
2 setlinecap
1 LJ
0.667 LW
N
542.6 36 M
542.6 43.06 L
S
GR
GS
[0.75 0 0 0.75 0 0.25] CT
0.149 GC
2 setlinecap
1 LJ
0.667 LW
N
566.133 36 M
566.133 43.06 L
S
GR
GS
[0.75 0 0 0.75 0 0.25] CT
0.149 GC
2 setlinecap
1 LJ
0.667 LW
N
589.667 36 M
589.667 43.06 L
S
GR
GS
[0.75 0 0 0.75 0 0.25] CT
0.149 GC
2 setlinecap
1 LJ
0.667 LW
N
613.2 36 M
613.2 43.06 L
S
GR
GS
[0.75 0 0 0.75 0 0.25] CT
0.149 GC
2 setlinecap
1 LJ
0.667 LW
N
636.733 36 M
636.733 43.06 L
S
GR
GS
[0.75 0 0 0.75 0 0.25] CT
0.149 GC
2 setlinecap
1 LJ
0.667 LW
N
660.267 36 M
660.267 43.06 L
S
GR
GS
[0.75 0 0 0.75 0 0.25] CT
0.149 GC
2 setlinecap
1 LJ
0.667 LW
N
683.8 36 M
683.8 43.06 L
S
GR
GS
[0.75 0 0 0.75 0 0.25] CT
0.149 GC
2 setlinecap
1 LJ
0.667 LW
N
707.333 36 M
707.333 43.06 L
S
GR
GS
[0.75 0 0 0.75 0 0.25] CT
0.149 GC
2 setlinecap
1 LJ
0.667 LW
N
730.867 36 M
730.867 43.06 L
S
GR
GS
[0.75 0 0 0.75 0 0.25] CT
0.149 GC
2 setlinecap
1 LJ
0.667 LW
N
754.4 36 M
754.4 43.06 L
S
GR
GS
[0.75 0 0 0.75 0 0.25] CT
0.149 GC
2 setlinecap
1 LJ
0.667 LW
N
777.933 36 M
777.933 43.06 L
S
GR
GS
[0.75 0 0 0.75 0 0.25] CT
0.149 GC
2 setlinecap
1 LJ
0.667 LW
N
801.467 36 M
801.467 43.06 L
S
GR
GS
[0.75 0 0 0.75 106.90001 152.75] CT
0.149 GC
/Helvetica 13.333 F
GS
[1 0 0 1 0 0] CT
-4.5 13 moveto 
1 -1 scale
(1) t 
GR
GR
GS
[0.75 0 0 0.75 124.55 152.75] CT
0.149 GC
/Helvetica 13.333 F
GS
[1 0 0 1 0 0] CT
-4.5 13 moveto 
1 -1 scale
(2) t 
GR
GR
GS
[0.75 0 0 0.75 142.2 152.75] CT
0.149 GC
/Helvetica 13.333 F
GS
[1 0 0 1 0 0] CT
-4.5 13 moveto 
1 -1 scale
(3) t 
GR
GR
GS
[0.75 0 0 0.75 159.85 152.75] CT
0.149 GC
/Helvetica 13.333 F
GS
[1 0 0 1 0 0] CT
-4.5 13 moveto 
1 -1 scale
(4) t 
GR
GR
GS
[0.75 0 0 0.75 177.5 152.75] CT
0.149 GC
/Helvetica 13.333 F
GS
[1 0 0 1 0 0] CT
-4.5 13 moveto 
1 -1 scale
(5) t 
GR
GR
GS
[0.75 0 0 0.75 195.15001 152.75] CT
0.149 GC
/Helvetica 13.333 F
GS
[1 0 0 1 0 0] CT
-4.5 13 moveto 
1 -1 scale
(6) t 
GR
GR
GS
[0.75 0 0 0.75 212.8 152.75] CT
0.149 GC
/Helvetica 13.333 F
GS
[1 0 0 1 0 0] CT
-4.5 13 moveto 
1 -1 scale
(7) t 
GR
GR
GS
[0.75 0 0 0.75 230.45 152.75] CT
0.149 GC
/Helvetica 13.333 F
GS
[1 0 0 1 0 0] CT
-4.5 13 moveto 
1 -1 scale
(8) t 
GR
GR
GS
[0.75 0 0 0.75 248.09999 152.75] CT
0.149 GC
/Helvetica 13.333 F
GS
[1 0 0 1 0 0] CT
-4.5 13 moveto 
1 -1 scale
(9) t 
GR
GR
GS
[0.75 0 0 0.75 265.75001 152.75] CT
0.149 GC
/Helvetica 13.333 F
GS
[1 0 0 1 0 0] CT
-8.5 13 moveto 
1 -1 scale
(10) t 
GR
GR
GS
[0.75 0 0 0.75 283.4 152.75] CT
0.149 GC
/Helvetica 13.333 F
GS
[1 0 0 1 0 0] CT
-8.5 13 moveto 
1 -1 scale
(11) t 
GR
GR
GS
[0.75 0 0 0.75 301.05 152.75] CT
0.149 GC
/Helvetica 13.333 F
GS
[1 0 0 1 0 0] CT
-8.5 13 moveto 
1 -1 scale
(12) t 
GR
GR
GS
[0.75 0 0 0.75 318.69999 152.75] CT
0.149 GC
/Helvetica 13.333 F
GS
[1 0 0 1 0 0] CT
-8.5 13 moveto 
1 -1 scale
(13) t 
GR
GR
GS
[0.75 0 0 0.75 336.35001 152.75] CT
0.149 GC
/Helvetica 13.333 F
GS
[1 0 0 1 0 0] CT
-8.5 13 moveto 
1 -1 scale
(14) t 
GR
GR
GS
[0.75 0 0 0.75 354 152.75] CT
0.149 GC
/Helvetica 13.333 F
GS
[1 0 0 1 0 0] CT
-8.5 13 moveto 
1 -1 scale
(15) t 
GR
GR
GS
[0.75 0 0 0.75 371.64999 152.75] CT
0.149 GC
/Helvetica 13.333 F
GS
[1 0 0 1 0 0] CT
-8.5 13 moveto 
1 -1 scale
(16) t 
GR
GR
GS
[0.75 0 0 0.75 389.29999 152.75] CT
0.149 GC
/Helvetica 13.333 F
GS
[1 0 0 1 0 0] CT
-8.5 13 moveto 
1 -1 scale
(17) t 
GR
GR
GS
[0.75 0 0 0.75 406.94998 152.75] CT
0.149 GC
/Helvetica 13.333 F
GS
[1 0 0 1 0 0] CT
-8.5 13 moveto 
1 -1 scale
(18) t 
GR
GR
GS
[0.75 0 0 0.75 424.60002 152.75] CT
0.149 GC
/Helvetica 13.333 F
GS
[1 0 0 1 0 0] CT
-8.5 13 moveto 
1 -1 scale
(19) t 
GR
GR
GS
[0.75 0 0 0.75 442.25002 152.75] CT
0.149 GC
/Helvetica 13.333 F
GS
[1 0 0 1 0 0] CT
-8.5 13 moveto 
1 -1 scale
(20) t 
GR
GR
GS
[0.75 0 0 0.75 459.90001 152.75] CT
0.149 GC
/Helvetica 13.333 F
GS
[1 0 0 1 0 0] CT
-8.5 13 moveto 
1 -1 scale
(21) t 
GR
GR
GS
[0.75 0 0 0.75 477.55 152.75] CT
0.149 GC
/Helvetica 13.333 F
GS
[1 0 0 1 0 0] CT
-8.5 13 moveto 
1 -1 scale
(22) t 
GR
GR
GS
[0.75 0 0 0.75 495.2 152.75] CT
0.149 GC
/Helvetica 13.333 F
GS
[1 0 0 1 0 0] CT
-8.5 13 moveto 
1 -1 scale
(23) t 
GR
GR
GS
[0.75 0 0 0.75 512.84999 152.75] CT
0.149 GC
/Helvetica 13.333 F
GS
[1 0 0 1 0 0] CT
-8.5 13 moveto 
1 -1 scale
(24) t 
GR
GR
GS
[0.75 0 0 0.75 530.49998 152.75] CT
0.149 GC
/Helvetica 13.333 F
GS
[1 0 0 1 0 0] CT
-8.5 13 moveto 
1 -1 scale
(25) t 
GR
GR
GS
[0.75 0 0 0.75 548.14998 152.75] CT
0.149 GC
/Helvetica 13.333 F
GS
[1 0 0 1 0 0] CT
-8.5 13 moveto 
1 -1 scale
(27) t 
GR
GR
GS
[0.75 0 0 0.75 565.80002 152.75] CT
0.149 GC
/Helvetica 13.333 F
GS
[1 0 0 1 0 0] CT
-8.5 13 moveto 
1 -1 scale
(28) t 
GR
GR
GS
[0.75 0 0 0.75 583.45001 152.75] CT
0.149 GC
/Helvetica 13.333 F
GS
[1 0 0 1 0 0] CT
-8.5 13 moveto 
1 -1 scale
(29) t 
GR
GR
GS
[0.75 0 0 0.75 601.10001 152.75] CT
0.149 GC
/Helvetica 13.333 F
GS
[1 0 0 1 0 0] CT
-8.5 13 moveto 
1 -1 scale
(30) t 
GR
GR
GS
[0.75 0 0 0.75 354.00025 166.5] CT
0.149 GC
/Helvetica 14.667 F
GS
[1 0 0 1 0 0] CT
-55 14 moveto 
1 -1 scale
(Point cloud ids) t 
GR
GR
GS
[0.75 0 0 0.75 0 0.25] CT
0.149 GC
2 setlinecap
1 LJ
0.667 LW
N
119 198 M
119 36 L
S
GR
GS
[0.75 0 0 0.75 0 0.25] CT
0.149 GC
2 setlinecap
1 LJ
0.667 LW
N
825 198 M
825 36 L
S
GR
GS
[0.75 0 0 0.75 0 0.25] CT
0.149 GC
2 setlinecap
1 LJ
0.667 LW
N
119 198 M
126.06 198 L
S
GR
GS
[0.75 0 0 0.75 0 0.25] CT
0.149 GC
2 setlinecap
1 LJ
0.667 LW
N
119 165.6 M
126.06 165.6 L
S
GR
GS
[0.75 0 0 0.75 0 0.25] CT
0.149 GC
2 setlinecap
1 LJ
0.667 LW
N
119 133.2 M
126.06 133.2 L
S
GR
GS
[0.75 0 0 0.75 0 0.25] CT
0.149 GC
2 setlinecap
1 LJ
0.667 LW
N
119 100.8 M
126.06 100.8 L
S
GR
GS
[0.75 0 0 0.75 0 0.25] CT
0.149 GC
2 setlinecap
1 LJ
0.667 LW
N
119 68.4 M
126.06 68.4 L
S
GR
GS
[0.75 0 0 0.75 0 0.25] CT
0.149 GC
2 setlinecap
1 LJ
0.667 LW
N
119 36 M
126.06 36 L
S
GR
GS
[0.75 0 0 0.75 0 0.25] CT
0.149 GC
2 setlinecap
1 LJ
0.667 LW
N
825 198 M
817.94 198 L
S
GR
GS
[0.75 0 0 0.75 0 0.25] CT
0.149 GC
2 setlinecap
1 LJ
0.667 LW
N
825 165.6 M
817.94 165.6 L
S
GR
GS
[0.75 0 0 0.75 0 0.25] CT
0.149 GC
2 setlinecap
1 LJ
0.667 LW
N
825 133.2 M
817.94 133.2 L
S
GR
GS
[0.75 0 0 0.75 0 0.25] CT
0.149 GC
2 setlinecap
1 LJ
0.667 LW
N
825 100.8 M
817.94 100.8 L
S
GR
GS
[0.75 0 0 0.75 0 0.25] CT
0.149 GC
2 setlinecap
1 LJ
0.667 LW
N
825 68.4 M
817.94 68.4 L
S
GR
GS
[0.75 0 0 0.75 0 0.25] CT
0.149 GC
2 setlinecap
1 LJ
0.667 LW
N
825 36 M
817.94 36 L
S
GR
GS
[0.75 0 0 0.75 85.25 148.75] CT
0.149 GC
/Helvetica 13.333 F
GS
[1 0 0 1 0 0] CT
-9 4.5 moveto 
1 -1 scale
(0) t 
GR
GR
GS
[0.75 0 0 0.75 85.25 124.45] CT
0.149 GC
/Helvetica 13.333 F
GS
[1 0 0 1 0 0] CT
-29 4.5 moveto 
1 -1 scale
(0.02) t 
GR
GR
GS
[0.75 0 0 0.75 85.25 100.15] CT
0.149 GC
/Helvetica 13.333 F
GS
[1 0 0 1 0 0] CT
-29 4.5 moveto 
1 -1 scale
(0.04) t 
GR
GR
GS
[0.75 0 0 0.75 85.25 75.85] CT
0.149 GC
/Helvetica 13.333 F
GS
[1 0 0 1 0 0] CT
-29 4.5 moveto 
1 -1 scale
(0.06) t 
GR
GR
GS
[0.75 0 0 0.75 85.25 51.55] CT
0.149 GC
/Helvetica 13.333 F
GS
[1 0 0 1 0 0] CT
-29 4.5 moveto 
1 -1 scale
(0.08) t 
GR
GR
GS
[0.75 0 0 0.75 85.25 27.25] CT
0.149 GC
/Helvetica 13.333 F
GS
[1 0 0 1 0 0] CT
-21 4.5 moveto 
1 -1 scale
(0.1) t 
GR
GR
GS
[0 -0.75 0.75 0 53.25 98.5] CT
0.149 GC
/Helvetica 14.667 F
GS
[1 0 0 1 0 0] CT
0 0 moveto 
1 -1 scale
(err) t 
GR
GR
GS
[0 -0.75 0.75 0 58.5 82] CT
0.149 GC
/Helvetica 11.733 F
GS
[1 0 0 1 0 0] CT
0 0 moveto 
1 -1 scale
(t) t 
GR
GR
GS
[0.75 0 0 0.75 0 0.25] CT
1 GC
N
716 99 M
716 49 L
812 49 L
812 99 L
cp
f
GR
GS
[0.75 0 0 0.75 572.25 44.125] CT
/Helvetica 12 F
GS
[1 0 0 1 0 0] CT
0 4.5 moveto 
1 -1 scale
(original) t 
GR
GR
GS
[0.75 0 0 0.75 0 0.25] CT
0.929 0.694 0.125 RC
N
720 64.25 M
720 52.75 L
760 52.75 L
760 64.25 L
cp
f
GR
GS
[0.75 0 0 0.75 0 0.25] CT
10.0 ML
0.667 LW
N
720 64.25 M
720 52.75 L
760 52.75 L
760 64.25 L
cp
S
GR
GS
[0.75 0 0 0.75 572.25 55.75] CT
/Helvetica 12 F
GS
[1 0 0 1 0 0] CT
0 4.5 moveto 
1 -1 scale
(v2) t 
GR
GR
GS
[0.75 0 0 0.75 0 0.25] CT
0.302 0.745 0.933 RC
N
720 79.75 M
720 68.25 L
760 68.25 L
760 79.75 L
cp
f
GR
GS
[0.75 0 0 0.75 0 0.25] CT
10.0 ML
0.667 LW
N
720 79.75 M
720 68.25 L
760 68.25 L
760 79.75 L
cp
S
GR
GS
[0.75 0 0 0.75 572.25 67.375] CT
/Helvetica 12 F
GS
[1 0 0 1 0 0] CT
0 4.5 moveto 
1 -1 scale
(v2.1) t 
GR
GR
GS
[0.75 0 0 0.75 0 0.25] CT
0.635 0.078 0.184 RC
N
720 95.25 M
720 83.75 L
760 83.75 L
760 95.25 L
cp
f
GR
GS
[0.75 0 0 0.75 0 0.25] CT
10.0 ML
0.667 LW
N
720 95.25 M
720 83.75 L
760 83.75 L
760 95.25 L
cp
S
GR
GS
[0.75 0 0 0.75 0 0.25] CT
0.149 GC
10.0 ML
0.667 LW
N
716 99 M
716 49 L
812 49 L
812 99 L
cp
S
GR
GS
[0.75 0 0 0.75 0 0.25] CT
1 GC
N
119 424 M
825 424 L
825 262 L
119 262 L
cp
f
GR
GS
[0.75 0 0 0.75 0 0.25] CT
0.149 GC
1 LJ
0.667 LW
N
119 359.2 M
825 359.2 L
S
GR
GS
[0.75 0 0 0.75 0 0.25] CT
0.302 0.745 0.933 RC
N
136.482 359.2 M
141.861 359.2 L
141.861 359.276 L
136.482 359.276 L
cp
f
GR
GS
[0.75 0 0 0.75 0 0.25] CT
0.302 0.745 0.933 RC
N
160.015 359.2 M
165.394 359.2 L
165.394 359.27 L
160.015 359.27 L
cp
f
GR
GS
[0.75 0 0 0.75 0 0.25] CT
0.302 0.745 0.933 RC
N
183.549 359.2 M
188.928 359.2 L
188.928 359.383 L
183.549 359.383 L
cp
f
GR
GS
[0.75 0 0 0.75 0 0.25] CT
0.302 0.745 0.933 RC
N
207.082 359.2 M
212.461 359.2 L
212.461 378.819 L
207.082 378.819 L
cp
f
GR
GS
[0.75 0 0 0.75 0 0.25] CT
0.302 0.745 0.933 RC
N
230.615 359.2 M
235.994 359.2 L
235.994 359.182 L
230.615 359.182 L
cp
f
GR
GS
[0.75 0 0 0.75 0 0.25] CT
0.302 0.745 0.933 RC
N
254.149 359.2 M
259.528 359.2 L
259.528 338.48 L
254.149 338.48 L
cp
f
GR
GS
[0.75 0 0 0.75 0 0.25] CT
0.302 0.745 0.933 RC
N
277.682 359.2 M
283.061 359.2 L
283.061 358.586 L
277.682 358.586 L
cp
f
GR
GS
[0.75 0 0 0.75 0 0.25] CT
0.302 0.745 0.933 RC
N
301.215 359.2 M
306.594 359.2 L
306.594 360.638 L
301.215 360.638 L
cp
f
GR
GS
[0.75 0 0 0.75 0 0.25] CT
0.302 0.745 0.933 RC
N
324.749 359.2 M
330.128 359.2 L
330.128 359.929 L
324.749 359.929 L
cp
f
GR
GS
[0.75 0 0 0.75 0 0.25] CT
0.302 0.745 0.933 RC
N
348.282 359.2 M
353.661 359.2 L
353.661 285.197 L
348.282 285.197 L
cp
f
GR
GS
[0.75 0 0 0.75 0 0.25] CT
0.302 0.745 0.933 RC
N
371.815 359.2 M
377.194 359.2 L
377.194 359.231 L
371.815 359.231 L
cp
f
GR
GS
[0.75 0 0 0.75 0 0.25] CT
0.302 0.745 0.933 RC
N
395.349 359.2 M
400.728 359.2 L
400.728 359.015 L
395.349 359.015 L
cp
f
GR
GS
[0.75 0 0 0.75 0 0.25] CT
0.302 0.745 0.933 RC
N
418.882 359.2 M
424.261 359.2 L
424.261 357.016 L
418.882 357.016 L
cp
f
GR
GS
[0.75 0 0 0.75 0 0.25] CT
0.302 0.745 0.933 RC
N
442.415 359.2 M
447.794 359.2 L
447.794 363.915 L
442.415 363.915 L
cp
f
GR
GS
[0.75 0 0 0.75 0 0.25] CT
0.302 0.745 0.933 RC
N
465.949 359.2 M
471.328 359.2 L
471.328 359.125 L
465.949 359.125 L
cp
f
GR
GS
[0.75 0 0 0.75 0 0.25] CT
0.302 0.745 0.933 RC
N
489.482 359.2 M
494.861 359.2 L
494.861 352.958 L
489.482 352.958 L
cp
f
GR
GS
[0.75 0 0 0.75 0 0.25] CT
0.302 0.745 0.933 RC
N
513.015 359.2 M
518.394 359.2 L
518.394 412.893 L
513.015 412.893 L
cp
f
GR
GS
[0.75 0 0 0.75 0 0.25] CT
0.302 0.745 0.933 RC
N
536.549 359.2 M
541.928 359.2 L
541.928 386.942 L
536.549 386.942 L
cp
f
GR
GS
[0.75 0 0 0.75 0 0.25] CT
0.302 0.745 0.933 RC
N
560.082 359.2 M
565.461 359.2 L
565.461 378.41 L
560.082 378.41 L
cp
f
GR
GS
[0.75 0 0 0.75 0 0.25] CT
0.302 0.745 0.933 RC
N
583.615 359.2 M
588.994 359.2 L
588.994 397.609 L
583.615 397.609 L
cp
f
GR
GS
[0.75 0 0 0.75 0 0.25] CT
0.302 0.745 0.933 RC
N
607.149 359.2 M
612.528 359.2 L
612.528 358.813 L
607.149 358.813 L
cp
f
GR
GS
[0.75 0 0 0.75 0 0.25] CT
0.302 0.745 0.933 RC
N
630.682 359.2 M
636.061 359.2 L
636.061 359.378 L
630.682 359.378 L
cp
f
GR
GS
[0.75 0 0 0.75 0 0.25] CT
0.302 0.745 0.933 RC
N
654.215 359.2 M
659.594 359.2 L
659.594 359.272 L
654.215 359.272 L
cp
f
GR
GS
[0.75 0 0 0.75 0 0.25] CT
0.302 0.745 0.933 RC
N
677.749 359.2 M
683.128 359.2 L
683.128 364.456 L
677.749 364.456 L
cp
f
GR
GS
[0.75 0 0 0.75 0 0.25] CT
0.302 0.745 0.933 RC
N
701.282 359.2 M
706.661 359.2 L
706.661 358.769 L
701.282 358.769 L
cp
f
GR
GS
[0.75 0 0 0.75 0 0.25] CT
0.302 0.745 0.933 RC
N
724.815 359.2 M
730.194 359.2 L
730.194 359.216 L
724.815 359.216 L
cp
f
GR
GS
[0.75 0 0 0.75 0 0.25] CT
0.302 0.745 0.933 RC
N
748.349 359.2 M
753.728 359.2 L
753.728 359.278 L
748.349 359.278 L
cp
f
GR
GS
[0.75 0 0 0.75 0 0.25] CT
0.302 0.745 0.933 RC
N
771.882 359.2 M
777.261 359.2 L
777.261 359.202 L
771.882 359.202 L
cp
f
GR
GS
[0.75 0 0 0.75 0 0.25] CT
0.302 0.745 0.933 RC
N
795.415 359.2 M
800.794 359.2 L
800.794 357.602 L
795.415 357.602 L
cp
f
GR
GS
[0.75 0 0 0.75 0 0.25] CT
10.0 ML
0.667 LW
N
136.482 359.2 M
136.482 359.276 L
141.861 359.276 L
141.861 359.2 L
cp
S
GR
GS
[0.75 0 0 0.75 0 0.25] CT
10.0 ML
0.667 LW
N
160.015 359.2 M
160.015 359.27 L
165.394 359.27 L
165.394 359.2 L
cp
S
GR
GS
[0.75 0 0 0.75 0 0.25] CT
10.0 ML
0.667 LW
N
183.549 359.2 M
183.549 359.383 L
188.928 359.383 L
188.928 359.2 L
cp
S
GR
GS
[0.75 0 0 0.75 0 0.25] CT
10.0 ML
0.667 LW
N
207.082 359.2 M
207.082 378.819 L
212.461 378.819 L
212.461 359.2 L
cp
S
GR
GS
[0.75 0 0 0.75 0 0.25] CT
10.0 ML
0.667 LW
N
230.615 359.2 M
230.615 359.182 L
235.994 359.182 L
235.994 359.2 L
cp
S
GR
GS
[0.75 0 0 0.75 0 0.25] CT
10.0 ML
0.667 LW
N
254.149 359.2 M
254.149 338.48 L
259.528 338.48 L
259.528 359.2 L
cp
S
GR
GS
[0.75 0 0 0.75 0 0.25] CT
10.0 ML
0.667 LW
N
277.682 359.2 M
277.682 358.586 L
283.061 358.586 L
283.061 359.2 L
cp
S
GR
GS
[0.75 0 0 0.75 0 0.25] CT
10.0 ML
0.667 LW
N
301.215 359.2 M
301.215 360.638 L
306.594 360.638 L
306.594 359.2 L
cp
S
GR
GS
[0.75 0 0 0.75 0 0.25] CT
10.0 ML
0.667 LW
N
324.749 359.2 M
324.749 359.929 L
330.128 359.929 L
330.128 359.2 L
cp
S
GR
GS
[0.75 0 0 0.75 0 0.25] CT
10.0 ML
0.667 LW
N
348.282 359.2 M
348.282 285.197 L
353.661 285.197 L
353.661 359.2 L
cp
S
GR
GS
[0.75 0 0 0.75 0 0.25] CT
10.0 ML
0.667 LW
N
371.815 359.2 M
371.815 359.231 L
377.194 359.231 L
377.194 359.2 L
cp
S
GR
GS
[0.75 0 0 0.75 0 0.25] CT
10.0 ML
0.667 LW
N
395.349 359.2 M
395.349 359.015 L
400.728 359.015 L
400.728 359.2 L
cp
S
GR
GS
[0.75 0 0 0.75 0 0.25] CT
10.0 ML
0.667 LW
N
418.882 359.2 M
418.882 357.016 L
424.261 357.016 L
424.261 359.2 L
cp
S
GR
GS
[0.75 0 0 0.75 0 0.25] CT
10.0 ML
0.667 LW
N
442.415 359.2 M
442.415 363.915 L
447.794 363.915 L
447.794 359.2 L
cp
S
GR
GS
[0.75 0 0 0.75 0 0.25] CT
10.0 ML
0.667 LW
N
465.949 359.2 M
465.949 359.125 L
471.328 359.125 L
471.328 359.2 L
cp
S
GR
GS
[0.75 0 0 0.75 0 0.25] CT
10.0 ML
0.667 LW
N
489.482 359.2 M
489.482 352.958 L
494.861 352.958 L
494.861 359.2 L
cp
S
GR
GS
[0.75 0 0 0.75 0 0.25] CT
10.0 ML
0.667 LW
N
513.015 359.2 M
513.015 412.893 L
518.394 412.893 L
518.394 359.2 L
cp
S
GR
GS
[0.75 0 0 0.75 0 0.25] CT
10.0 ML
0.667 LW
N
536.549 359.2 M
536.549 386.942 L
541.928 386.942 L
541.928 359.2 L
cp
S
GR
GS
[0.75 0 0 0.75 0 0.25] CT
10.0 ML
0.667 LW
N
560.082 359.2 M
560.082 378.41 L
565.461 378.41 L
565.461 359.2 L
cp
S
GR
GS
[0.75 0 0 0.75 0 0.25] CT
10.0 ML
0.667 LW
N
583.615 359.2 M
583.615 397.609 L
588.994 397.609 L
588.994 359.2 L
cp
S
GR
GS
[0.75 0 0 0.75 0 0.25] CT
10.0 ML
0.667 LW
N
607.149 359.2 M
607.149 358.813 L
612.528 358.813 L
612.528 359.2 L
cp
S
GR
GS
[0.75 0 0 0.75 0 0.25] CT
10.0 ML
0.667 LW
N
630.682 359.2 M
630.682 359.378 L
636.061 359.378 L
636.061 359.2 L
cp
S
GR
GS
[0.75 0 0 0.75 0 0.25] CT
10.0 ML
0.667 LW
N
654.215 359.2 M
654.215 359.272 L
659.594 359.272 L
659.594 359.2 L
cp
S
GR
GS
[0.75 0 0 0.75 0 0.25] CT
10.0 ML
0.667 LW
N
677.749 359.2 M
677.749 364.456 L
683.128 364.456 L
683.128 359.2 L
cp
S
GR
GS
[0.75 0 0 0.75 0 0.25] CT
10.0 ML
0.667 LW
N
701.282 359.2 M
701.282 358.769 L
706.661 358.769 L
706.661 359.2 L
cp
S
GR
GS
[0.75 0 0 0.75 0 0.25] CT
10.0 ML
0.667 LW
N
724.815 359.2 M
724.815 359.216 L
730.194 359.216 L
730.194 359.2 L
cp
S
GR
GS
[0.75 0 0 0.75 0 0.25] CT
10.0 ML
0.667 LW
N
748.349 359.2 M
748.349 359.278 L
753.728 359.278 L
753.728 359.2 L
cp
S
GR
GS
[0.75 0 0 0.75 0 0.25] CT
10.0 ML
0.667 LW
N
771.882 359.2 M
771.882 359.202 L
777.261 359.202 L
777.261 359.2 L
cp
S
GR
GS
[0.75 0 0 0.75 0 0.25] CT
10.0 ML
0.667 LW
N
795.415 359.2 M
795.415 357.602 L
800.794 357.602 L
800.794 359.2 L
cp
S
GR
GS
[0.75 0 0 0.75 0 0.25] CT
0.635 0.078 0.184 RC
N
143.206 359.2 M
148.585 359.2 L
148.585 359.269 L
143.206 359.269 L
cp
f
GR
GS
[0.75 0 0 0.75 0 0.25] CT
0.635 0.078 0.184 RC
N
166.739 359.2 M
172.118 359.2 L
172.118 359.274 L
166.739 359.274 L
cp
f
GR
GS
[0.75 0 0 0.75 0 0.25] CT
0.635 0.078 0.184 RC
N
190.272 359.2 M
195.651 359.2 L
195.651 359.344 L
190.272 359.344 L
cp
f
GR
GS
[0.75 0 0 0.75 0 0.25] CT
0.635 0.078 0.184 RC
N
213.806 359.2 M
219.185 359.2 L
219.185 378.777 L
213.806 378.777 L
cp
f
GR
GS
[0.75 0 0 0.75 0 0.25] CT
0.635 0.078 0.184 RC
N
237.339 359.2 M
242.718 359.2 L
242.718 359.179 L
237.339 359.179 L
cp
f
GR
GS
[0.75 0 0 0.75 0 0.25] CT
0.635 0.078 0.184 RC
N
260.872 359.2 M
266.251 359.2 L
266.251 338.458 L
260.872 338.458 L
cp
f
GR
GS
[0.75 0 0 0.75 0 0.25] CT
0.635 0.078 0.184 RC
N
284.406 359.2 M
289.785 359.2 L
289.785 358.225 L
284.406 358.225 L
cp
f
GR
GS
[0.75 0 0 0.75 0 0.25] CT
0.635 0.078 0.184 RC
N
307.939 359.2 M
313.318 359.2 L
313.318 359.645 L
307.939 359.645 L
cp
f
GR
GS
[0.75 0 0 0.75 0 0.25] CT
0.635 0.078 0.184 RC
N
331.472 359.2 M
336.851 359.2 L
336.851 359.927 L
331.472 359.927 L
cp
f
GR
GS
[0.75 0 0 0.75 0 0.25] CT
0.635 0.078 0.184 RC
N
355.006 359.2 M
360.385 359.2 L
360.385 285.443 L
355.006 285.443 L
cp
f
GR
GS
[0.75 0 0 0.75 0 0.25] CT
0.635 0.078 0.184 RC
N
378.539 359.2 M
383.918 359.2 L
383.918 359.236 L
378.539 359.236 L
cp
f
GR
GS
[0.75 0 0 0.75 0 0.25] CT
0.635 0.078 0.184 RC
N
402.072 359.2 M
407.451 359.2 L
407.451 359.014 L
402.072 359.014 L
cp
f
GR
GS
[0.75 0 0 0.75 0 0.25] CT
0.635 0.078 0.184 RC
N
425.606 359.2 M
430.985 359.2 L
430.985 356.92 L
425.606 356.92 L
cp
f
GR
GS
[0.75 0 0 0.75 0 0.25] CT
0.635 0.078 0.184 RC
N
449.139 359.2 M
454.518 359.2 L
454.518 363.184 L
449.139 363.184 L
cp
f
GR
GS
[0.75 0 0 0.75 0 0.25] CT
0.635 0.078 0.184 RC
N
472.672 359.2 M
478.051 359.2 L
478.051 359.096 L
472.672 359.096 L
cp
f
GR
GS
[0.75 0 0 0.75 0 0.25] CT
0.635 0.078 0.184 RC
N
496.206 359.2 M
501.585 359.2 L
501.585 352.958 L
496.206 352.958 L
cp
f
GR
GS
[0.75 0 0 0.75 0 0.25] CT
0.635 0.078 0.184 RC
N
519.739 359.2 M
525.118 359.2 L
525.118 412.826 L
519.739 412.826 L
cp
f
GR
GS
[0.75 0 0 0.75 0 0.25] CT
0.635 0.078 0.184 RC
N
543.272 359.2 M
548.651 359.2 L
548.651 386.927 L
543.272 386.927 L
cp
f
GR
GS
[0.75 0 0 0.75 0 0.25] CT
0.635 0.078 0.184 RC
N
566.806 359.2 M
572.185 359.2 L
572.185 378.035 L
566.806 378.035 L
cp
f
GR
GS
[0.75 0 0 0.75 0 0.25] CT
0.635 0.078 0.184 RC
N
590.339 359.2 M
595.718 359.2 L
595.718 397.335 L
590.339 397.335 L
cp
f
GR
GS
[0.75 0 0 0.75 0 0.25] CT
0.635 0.078 0.184 RC
N
613.872 359.2 M
619.251 359.2 L
619.251 358.815 L
613.872 358.815 L
cp
f
GR
GS
[0.75 0 0 0.75 0 0.25] CT
0.635 0.078 0.184 RC
N
637.406 359.2 M
642.785 359.2 L
642.785 359.379 L
637.406 359.379 L
cp
f
GR
GS
[0.75 0 0 0.75 0 0.25] CT
0.635 0.078 0.184 RC
N
660.939 359.2 M
666.318 359.2 L
666.318 359.246 L
660.939 359.246 L
cp
f
GR
GS
[0.75 0 0 0.75 0 0.25] CT
0.635 0.078 0.184 RC
N
684.472 359.2 M
689.851 359.2 L
689.851 364.245 L
684.472 364.245 L
cp
f
GR
GS
[0.75 0 0 0.75 0 0.25] CT
0.635 0.078 0.184 RC
N
708.006 359.2 M
713.385 359.2 L
713.385 358.228 L
708.006 358.228 L
cp
f
GR
GS
[0.75 0 0 0.75 0 0.25] CT
0.635 0.078 0.184 RC
N
731.539 359.2 M
736.918 359.2 L
736.918 359.189 L
731.539 359.189 L
cp
f
GR
GS
[0.75 0 0 0.75 0 0.25] CT
0.635 0.078 0.184 RC
N
755.072 359.2 M
760.451 359.2 L
760.451 359.279 L
755.072 359.279 L
cp
f
GR
GS
[0.75 0 0 0.75 0 0.25] CT
0.635 0.078 0.184 RC
N
778.606 359.2 M
783.985 359.2 L
783.985 359.202 L
778.606 359.202 L
cp
f
GR
GS
[0.75 0 0 0.75 0 0.25] CT
0.635 0.078 0.184 RC
N
802.139 359.2 M
807.518 359.2 L
807.518 357.591 L
802.139 357.591 L
cp
f
GR
GS
[0.75 0 0 0.75 0 0.25] CT
10.0 ML
0.667 LW
N
143.206 359.2 M
143.206 359.269 L
148.585 359.269 L
148.585 359.2 L
cp
S
GR
GS
[0.75 0 0 0.75 0 0.25] CT
10.0 ML
0.667 LW
N
166.739 359.2 M
166.739 359.274 L
172.118 359.274 L
172.118 359.2 L
cp
S
GR
GS
[0.75 0 0 0.75 0 0.25] CT
10.0 ML
0.667 LW
N
190.272 359.2 M
190.272 359.344 L
195.651 359.344 L
195.651 359.2 L
cp
S
GR
GS
[0.75 0 0 0.75 0 0.25] CT
10.0 ML
0.667 LW
N
213.806 359.2 M
213.806 378.777 L
219.185 378.777 L
219.185 359.2 L
cp
S
GR
GS
[0.75 0 0 0.75 0 0.25] CT
10.0 ML
0.667 LW
N
237.339 359.2 M
237.339 359.179 L
242.718 359.179 L
242.718 359.2 L
cp
S
GR
GS
[0.75 0 0 0.75 0 0.25] CT
10.0 ML
0.667 LW
N
260.872 359.2 M
260.872 338.458 L
266.251 338.458 L
266.251 359.2 L
cp
S
GR
GS
[0.75 0 0 0.75 0 0.25] CT
10.0 ML
0.667 LW
N
284.406 359.2 M
284.406 358.225 L
289.785 358.225 L
289.785 359.2 L
cp
S
GR
GS
[0.75 0 0 0.75 0 0.25] CT
10.0 ML
0.667 LW
N
307.939 359.2 M
307.939 359.645 L
313.318 359.645 L
313.318 359.2 L
cp
S
GR
GS
[0.75 0 0 0.75 0 0.25] CT
10.0 ML
0.667 LW
N
331.472 359.2 M
331.472 359.927 L
336.851 359.927 L
336.851 359.2 L
cp
S
GR
GS
[0.75 0 0 0.75 0 0.25] CT
10.0 ML
0.667 LW
N
355.006 359.2 M
355.006 285.443 L
360.385 285.443 L
360.385 359.2 L
cp
S
GR
GS
[0.75 0 0 0.75 0 0.25] CT
10.0 ML
0.667 LW
N
378.539 359.2 M
378.539 359.236 L
383.918 359.236 L
383.918 359.2 L
cp
S
GR
GS
[0.75 0 0 0.75 0 0.25] CT
10.0 ML
0.667 LW
N
402.072 359.2 M
402.072 359.014 L
407.451 359.014 L
407.451 359.2 L
cp
S
GR
GS
[0.75 0 0 0.75 0 0.25] CT
10.0 ML
0.667 LW
N
425.606 359.2 M
425.606 356.92 L
430.985 356.92 L
430.985 359.2 L
cp
S
GR
GS
[0.75 0 0 0.75 0 0.25] CT
10.0 ML
0.667 LW
N
449.139 359.2 M
449.139 363.184 L
454.518 363.184 L
454.518 359.2 L
cp
S
GR
GS
[0.75 0 0 0.75 0 0.25] CT
10.0 ML
0.667 LW
N
472.672 359.2 M
472.672 359.096 L
478.051 359.096 L
478.051 359.2 L
cp
S
GR
GS
[0.75 0 0 0.75 0 0.25] CT
10.0 ML
0.667 LW
N
496.206 359.2 M
496.206 352.958 L
501.585 352.958 L
501.585 359.2 L
cp
S
GR
GS
[0.75 0 0 0.75 0 0.25] CT
10.0 ML
0.667 LW
N
519.739 359.2 M
519.739 412.826 L
525.118 412.826 L
525.118 359.2 L
cp
S
GR
GS
[0.75 0 0 0.75 0 0.25] CT
10.0 ML
0.667 LW
N
543.272 359.2 M
543.272 386.927 L
548.651 386.927 L
548.651 359.2 L
cp
S
GR
GS
[0.75 0 0 0.75 0 0.25] CT
10.0 ML
0.667 LW
N
566.806 359.2 M
566.806 378.035 L
572.185 378.035 L
572.185 359.2 L
cp
S
GR
GS
[0.75 0 0 0.75 0 0.25] CT
10.0 ML
0.667 LW
N
590.339 359.2 M
590.339 397.335 L
595.718 397.335 L
595.718 359.2 L
cp
S
GR
GS
[0.75 0 0 0.75 0 0.25] CT
10.0 ML
0.667 LW
N
613.872 359.2 M
613.872 358.815 L
619.251 358.815 L
619.251 359.2 L
cp
S
GR
GS
[0.75 0 0 0.75 0 0.25] CT
10.0 ML
0.667 LW
N
637.406 359.2 M
637.406 359.379 L
642.785 359.379 L
642.785 359.2 L
cp
S
GR
GS
[0.75 0 0 0.75 0 0.25] CT
10.0 ML
0.667 LW
N
660.939 359.2 M
660.939 359.246 L
666.318 359.246 L
666.318 359.2 L
cp
S
GR
GS
[0.75 0 0 0.75 0 0.25] CT
10.0 ML
0.667 LW
N
684.472 359.2 M
684.472 364.245 L
689.851 364.245 L
689.851 359.2 L
cp
S
GR
GS
[0.75 0 0 0.75 0 0.25] CT
10.0 ML
0.667 LW
N
708.006 359.2 M
708.006 358.228 L
713.385 358.228 L
713.385 359.2 L
cp
S
GR
GS
[0.75 0 0 0.75 0 0.25] CT
10.0 ML
0.667 LW
N
731.539 359.2 M
731.539 359.189 L
736.918 359.189 L
736.918 359.2 L
cp
S
GR
GS
[0.75 0 0 0.75 0 0.25] CT
10.0 ML
0.667 LW
N
755.072 359.2 M
755.072 359.279 L
760.451 359.279 L
760.451 359.2 L
cp
S
GR
GS
[0.75 0 0 0.75 0 0.25] CT
10.0 ML
0.667 LW
N
778.606 359.2 M
778.606 359.202 L
783.985 359.202 L
783.985 359.2 L
cp
S
GR
GS
[0.75 0 0 0.75 0 0.25] CT
10.0 ML
0.667 LW
N
802.139 359.2 M
802.139 357.591 L
807.518 357.591 L
807.518 359.2 L
cp
S
GR
GS
[0.75 0 0 0.75 0 0.25] CT
0.149 GC
2 setlinecap
1 LJ
0.667 LW
N
119 424 M
825 424 L
S
GR
GS
[0.75 0 0 0.75 0 0.25] CT
0.149 GC
2 setlinecap
1 LJ
0.667 LW
N
119 262 M
825 262 L
S
GR
GS
[0.75 0 0 0.75 0 0.25] CT
0.149 GC
2 setlinecap
1 LJ
0.667 LW
N
142.533 424 M
142.533 416.94 L
S
GR
GS
[0.75 0 0 0.75 0 0.25] CT
0.149 GC
2 setlinecap
1 LJ
0.667 LW
N
166.067 424 M
166.067 416.94 L
S
GR
GS
[0.75 0 0 0.75 0 0.25] CT
0.149 GC
2 setlinecap
1 LJ
0.667 LW
N
189.6 424 M
189.6 416.94 L
S
GR
GS
[0.75 0 0 0.75 0 0.25] CT
0.149 GC
2 setlinecap
1 LJ
0.667 LW
N
213.133 424 M
213.133 416.94 L
S
GR
GS
[0.75 0 0 0.75 0 0.25] CT
0.149 GC
2 setlinecap
1 LJ
0.667 LW
N
236.667 424 M
236.667 416.94 L
S
GR
GS
[0.75 0 0 0.75 0 0.25] CT
0.149 GC
2 setlinecap
1 LJ
0.667 LW
N
260.2 424 M
260.2 416.94 L
S
GR
GS
[0.75 0 0 0.75 0 0.25] CT
0.149 GC
2 setlinecap
1 LJ
0.667 LW
N
283.733 424 M
283.733 416.94 L
S
GR
GS
[0.75 0 0 0.75 0 0.25] CT
0.149 GC
2 setlinecap
1 LJ
0.667 LW
N
307.267 424 M
307.267 416.94 L
S
GR
GS
[0.75 0 0 0.75 0 0.25] CT
0.149 GC
2 setlinecap
1 LJ
0.667 LW
N
330.8 424 M
330.8 416.94 L
S
GR
GS
[0.75 0 0 0.75 0 0.25] CT
0.149 GC
2 setlinecap
1 LJ
0.667 LW
N
354.333 424 M
354.333 416.94 L
S
GR
GS
[0.75 0 0 0.75 0 0.25] CT
0.149 GC
2 setlinecap
1 LJ
0.667 LW
N
377.867 424 M
377.867 416.94 L
S
GR
GS
[0.75 0 0 0.75 0 0.25] CT
0.149 GC
2 setlinecap
1 LJ
0.667 LW
N
401.4 424 M
401.4 416.94 L
S
GR
GS
[0.75 0 0 0.75 0 0.25] CT
0.149 GC
2 setlinecap
1 LJ
0.667 LW
N
424.933 424 M
424.933 416.94 L
S
GR
GS
[0.75 0 0 0.75 0 0.25] CT
0.149 GC
2 setlinecap
1 LJ
0.667 LW
N
448.467 424 M
448.467 416.94 L
S
GR
GS
[0.75 0 0 0.75 0 0.25] CT
0.149 GC
2 setlinecap
1 LJ
0.667 LW
N
472 424 M
472 416.94 L
S
GR
GS
[0.75 0 0 0.75 0 0.25] CT
0.149 GC
2 setlinecap
1 LJ
0.667 LW
N
495.533 424 M
495.533 416.94 L
S
GR
GS
[0.75 0 0 0.75 0 0.25] CT
0.149 GC
2 setlinecap
1 LJ
0.667 LW
N
519.067 424 M
519.067 416.94 L
S
GR
GS
[0.75 0 0 0.75 0 0.25] CT
0.149 GC
2 setlinecap
1 LJ
0.667 LW
N
542.6 424 M
542.6 416.94 L
S
GR
GS
[0.75 0 0 0.75 0 0.25] CT
0.149 GC
2 setlinecap
1 LJ
0.667 LW
N
566.133 424 M
566.133 416.94 L
S
GR
GS
[0.75 0 0 0.75 0 0.25] CT
0.149 GC
2 setlinecap
1 LJ
0.667 LW
N
589.667 424 M
589.667 416.94 L
S
GR
GS
[0.75 0 0 0.75 0 0.25] CT
0.149 GC
2 setlinecap
1 LJ
0.667 LW
N
613.2 424 M
613.2 416.94 L
S
GR
GS
[0.75 0 0 0.75 0 0.25] CT
0.149 GC
2 setlinecap
1 LJ
0.667 LW
N
636.733 424 M
636.733 416.94 L
S
GR
GS
[0.75 0 0 0.75 0 0.25] CT
0.149 GC
2 setlinecap
1 LJ
0.667 LW
N
660.267 424 M
660.267 416.94 L
S
GR
GS
[0.75 0 0 0.75 0 0.25] CT
0.149 GC
2 setlinecap
1 LJ
0.667 LW
N
683.8 424 M
683.8 416.94 L
S
GR
GS
[0.75 0 0 0.75 0 0.25] CT
0.149 GC
2 setlinecap
1 LJ
0.667 LW
N
707.333 424 M
707.333 416.94 L
S
GR
GS
[0.75 0 0 0.75 0 0.25] CT
0.149 GC
2 setlinecap
1 LJ
0.667 LW
N
730.867 424 M
730.867 416.94 L
S
GR
GS
[0.75 0 0 0.75 0 0.25] CT
0.149 GC
2 setlinecap
1 LJ
0.667 LW
N
754.4 424 M
754.4 416.94 L
S
GR
GS
[0.75 0 0 0.75 0 0.25] CT
0.149 GC
2 setlinecap
1 LJ
0.667 LW
N
777.933 424 M
777.933 416.94 L
S
GR
GS
[0.75 0 0 0.75 0 0.25] CT
0.149 GC
2 setlinecap
1 LJ
0.667 LW
N
801.467 424 M
801.467 416.94 L
S
GR
GS
[0.75 0 0 0.75 0 0.25] CT
0.149 GC
2 setlinecap
1 LJ
0.667 LW
N
142.533 262 M
142.533 269.06 L
S
GR
GS
[0.75 0 0 0.75 0 0.25] CT
0.149 GC
2 setlinecap
1 LJ
0.667 LW
N
166.067 262 M
166.067 269.06 L
S
GR
GS
[0.75 0 0 0.75 0 0.25] CT
0.149 GC
2 setlinecap
1 LJ
0.667 LW
N
189.6 262 M
189.6 269.06 L
S
GR
GS
[0.75 0 0 0.75 0 0.25] CT
0.149 GC
2 setlinecap
1 LJ
0.667 LW
N
213.133 262 M
213.133 269.06 L
S
GR
GS
[0.75 0 0 0.75 0 0.25] CT
0.149 GC
2 setlinecap
1 LJ
0.667 LW
N
236.667 262 M
236.667 269.06 L
S
GR
GS
[0.75 0 0 0.75 0 0.25] CT
0.149 GC
2 setlinecap
1 LJ
0.667 LW
N
260.2 262 M
260.2 269.06 L
S
GR
GS
[0.75 0 0 0.75 0 0.25] CT
0.149 GC
2 setlinecap
1 LJ
0.667 LW
N
283.733 262 M
283.733 269.06 L
S
GR
GS
[0.75 0 0 0.75 0 0.25] CT
0.149 GC
2 setlinecap
1 LJ
0.667 LW
N
307.267 262 M
307.267 269.06 L
S
GR
GS
[0.75 0 0 0.75 0 0.25] CT
0.149 GC
2 setlinecap
1 LJ
0.667 LW
N
330.8 262 M
330.8 269.06 L
S
GR
GS
[0.75 0 0 0.75 0 0.25] CT
0.149 GC
2 setlinecap
1 LJ
0.667 LW
N
354.333 262 M
354.333 269.06 L
S
GR
GS
[0.75 0 0 0.75 0 0.25] CT
0.149 GC
2 setlinecap
1 LJ
0.667 LW
N
377.867 262 M
377.867 269.06 L
S
GR
GS
[0.75 0 0 0.75 0 0.25] CT
0.149 GC
2 setlinecap
1 LJ
0.667 LW
N
401.4 262 M
401.4 269.06 L
S
GR
GS
[0.75 0 0 0.75 0 0.25] CT
0.149 GC
2 setlinecap
1 LJ
0.667 LW
N
424.933 262 M
424.933 269.06 L
S
GR
GS
[0.75 0 0 0.75 0 0.25] CT
0.149 GC
2 setlinecap
1 LJ
0.667 LW
N
448.467 262 M
448.467 269.06 L
S
GR
GS
[0.75 0 0 0.75 0 0.25] CT
0.149 GC
2 setlinecap
1 LJ
0.667 LW
N
472 262 M
472 269.06 L
S
GR
GS
[0.75 0 0 0.75 0 0.25] CT
0.149 GC
2 setlinecap
1 LJ
0.667 LW
N
495.533 262 M
495.533 269.06 L
S
GR
GS
[0.75 0 0 0.75 0 0.25] CT
0.149 GC
2 setlinecap
1 LJ
0.667 LW
N
519.067 262 M
519.067 269.06 L
S
GR
GS
[0.75 0 0 0.75 0 0.25] CT
0.149 GC
2 setlinecap
1 LJ
0.667 LW
N
542.6 262 M
542.6 269.06 L
S
GR
GS
[0.75 0 0 0.75 0 0.25] CT
0.149 GC
2 setlinecap
1 LJ
0.667 LW
N
566.133 262 M
566.133 269.06 L
S
GR
GS
[0.75 0 0 0.75 0 0.25] CT
0.149 GC
2 setlinecap
1 LJ
0.667 LW
N
589.667 262 M
589.667 269.06 L
S
GR
GS
[0.75 0 0 0.75 0 0.25] CT
0.149 GC
2 setlinecap
1 LJ
0.667 LW
N
613.2 262 M
613.2 269.06 L
S
GR
GS
[0.75 0 0 0.75 0 0.25] CT
0.149 GC
2 setlinecap
1 LJ
0.667 LW
N
636.733 262 M
636.733 269.06 L
S
GR
GS
[0.75 0 0 0.75 0 0.25] CT
0.149 GC
2 setlinecap
1 LJ
0.667 LW
N
660.267 262 M
660.267 269.06 L
S
GR
GS
[0.75 0 0 0.75 0 0.25] CT
0.149 GC
2 setlinecap
1 LJ
0.667 LW
N
683.8 262 M
683.8 269.06 L
S
GR
GS
[0.75 0 0 0.75 0 0.25] CT
0.149 GC
2 setlinecap
1 LJ
0.667 LW
N
707.333 262 M
707.333 269.06 L
S
GR
GS
[0.75 0 0 0.75 0 0.25] CT
0.149 GC
2 setlinecap
1 LJ
0.667 LW
N
730.867 262 M
730.867 269.06 L
S
GR
GS
[0.75 0 0 0.75 0 0.25] CT
0.149 GC
2 setlinecap
1 LJ
0.667 LW
N
754.4 262 M
754.4 269.06 L
S
GR
GS
[0.75 0 0 0.75 0 0.25] CT
0.149 GC
2 setlinecap
1 LJ
0.667 LW
N
777.933 262 M
777.933 269.06 L
S
GR
GS
[0.75 0 0 0.75 0 0.25] CT
0.149 GC
2 setlinecap
1 LJ
0.667 LW
N
801.467 262 M
801.467 269.06 L
S
GR
GS
[0.75 0 0 0.75 106.90001 322.25001] CT
0.149 GC
/Helvetica 13.333 F
GS
[1 0 0 1 0 0] CT
-4.5 13 moveto 
1 -1 scale
(1) t 
GR
GR
GS
[0.75 0 0 0.75 124.55 322.25001] CT
0.149 GC
/Helvetica 13.333 F
GS
[1 0 0 1 0 0] CT
-4.5 13 moveto 
1 -1 scale
(2) t 
GR
GR
GS
[0.75 0 0 0.75 142.2 322.25001] CT
0.149 GC
/Helvetica 13.333 F
GS
[1 0 0 1 0 0] CT
-4.5 13 moveto 
1 -1 scale
(3) t 
GR
GR
GS
[0.75 0 0 0.75 159.85 322.25001] CT
0.149 GC
/Helvetica 13.333 F
GS
[1 0 0 1 0 0] CT
-4.5 13 moveto 
1 -1 scale
(4) t 
GR
GR
GS
[0.75 0 0 0.75 177.5 322.25001] CT
0.149 GC
/Helvetica 13.333 F
GS
[1 0 0 1 0 0] CT
-4.5 13 moveto 
1 -1 scale
(5) t 
GR
GR
GS
[0.75 0 0 0.75 195.15001 322.25001] CT
0.149 GC
/Helvetica 13.333 F
GS
[1 0 0 1 0 0] CT
-4.5 13 moveto 
1 -1 scale
(6) t 
GR
GR
GS
[0.75 0 0 0.75 212.8 322.25001] CT
0.149 GC
/Helvetica 13.333 F
GS
[1 0 0 1 0 0] CT
-4.5 13 moveto 
1 -1 scale
(7) t 
GR
GR
GS
[0.75 0 0 0.75 230.45 322.25001] CT
0.149 GC
/Helvetica 13.333 F
GS
[1 0 0 1 0 0] CT
-4.5 13 moveto 
1 -1 scale
(8) t 
GR
GR
GS
[0.75 0 0 0.75 248.09999 322.25001] CT
0.149 GC
/Helvetica 13.333 F
GS
[1 0 0 1 0 0] CT
-4.5 13 moveto 
1 -1 scale
(9) t 
GR
GR
GS
[0.75 0 0 0.75 265.75001 322.25001] CT
0.149 GC
/Helvetica 13.333 F
GS
[1 0 0 1 0 0] CT
-8.5 13 moveto 
1 -1 scale
(10) t 
GR
GR
GS
[0.75 0 0 0.75 283.4 322.25001] CT
0.149 GC
/Helvetica 13.333 F
GS
[1 0 0 1 0 0] CT
-8.5 13 moveto 
1 -1 scale
(11) t 
GR
GR
GS
[0.75 0 0 0.75 301.05 322.25001] CT
0.149 GC
/Helvetica 13.333 F
GS
[1 0 0 1 0 0] CT
-8.5 13 moveto 
1 -1 scale
(12) t 
GR
GR
GS
[0.75 0 0 0.75 318.69999 322.25001] CT
0.149 GC
/Helvetica 13.333 F
GS
[1 0 0 1 0 0] CT
-8.5 13 moveto 
1 -1 scale
(13) t 
GR
GR
GS
[0.75 0 0 0.75 336.35001 322.25001] CT
0.149 GC
/Helvetica 13.333 F
GS
[1 0 0 1 0 0] CT
-8.5 13 moveto 
1 -1 scale
(14) t 
GR
GR
GS
[0.75 0 0 0.75 354 322.25001] CT
0.149 GC
/Helvetica 13.333 F
GS
[1 0 0 1 0 0] CT
-8.5 13 moveto 
1 -1 scale
(15) t 
GR
GR
GS
[0.75 0 0 0.75 371.64999 322.25001] CT
0.149 GC
/Helvetica 13.333 F
GS
[1 0 0 1 0 0] CT
-8.5 13 moveto 
1 -1 scale
(16) t 
GR
GR
GS
[0.75 0 0 0.75 389.29999 322.25001] CT
0.149 GC
/Helvetica 13.333 F
GS
[1 0 0 1 0 0] CT
-8.5 13 moveto 
1 -1 scale
(17) t 
GR
GR
GS
[0.75 0 0 0.75 406.94998 322.25001] CT
0.149 GC
/Helvetica 13.333 F
GS
[1 0 0 1 0 0] CT
-8.5 13 moveto 
1 -1 scale
(18) t 
GR
GR
GS
[0.75 0 0 0.75 424.60002 322.25001] CT
0.149 GC
/Helvetica 13.333 F
GS
[1 0 0 1 0 0] CT
-8.5 13 moveto 
1 -1 scale
(19) t 
GR
GR
GS
[0.75 0 0 0.75 442.25002 322.25001] CT
0.149 GC
/Helvetica 13.333 F
GS
[1 0 0 1 0 0] CT
-8.5 13 moveto 
1 -1 scale
(20) t 
GR
GR
GS
[0.75 0 0 0.75 459.90001 322.25001] CT
0.149 GC
/Helvetica 13.333 F
GS
[1 0 0 1 0 0] CT
-8.5 13 moveto 
1 -1 scale
(21) t 
GR
GR
GS
[0.75 0 0 0.75 477.55 322.25001] CT
0.149 GC
/Helvetica 13.333 F
GS
[1 0 0 1 0 0] CT
-8.5 13 moveto 
1 -1 scale
(22) t 
GR
GR
GS
[0.75 0 0 0.75 495.2 322.25001] CT
0.149 GC
/Helvetica 13.333 F
GS
[1 0 0 1 0 0] CT
-8.5 13 moveto 
1 -1 scale
(23) t 
GR
GR
GS
[0.75 0 0 0.75 512.84999 322.25001] CT
0.149 GC
/Helvetica 13.333 F
GS
[1 0 0 1 0 0] CT
-8.5 13 moveto 
1 -1 scale
(24) t 
GR
GR
GS
[0.75 0 0 0.75 530.49998 322.25001] CT
0.149 GC
/Helvetica 13.333 F
GS
[1 0 0 1 0 0] CT
-8.5 13 moveto 
1 -1 scale
(25) t 
GR
GR
GS
[0.75 0 0 0.75 548.14998 322.25001] CT
0.149 GC
/Helvetica 13.333 F
GS
[1 0 0 1 0 0] CT
-8.5 13 moveto 
1 -1 scale
(27) t 
GR
GR
GS
[0.75 0 0 0.75 565.80002 322.25001] CT
0.149 GC
/Helvetica 13.333 F
GS
[1 0 0 1 0 0] CT
-8.5 13 moveto 
1 -1 scale
(28) t 
GR
GR
GS
[0.75 0 0 0.75 583.45001 322.25001] CT
0.149 GC
/Helvetica 13.333 F
GS
[1 0 0 1 0 0] CT
-8.5 13 moveto 
1 -1 scale
(29) t 
GR
GR
GS
[0.75 0 0 0.75 601.10001 322.25001] CT
0.149 GC
/Helvetica 13.333 F
GS
[1 0 0 1 0 0] CT
-8.5 13 moveto 
1 -1 scale
(30) t 
GR
GR
GS
[0.75 0 0 0.75 354.00025 335.99999] CT
0.149 GC
/Helvetica 14.667 F
GS
[1 0 0 1 0 0] CT
-45.5 14 moveto 
1 -1 scale
(Point clouds) t 
GR
GR
GS
[0.75 0 0 0.75 0 0.25] CT
0.149 GC
2 setlinecap
1 LJ
0.667 LW
N
119 424 M
119 262 L
S
GR
GS
[0.75 0 0 0.75 0 0.25] CT
0.149 GC
2 setlinecap
1 LJ
0.667 LW
N
825 424 M
825 262 L
S
GR
GS
[0.75 0 0 0.75 0 0.25] CT
0.149 GC
2 setlinecap
1 LJ
0.667 LW
N
119 424 M
126.06 424 L
S
GR
GS
[0.75 0 0 0.75 0 0.25] CT
0.149 GC
2 setlinecap
1 LJ
0.667 LW
N
119 391.6 M
126.06 391.6 L
S
GR
GS
[0.75 0 0 0.75 0 0.25] CT
0.149 GC
2 setlinecap
1 LJ
0.667 LW
N
119 359.2 M
126.06 359.2 L
S
GR
GS
[0.75 0 0 0.75 0 0.25] CT
0.149 GC
2 setlinecap
1 LJ
0.667 LW
N
119 326.8 M
126.06 326.8 L
S
GR
GS
[0.75 0 0 0.75 0 0.25] CT
0.149 GC
2 setlinecap
1 LJ
0.667 LW
N
119 294.4 M
126.06 294.4 L
S
GR
GS
[0.75 0 0 0.75 0 0.25] CT
0.149 GC
2 setlinecap
1 LJ
0.667 LW
N
119 262 M
126.06 262 L
S
GR
GS
[0.75 0 0 0.75 0 0.25] CT
0.149 GC
2 setlinecap
1 LJ
0.667 LW
N
825 424 M
817.94 424 L
S
GR
GS
[0.75 0 0 0.75 0 0.25] CT
0.149 GC
2 setlinecap
1 LJ
0.667 LW
N
825 391.6 M
817.94 391.6 L
S
GR
GS
[0.75 0 0 0.75 0 0.25] CT
0.149 GC
2 setlinecap
1 LJ
0.667 LW
N
825 359.2 M
817.94 359.2 L
S
GR
GS
[0.75 0 0 0.75 0 0.25] CT
0.149 GC
2 setlinecap
1 LJ
0.667 LW
N
825 326.8 M
817.94 326.8 L
S
GR
GS
[0.75 0 0 0.75 0 0.25] CT
0.149 GC
2 setlinecap
1 LJ
0.667 LW
N
825 294.4 M
817.94 294.4 L
S
GR
GS
[0.75 0 0 0.75 0 0.25] CT
0.149 GC
2 setlinecap
1 LJ
0.667 LW
N
825 262 M
817.94 262 L
S
GR
GS
[0.75 0 0 0.75 85.25 318.25] CT
0.149 GC
/Helvetica 13.333 F
GS
[1 0 0 1 0 0] CT
-13 4.5 moveto 
1 -1 scale
(-4) t 
GR
GR
GS
[0.75 0 0 0.75 85.25 293.95] CT
0.149 GC
/Helvetica 13.333 F
GS
[1 0 0 1 0 0] CT
-13 4.5 moveto 
1 -1 scale
(-2) t 
GR
GR
GS
[0.75 0 0 0.75 85.25 269.65001] CT
0.149 GC
/Helvetica 13.333 F
GS
[1 0 0 1 0 0] CT
-9 4.5 moveto 
1 -1 scale
(0) t 
GR
GR
GS
[0.75 0 0 0.75 85.25 245.34999] CT
0.149 GC
/Helvetica 13.333 F
GS
[1 0 0 1 0 0] CT
-9 4.5 moveto 
1 -1 scale
(2) t 
GR
GR
GS
[0.75 0 0 0.75 85.25 221.05] CT
0.149 GC
/Helvetica 13.333 F
GS
[1 0 0 1 0 0] CT
-9 4.5 moveto 
1 -1 scale
(4) t 
GR
GR
GS
[0.75 0 0 0.75 85.25 196.75] CT
0.149 GC
/Helvetica 13.333 F
GS
[1 0 0 1 0 0] CT
-9 4.5 moveto 
1 -1 scale
(6) t 
GR
GR
GS
[0 -0.75 0.75 0 65.25 274.75] CT
0.149 GC
N
0.813 0 M
0.688 0 0.688 -0.125 QT
0.703 -0.125 0.703 -0.133 QT
0.703 -0.141 0.703 -0.172 QT
5.859 -10.578 L
5.938 -10.734 6.141 -10.734 QT
6.344 -10.734 L
6.547 -10.734 6.609 -10.578 QT
11.781 -0.172 L
11.781 -0.156 11.789 -0.141 QT
11.797 -0.125 11.797 -0.125 QT
11.797 0 11.672 0 QT
0.813 0 L
cp
1.797 -1.203 M
9.703 -1.203 L
5.75 -9.156 L
1.797 -1.203 L
cp
f
GR
GS
[0 -0.75 0.75 0 65.25 265] CT
0.149 GC
/Helvetica 14.667 F
GS
[1 0 0 1 0 0] CT
0 0 moveto 
1 -1 scale
( err) t 
GR
GR
GS
[0 -0.75 0.75 0 70.5 244.75] CT
0.149 GC
/Helvetica 11.733 F
GS
[1 0 0 1 0 0] CT
0 0 moveto 
1 -1 scale
(t) t 
GR
GR
GS
[0.75 0 0 0.75 89.25 193.75] CT
0.149 GC
N
1.906 -0.375 M
1.906 -0.469 1.969 -0.563 QT
4.672 -3.25 L
1.969 -5.953 L
1.906 -6.016 1.906 -6.125 QT
1.906 -6.219 1.984 -6.305 QT
2.063 -6.391 2.172 -6.391 QT
2.266 -6.391 2.375 -6.297 QT
5.063 -3.609 L
7.734 -6.297 L
7.844 -6.391 7.922 -6.391 QT
8.031 -6.391 8.109 -6.313 QT
8.188 -6.234 8.188 -6.125 QT
8.188 -6.016 8.125 -5.953 QT
5.422 -3.25 L
8.125 -0.563 L
8.188 -0.469 8.188 -0.375 QT
8.188 -0.266 8.109 -0.188 QT
8.031 -0.109 7.922 -0.109 QT
7.828 -0.109 7.734 -0.203 QT
5.063 -2.891 L
2.375 -0.203 L
2.266 -0.109 2.172 -0.109 QT
2.063 -0.109 1.984 -0.195 QT
1.906 -0.281 1.906 -0.375 QT
cp
f
GR
GS
[0.75 0 0 0.75 97.5 193.75] CT
0.149 GC
/Helvetica 13.333 F
GS
[1 0 0 1 0 0] CT
0 0 moveto 
1 -1 scale
(10) t 
GR
GR
GS
[0.75 0 0 0.75 110.25 189.25] CT
0.149 GC
/Helvetica 10.667 F
GS
[1 0 0 1 0 0] CT
0 0 moveto 
1 -1 scale
(-3) t 
GR
GR
%%Trailer
%%Pages: 1
%%EOF
