%!PS-Adobe-3.0 EPSF-3.0
%%Creator: (MATLAB, The Mathworks, Inc. Version 9.2.0.538062 \(R2017a\). Operating System: Linux)
%%Title: /home/nicola/Scrivania/RESEARCH/Projects/TrimBot2020/RESEARCH/Speedup/evaluation_GTX1080ti/gtx-speedup.eps
%%CreationDate: 2019-09-25T19:17:09
%%Pages: (atend)
%%BoundingBox: 0 0 759 447
%%LanguageLevel: 3
%%EndComments
%%BeginProlog
%%BeginResource: procset (Apache XML Graphics Std ProcSet) 1.2 0
%%Version: 1.2 0
%%Copyright: (Copyright 2001-2003,2010 The Apache Software Foundation. License terms: http://www.apache.org/licenses/LICENSE-2.0)
/bd{bind def}bind def
/ld{load def}bd
/GR/grestore ld
/M/moveto ld
/LJ/setlinejoin ld
/C/curveto ld
/f/fill ld
/LW/setlinewidth ld
/GC/setgray ld
/t/show ld
/N/newpath ld
/CT/concat ld
/cp/closepath ld
/S/stroke ld
/L/lineto ld
/CC/setcmykcolor ld
/A/ashow ld
/GS/gsave ld
/RC/setrgbcolor ld
/RM/rmoveto ld
/ML/setmiterlimit ld
/re {4 2 roll M
1 index 0 rlineto
0 exch rlineto
neg 0 rlineto
cp } bd
/_ctm matrix def
/_tm matrix def
/BT { _ctm currentmatrix pop matrix _tm copy pop 0 0 moveto } bd
/ET { _ctm setmatrix } bd
/iTm { _ctm setmatrix _tm concat } bd
/Tm { _tm astore pop iTm 0 0 moveto } bd
/ux 0.0 def
/uy 0.0 def
/F {
  /Tp exch def
  /Tf exch def
  Tf findfont Tp scalefont setfont
  /cf Tf def  /cs Tp def
} bd
/ULS {currentpoint /uy exch def /ux exch def} bd
/ULE {
  /Tcx currentpoint pop def
  gsave
  newpath
  cf findfont cs scalefont dup
  /FontMatrix get 0 get /Ts exch def /FontInfo get dup
  /UnderlinePosition get Ts mul /To exch def
  /UnderlineThickness get Ts mul /Tt exch def
  ux uy To add moveto  Tcx uy To add lineto
  Tt setlinewidth stroke
  grestore
} bd
/OLE {
  /Tcx currentpoint pop def
  gsave
  newpath
  cf findfont cs scalefont dup
  /FontMatrix get 0 get /Ts exch def /FontInfo get dup
  /UnderlinePosition get Ts mul /To exch def
  /UnderlineThickness get Ts mul /Tt exch def
  ux uy To add cs add moveto Tcx uy To add cs add lineto
  Tt setlinewidth stroke
  grestore
} bd
/SOE {
  /Tcx currentpoint pop def
  gsave
  newpath
  cf findfont cs scalefont dup
  /FontMatrix get 0 get /Ts exch def /FontInfo get dup
  /UnderlinePosition get Ts mul /To exch def
  /UnderlineThickness get Ts mul /Tt exch def
  ux uy To add cs 10 mul 26 idiv add moveto Tcx uy To add cs 10 mul 26 idiv add lineto
  Tt setlinewidth stroke
  grestore
} bd
/QT {
/Y22 exch store
/X22 exch store
/Y21 exch store
/X21 exch store
currentpoint
/Y21 load 2 mul add 3 div exch
/X21 load 2 mul add 3 div exch
/X21 load 2 mul /X22 load add 3 div
/Y21 load 2 mul /Y22 load add 3 div
/X22 load /Y22 load curveto
} bd
/SSPD {
dup length /d exch dict def
{
/v exch def
/k exch def
currentpagedevice k known {
/cpdv currentpagedevice k get def
v cpdv ne {
/upd false def
/nullv v type /nulltype eq def
/nullcpdv cpdv type /nulltype eq def
nullv nullcpdv or
{
/upd true def
} {
/sametype v type cpdv type eq def
sametype {
v type /arraytype eq {
/vlen v length def
/cpdvlen cpdv length def
vlen cpdvlen eq {
0 1 vlen 1 sub {
/i exch def
/obj v i get def
/cpdobj cpdv i get def
obj cpdobj ne {
/upd true def
exit
} if
} for
} {
/upd true def
} ifelse
} {
v type /dicttype eq {
v {
/dv exch def
/dk exch def
/cpddv cpdv dk get def
dv cpddv ne {
/upd true def
exit
} if
} forall
} {
/upd true def
} ifelse
} ifelse
} if
} ifelse
upd true eq {
d k v put
} if
} if
} if
} forall
d length 0 gt {
d setpagedevice
} if
} bd
/RE { % /NewFontName [NewEncodingArray] /FontName RE -
  findfont dup length dict begin
  {
    1 index /FID ne
    {def} {pop pop} ifelse
  } forall
  /Encoding exch def
  /FontName 1 index def
  currentdict definefont pop
  end
} bind def
%%EndResource
%%BeginResource: procset (Apache XML Graphics EPS ProcSet) 1.0 0
%%Version: 1.0 0
%%Copyright: (Copyright 2002-2003 The Apache Software Foundation. License terms: http://www.apache.org/licenses/LICENSE-2.0)
/BeginEPSF { %def
/b4_Inc_state save def         % Save state for cleanup
/dict_count countdictstack def % Count objects on dict stack
/op_count count 1 sub def      % Count objects on operand stack
userdict begin                 % Push userdict on dict stack
/showpage { } def              % Redefine showpage, { } = null proc
0 setgray 0 setlinecap         % Prepare graphics state
1 setlinewidth 0 setlinejoin
10 setmiterlimit [ ] 0 setdash newpath
/languagelevel where           % If level not equal to 1 then
{pop languagelevel             % set strokeadjust and
1 ne                           % overprint to their defaults.
{false setstrokeadjust false setoverprint
} if
} if
} bd
/EndEPSF { %def
count op_count sub {pop} repeat            % Clean up stacks
countdictstack dict_count sub {end} repeat
b4_Inc_state restore
} bd
%%EndResource
%FOPBeginFontDict
%%IncludeResource: font Courier-Bold
%%IncludeResource: font Helvetica
%%IncludeResource: font Courier-BoldOblique
%%IncludeResource: font Courier-Oblique
%%IncludeResource: font Times-Roman
%%IncludeResource: font Helvetica-BoldOblique
%%IncludeResource: font Helvetica-Bold
%%IncludeResource: font Helvetica-Oblique
%%IncludeResource: font Times-BoldItalic
%%IncludeResource: font Courier
%%IncludeResource: font Times-Italic
%%IncludeResource: font Times-Bold
%%IncludeResource: font Symbol
%%IncludeResource: font ZapfDingbats
%FOPEndFontDict
%%BeginResource: encoding WinAnsiEncoding
/WinAnsiEncoding [
/.notdef /.notdef /.notdef /.notdef /.notdef
/.notdef /.notdef /.notdef /.notdef /.notdef
/.notdef /.notdef /.notdef /.notdef /.notdef
/.notdef /.notdef /.notdef /.notdef /.notdef
/.notdef /.notdef /.notdef /.notdef /.notdef
/.notdef /.notdef /.notdef /.notdef /.notdef
/.notdef /.notdef /space /exclam /quotedbl
/numbersign /dollar /percent /ampersand /quotesingle
/parenleft /parenright /asterisk /plus /comma
/hyphen /period /slash /zero /one
/two /three /four /five /six
/seven /eight /nine /colon /semicolon
/less /equal /greater /question /at
/A /B /C /D /E
/F /G /H /I /J
/K /L /M /N /O
/P /Q /R /S /T
/U /V /W /X /Y
/Z /bracketleft /backslash /bracketright /asciicircum
/underscore /quoteleft /a /b /c
/d /e /f /g /h
/i /j /k /l /m
/n /o /p /q /r
/s /t /u /v /w
/x /y /z /braceleft /bar
/braceright /asciitilde /bullet /Euro /bullet
/quotesinglbase /florin /quotedblbase /ellipsis /dagger
/daggerdbl /circumflex /perthousand /Scaron /guilsinglleft
/OE /bullet /Zcaron /bullet /bullet
/quoteleft /quoteright /quotedblleft /quotedblright /bullet
/endash /emdash /asciitilde /trademark /scaron
/guilsinglright /oe /bullet /zcaron /Ydieresis
/space /exclamdown /cent /sterling /currency
/yen /brokenbar /section /dieresis /copyright
/ordfeminine /guillemotleft /logicalnot /sfthyphen /registered
/macron /degree /plusminus /twosuperior /threesuperior
/acute /mu /paragraph /middot /cedilla
/onesuperior /ordmasculine /guillemotright /onequarter /onehalf
/threequarters /questiondown /Agrave /Aacute /Acircumflex
/Atilde /Adieresis /Aring /AE /Ccedilla
/Egrave /Eacute /Ecircumflex /Edieresis /Igrave
/Iacute /Icircumflex /Idieresis /Eth /Ntilde
/Ograve /Oacute /Ocircumflex /Otilde /Odieresis
/multiply /Oslash /Ugrave /Uacute /Ucircumflex
/Udieresis /Yacute /Thorn /germandbls /agrave
/aacute /acircumflex /atilde /adieresis /aring
/ae /ccedilla /egrave /eacute /ecircumflex
/edieresis /igrave /iacute /icircumflex /idieresis
/eth /ntilde /ograve /oacute /ocircumflex
/otilde /odieresis /divide /oslash /ugrave
/uacute /ucircumflex /udieresis /yacute /thorn
/ydieresis
] def
%%EndResource
%FOPBeginFontReencode
/Courier-Bold findfont
dup length dict begin
  {1 index /FID ne {def} {pop pop} ifelse} forall
  /Encoding WinAnsiEncoding def
  currentdict
end
/Courier-Bold exch definefont pop
/Helvetica findfont
dup length dict begin
  {1 index /FID ne {def} {pop pop} ifelse} forall
  /Encoding WinAnsiEncoding def
  currentdict
end
/Helvetica exch definefont pop
/Courier-BoldOblique findfont
dup length dict begin
  {1 index /FID ne {def} {pop pop} ifelse} forall
  /Encoding WinAnsiEncoding def
  currentdict
end
/Courier-BoldOblique exch definefont pop
/Courier-Oblique findfont
dup length dict begin
  {1 index /FID ne {def} {pop pop} ifelse} forall
  /Encoding WinAnsiEncoding def
  currentdict
end
/Courier-Oblique exch definefont pop
/Times-Roman findfont
dup length dict begin
  {1 index /FID ne {def} {pop pop} ifelse} forall
  /Encoding WinAnsiEncoding def
  currentdict
end
/Times-Roman exch definefont pop
/Helvetica-BoldOblique findfont
dup length dict begin
  {1 index /FID ne {def} {pop pop} ifelse} forall
  /Encoding WinAnsiEncoding def
  currentdict
end
/Helvetica-BoldOblique exch definefont pop
/Helvetica-Bold findfont
dup length dict begin
  {1 index /FID ne {def} {pop pop} ifelse} forall
  /Encoding WinAnsiEncoding def
  currentdict
end
/Helvetica-Bold exch definefont pop
/Helvetica-Oblique findfont
dup length dict begin
  {1 index /FID ne {def} {pop pop} ifelse} forall
  /Encoding WinAnsiEncoding def
  currentdict
end
/Helvetica-Oblique exch definefont pop
/Times-BoldItalic findfont
dup length dict begin
  {1 index /FID ne {def} {pop pop} ifelse} forall
  /Encoding WinAnsiEncoding def
  currentdict
end
/Times-BoldItalic exch definefont pop
/Courier findfont
dup length dict begin
  {1 index /FID ne {def} {pop pop} ifelse} forall
  /Encoding WinAnsiEncoding def
  currentdict
end
/Courier exch definefont pop
/Times-Italic findfont
dup length dict begin
  {1 index /FID ne {def} {pop pop} ifelse} forall
  /Encoding WinAnsiEncoding def
  currentdict
end
/Times-Italic exch definefont pop
/Times-Bold findfont
dup length dict begin
  {1 index /FID ne {def} {pop pop} ifelse} forall
  /Encoding WinAnsiEncoding def
  currentdict
end
/Times-Bold exch definefont pop
%FOPEndFontReencode
%%EndProlog
%%Page: 1 1
%%PageBoundingBox: 0 0 759 447
%%BeginPageSetup
[1 0 0 -1 0 447] CT
%%EndPageSetup
GS
[0.75 0 0 0.75 0 0] CT
1 GC
N
0 0 1012 596 re
f
GR
GS
[0.75 0 0 0.75 0 0] CT
1 GC
N
0 0 1012 596 re
f
GR
GS
[0.75 0 0 0.75 0 0] CT
1 GC
N
132 164 M
916 164 L
916 49 L
132 49 L
cp
f
GR
GS
[0.75 0 0 0.75 0 0] CT
0.149 GC
2 setlinecap
1 LJ
0.667 LW
N
132 164 M
916 164 L
S
GR
GS
[0.75 0 0 0.75 0 0] CT
0.149 GC
2 setlinecap
1 LJ
0.667 LW
N
158.133 164 M
158.133 156.16 L
S
GR
GS
[0.75 0 0 0.75 0 0] CT
0.149 GC
2 setlinecap
1 LJ
0.667 LW
N
184.267 164 M
184.267 156.16 L
S
GR
GS
[0.75 0 0 0.75 0 0] CT
0.149 GC
2 setlinecap
1 LJ
0.667 LW
N
210.4 164 M
210.4 156.16 L
S
GR
GS
[0.75 0 0 0.75 0 0] CT
0.149 GC
2 setlinecap
1 LJ
0.667 LW
N
236.533 164 M
236.533 156.16 L
S
GR
GS
[0.75 0 0 0.75 0 0] CT
0.149 GC
2 setlinecap
1 LJ
0.667 LW
N
262.667 164 M
262.667 156.16 L
S
GR
GS
[0.75 0 0 0.75 0 0] CT
0.149 GC
2 setlinecap
1 LJ
0.667 LW
N
288.8 164 M
288.8 156.16 L
S
GR
GS
[0.75 0 0 0.75 0 0] CT
0.149 GC
2 setlinecap
1 LJ
0.667 LW
N
314.933 164 M
314.933 156.16 L
S
GR
GS
[0.75 0 0 0.75 0 0] CT
0.149 GC
2 setlinecap
1 LJ
0.667 LW
N
341.067 164 M
341.067 156.16 L
S
GR
GS
[0.75 0 0 0.75 0 0] CT
0.149 GC
2 setlinecap
1 LJ
0.667 LW
N
367.2 164 M
367.2 156.16 L
S
GR
GS
[0.75 0 0 0.75 0 0] CT
0.149 GC
2 setlinecap
1 LJ
0.667 LW
N
393.333 164 M
393.333 156.16 L
S
GR
GS
[0.75 0 0 0.75 0 0] CT
0.149 GC
2 setlinecap
1 LJ
0.667 LW
N
419.467 164 M
419.467 156.16 L
S
GR
GS
[0.75 0 0 0.75 0 0] CT
0.149 GC
2 setlinecap
1 LJ
0.667 LW
N
445.6 164 M
445.6 156.16 L
S
GR
GS
[0.75 0 0 0.75 0 0] CT
0.149 GC
2 setlinecap
1 LJ
0.667 LW
N
471.733 164 M
471.733 156.16 L
S
GR
GS
[0.75 0 0 0.75 0 0] CT
0.149 GC
2 setlinecap
1 LJ
0.667 LW
N
497.867 164 M
497.867 156.16 L
S
GR
GS
[0.75 0 0 0.75 0 0] CT
0.149 GC
2 setlinecap
1 LJ
0.667 LW
N
524 164 M
524 156.16 L
S
GR
GS
[0.75 0 0 0.75 0 0] CT
0.149 GC
2 setlinecap
1 LJ
0.667 LW
N
550.133 164 M
550.133 156.16 L
S
GR
GS
[0.75 0 0 0.75 0 0] CT
0.149 GC
2 setlinecap
1 LJ
0.667 LW
N
576.267 164 M
576.267 156.16 L
S
GR
GS
[0.75 0 0 0.75 0 0] CT
0.149 GC
2 setlinecap
1 LJ
0.667 LW
N
602.4 164 M
602.4 156.16 L
S
GR
GS
[0.75 0 0 0.75 0 0] CT
0.149 GC
2 setlinecap
1 LJ
0.667 LW
N
628.533 164 M
628.533 156.16 L
S
GR
GS
[0.75 0 0 0.75 0 0] CT
0.149 GC
2 setlinecap
1 LJ
0.667 LW
N
654.667 164 M
654.667 156.16 L
S
GR
GS
[0.75 0 0 0.75 0 0] CT
0.149 GC
2 setlinecap
1 LJ
0.667 LW
N
680.8 164 M
680.8 156.16 L
S
GR
GS
[0.75 0 0 0.75 0 0] CT
0.149 GC
2 setlinecap
1 LJ
0.667 LW
N
706.933 164 M
706.933 156.16 L
S
GR
GS
[0.75 0 0 0.75 0 0] CT
0.149 GC
2 setlinecap
1 LJ
0.667 LW
N
733.067 164 M
733.067 156.16 L
S
GR
GS
[0.75 0 0 0.75 0 0] CT
0.149 GC
2 setlinecap
1 LJ
0.667 LW
N
759.2 164 M
759.2 156.16 L
S
GR
GS
[0.75 0 0 0.75 0 0] CT
0.149 GC
2 setlinecap
1 LJ
0.667 LW
N
785.333 164 M
785.333 156.16 L
S
GR
GS
[0.75 0 0 0.75 0 0] CT
0.149 GC
2 setlinecap
1 LJ
0.667 LW
N
811.467 164 M
811.467 156.16 L
S
GR
GS
[0.75 0 0 0.75 0 0] CT
0.149 GC
2 setlinecap
1 LJ
0.667 LW
N
837.6 164 M
837.6 156.16 L
S
GR
GS
[0.75 0 0 0.75 0 0] CT
0.149 GC
2 setlinecap
1 LJ
0.667 LW
N
863.733 164 M
863.733 156.16 L
S
GR
GS
[0.75 0 0 0.75 0 0] CT
0.149 GC
2 setlinecap
1 LJ
0.667 LW
N
889.867 164 M
889.867 156.16 L
S
GR
GS
[0.75 0 0 0.75 118.6 127] CT
0.149 GC
/Helvetica 13.333 F
GS
[1 0 0 1 0 0] CT
-4.5 13 moveto 
1 -1 scale
(1) t 
GR
GR
GS
[0.75 0 0 0.75 138.2 127] CT
0.149 GC
/Helvetica 13.333 F
GS
[1 0 0 1 0 0] CT
-4.5 13 moveto 
1 -1 scale
(2) t 
GR
GR
GS
[0.75 0 0 0.75 157.8 127] CT
0.149 GC
/Helvetica 13.333 F
GS
[1 0 0 1 0 0] CT
-4.5 13 moveto 
1 -1 scale
(3) t 
GR
GR
GS
[0.75 0 0 0.75 177.40001 127] CT
0.149 GC
/Helvetica 13.333 F
GS
[1 0 0 1 0 0] CT
-4.5 13 moveto 
1 -1 scale
(4) t 
GR
GR
GS
[0.75 0 0 0.75 196.99999 127] CT
0.149 GC
/Helvetica 13.333 F
GS
[1 0 0 1 0 0] CT
-4.5 13 moveto 
1 -1 scale
(5) t 
GR
GR
GS
[0.75 0 0 0.75 216.59999 127] CT
0.149 GC
/Helvetica 13.333 F
GS
[1 0 0 1 0 0] CT
-4.5 13 moveto 
1 -1 scale
(6) t 
GR
GR
GS
[0.75 0 0 0.75 236.19999 127] CT
0.149 GC
/Helvetica 13.333 F
GS
[1 0 0 1 0 0] CT
-4.5 13 moveto 
1 -1 scale
(7) t 
GR
GR
GS
[0.75 0 0 0.75 255.80001 127] CT
0.149 GC
/Helvetica 13.333 F
GS
[1 0 0 1 0 0] CT
-4.5 13 moveto 
1 -1 scale
(8) t 
GR
GR
GS
[0.75 0 0 0.75 275.40001 127] CT
0.149 GC
/Helvetica 13.333 F
GS
[1 0 0 1 0 0] CT
-4.5 13 moveto 
1 -1 scale
(9) t 
GR
GR
GS
[0.75 0 0 0.75 295.00001 127] CT
0.149 GC
/Helvetica 13.333 F
GS
[1 0 0 1 0 0] CT
-8.5 13 moveto 
1 -1 scale
(10) t 
GR
GR
GS
[0.75 0 0 0.75 314.60001 127] CT
0.149 GC
/Helvetica 13.333 F
GS
[1 0 0 1 0 0] CT
-8.5 13 moveto 
1 -1 scale
(11) t 
GR
GR
GS
[0.75 0 0 0.75 334.2 127] CT
0.149 GC
/Helvetica 13.333 F
GS
[1 0 0 1 0 0] CT
-8.5 13 moveto 
1 -1 scale
(12) t 
GR
GR
GS
[0.75 0 0 0.75 353.8 127] CT
0.149 GC
/Helvetica 13.333 F
GS
[1 0 0 1 0 0] CT
-8.5 13 moveto 
1 -1 scale
(13) t 
GR
GR
GS
[0.75 0 0 0.75 373.4 127] CT
0.149 GC
/Helvetica 13.333 F
GS
[1 0 0 1 0 0] CT
-8.5 13 moveto 
1 -1 scale
(14) t 
GR
GR
GS
[0.75 0 0 0.75 393 127] CT
0.149 GC
/Helvetica 13.333 F
GS
[1 0 0 1 0 0] CT
-8.5 13 moveto 
1 -1 scale
(15) t 
GR
GR
GS
[0.75 0 0 0.75 412.60002 127] CT
0.149 GC
/Helvetica 13.333 F
GS
[1 0 0 1 0 0] CT
-8.5 13 moveto 
1 -1 scale
(16) t 
GR
GR
GS
[0.75 0 0 0.75 432.2 127] CT
0.149 GC
/Helvetica 13.333 F
GS
[1 0 0 1 0 0] CT
-8.5 13 moveto 
1 -1 scale
(17) t 
GR
GR
GS
[0.75 0 0 0.75 451.80002 127] CT
0.149 GC
/Helvetica 13.333 F
GS
[1 0 0 1 0 0] CT
-8.5 13 moveto 
1 -1 scale
(18) t 
GR
GR
GS
[0.75 0 0 0.75 471.39999 127] CT
0.149 GC
/Helvetica 13.333 F
GS
[1 0 0 1 0 0] CT
-8.5 13 moveto 
1 -1 scale
(19) t 
GR
GR
GS
[0.75 0 0 0.75 491.00002 127] CT
0.149 GC
/Helvetica 13.333 F
GS
[1 0 0 1 0 0] CT
-8.5 13 moveto 
1 -1 scale
(20) t 
GR
GR
GS
[0.75 0 0 0.75 510.59999 127] CT
0.149 GC
/Helvetica 13.333 F
GS
[1 0 0 1 0 0] CT
-8.5 13 moveto 
1 -1 scale
(21) t 
GR
GR
GS
[0.75 0 0 0.75 530.20001 127] CT
0.149 GC
/Helvetica 13.333 F
GS
[1 0 0 1 0 0] CT
-8.5 13 moveto 
1 -1 scale
(22) t 
GR
GR
GS
[0.75 0 0 0.75 549.79999 127] CT
0.149 GC
/Helvetica 13.333 F
GS
[1 0 0 1 0 0] CT
-8.5 13 moveto 
1 -1 scale
(23) t 
GR
GR
GS
[0.75 0 0 0.75 569.40001 127] CT
0.149 GC
/Helvetica 13.333 F
GS
[1 0 0 1 0 0] CT
-8.5 13 moveto 
1 -1 scale
(24) t 
GR
GR
GS
[0.75 0 0 0.75 588.99998 127] CT
0.149 GC
/Helvetica 13.333 F
GS
[1 0 0 1 0 0] CT
-8.5 13 moveto 
1 -1 scale
(25) t 
GR
GR
GS
[0.75 0 0 0.75 608.60001 127] CT
0.149 GC
/Helvetica 13.333 F
GS
[1 0 0 1 0 0] CT
-8.5 13 moveto 
1 -1 scale
(27) t 
GR
GR
GS
[0.75 0 0 0.75 628.19998 127] CT
0.149 GC
/Helvetica 13.333 F
GS
[1 0 0 1 0 0] CT
-8.5 13 moveto 
1 -1 scale
(28) t 
GR
GR
GS
[0.75 0 0 0.75 647.8 127] CT
0.149 GC
/Helvetica 13.333 F
GS
[1 0 0 1 0 0] CT
-8.5 13 moveto 
1 -1 scale
(29) t 
GR
GR
GS
[0.75 0 0 0.75 667.39998 127] CT
0.149 GC
/Helvetica 13.333 F
GS
[1 0 0 1 0 0] CT
-8.5 13 moveto 
1 -1 scale
(30) t 
GR
GR
GS
[0.75 0 0 0.75 393.00027 140.75] CT
0.149 GC
/Helvetica 14.667 F
GS
[1 0 0 1 0 0] CT
-45.5 14 moveto 
1 -1 scale
(Point clouds) t 
GR
GR
GS
[0.75 0 0 0.75 0 0] CT
0.149 GC
2 setlinecap
1 LJ
0.667 LW
N
132 164 M
132 49 L
S
GR
GS
[0.75 0 0 0.75 0 0] CT
0.149 GC
2 setlinecap
1 LJ
0.667 LW
N
132 164 M
139.84 164 L
S
GR
GS
[0.75 0 0 0.75 0 0] CT
0.149 GC
2 setlinecap
1 LJ
0.667 LW
N
132 125.667 M
139.84 125.667 L
S
GR
GS
[0.75 0 0 0.75 0 0] CT
0.149 GC
2 setlinecap
1 LJ
0.667 LW
N
132 87.333 M
139.84 87.333 L
S
GR
GS
[0.75 0 0 0.75 0 0] CT
0.149 GC
2 setlinecap
1 LJ
0.667 LW
N
132 49 M
139.84 49 L
S
GR
GS
[0.75 0 0 0.75 95 123] CT
0.149 GC
/Helvetica 13.333 F
GS
[1 0 0 1 0 0] CT
-9 4.5 moveto 
1 -1 scale
(0) t 
GR
GR
GS
[0.75 0 0 0.75 95 94.25] CT
0.149 GC
/Helvetica 13.333 F
GS
[1 0 0 1 0 0] CT
-9 4.5 moveto 
1 -1 scale
(5) t 
GR
GR
GS
[0.75 0 0 0.75 95 65.5] CT
0.149 GC
/Helvetica 13.333 F
GS
[1 0 0 1 0 0] CT
-17 4.5 moveto 
1 -1 scale
(10) t 
GR
GR
GS
[0.75 0 0 0.75 95 36.75] CT
0.149 GC
/Helvetica 13.333 F
GS
[1 0 0 1 0 0] CT
-17 4.5 moveto 
1 -1 scale
(15) t 
GR
GR
GS
[0 -0.75 0.75 0 79.25 79.87496] CT
0.149 GC
/Helvetica 14.667 F
GS
[1 0 0 1 0 0] CT
-45 -4 moveto 
1 -1 scale
(speedup \(x\)) t 
GR
GR
GS
[0.75 0 0 0.75 393.00037 34.6875] CT
/Helvetica-Bold 14.667 F
GS
[1 0 0 1 0 0] CT
-69 -4 moveto 
1 -1 scale
(Overall speedup) t 
GR
GR
GS
[0.75 0 0 0.75 0 0] CT
0.149 GC
1 LJ
0.667 LW
N
132 164 M
916 164 L
S
GR
GS
[0.75 0 0 0.75 0 0] CT
0.302 0.745 0.933 RC
N
151.413 164 M
157.387 164 L
157.387 133.297 L
151.413 133.297 L
cp
f
GR
GS
[0.75 0 0 0.75 0 0] CT
0.302 0.745 0.933 RC
N
177.547 164 M
183.52 164 L
183.52 135.174 L
177.547 135.174 L
cp
f
GR
GS
[0.75 0 0 0.75 0 0] CT
0.302 0.745 0.933 RC
N
203.68 164 M
209.653 164 L
209.653 137.011 L
203.68 137.011 L
cp
f
GR
GS
[0.75 0 0 0.75 0 0] CT
0.302 0.745 0.933 RC
N
229.813 164 M
235.787 164 L
235.787 135.923 L
229.813 135.923 L
cp
f
GR
GS
[0.75 0 0 0.75 0 0] CT
0.302 0.745 0.933 RC
N
255.947 164 M
261.92 164 L
261.92 135.763 L
255.947 135.763 L
cp
f
GR
GS
[0.75 0 0 0.75 0 0] CT
0.302 0.745 0.933 RC
N
282.08 164 M
288.053 164 L
288.053 140.203 L
282.08 140.203 L
cp
f
GR
GS
[0.75 0 0 0.75 0 0] CT
0.302 0.745 0.933 RC
N
308.213 164 M
314.187 164 L
314.187 136.925 L
308.213 136.925 L
cp
f
GR
GS
[0.75 0 0 0.75 0 0] CT
0.302 0.745 0.933 RC
N
334.347 164 M
340.32 164 L
340.32 140.232 L
334.347 140.232 L
cp
f
GR
GS
[0.75 0 0 0.75 0 0] CT
0.302 0.745 0.933 RC
N
360.48 164 M
366.453 164 L
366.453 138.443 L
360.48 138.443 L
cp
f
GR
GS
[0.75 0 0 0.75 0 0] CT
0.302 0.745 0.933 RC
N
386.613 164 M
392.587 164 L
392.587 141 L
386.613 141 L
cp
f
GR
GS
[0.75 0 0 0.75 0 0] CT
0.302 0.745 0.933 RC
N
412.747 164 M
418.72 164 L
418.72 138.339 L
412.747 138.339 L
cp
f
GR
GS
[0.75 0 0 0.75 0 0] CT
0.302 0.745 0.933 RC
N
438.88 164 M
444.853 164 L
444.853 135.924 L
438.88 135.924 L
cp
f
GR
GS
[0.75 0 0 0.75 0 0] CT
0.302 0.745 0.933 RC
N
465.013 164 M
470.987 164 L
470.987 138.999 L
465.013 138.999 L
cp
f
GR
GS
[0.75 0 0 0.75 0 0] CT
0.302 0.745 0.933 RC
N
491.147 164 M
497.12 164 L
497.12 139.278 L
491.147 139.278 L
cp
f
GR
GS
[0.75 0 0 0.75 0 0] CT
0.302 0.745 0.933 RC
N
517.28 164 M
523.253 164 L
523.253 132.062 L
517.28 132.062 L
cp
f
GR
GS
[0.75 0 0 0.75 0 0] CT
0.302 0.745 0.933 RC
N
543.413 164 M
549.387 164 L
549.387 139.409 L
543.413 139.409 L
cp
f
GR
GS
[0.75 0 0 0.75 0 0] CT
0.302 0.745 0.933 RC
N
569.547 164 M
575.52 164 L
575.52 126.201 L
569.547 126.201 L
cp
f
GR
GS
[0.75 0 0 0.75 0 0] CT
0.302 0.745 0.933 RC
N
595.68 164 M
601.653 164 L
601.653 135.421 L
595.68 135.421 L
cp
f
GR
GS
[0.75 0 0 0.75 0 0] CT
0.302 0.745 0.933 RC
N
621.813 164 M
627.787 164 L
627.787 133.8 L
621.813 133.8 L
cp
f
GR
GS
[0.75 0 0 0.75 0 0] CT
0.302 0.745 0.933 RC
N
647.947 164 M
653.92 164 L
653.92 139.852 L
647.947 139.852 L
cp
f
GR
GS
[0.75 0 0 0.75 0 0] CT
0.302 0.745 0.933 RC
N
674.08 164 M
680.053 164 L
680.053 129.049 L
674.08 129.049 L
cp
f
GR
GS
[0.75 0 0 0.75 0 0] CT
0.302 0.745 0.933 RC
N
700.213 164 M
706.187 164 L
706.187 123.608 L
700.213 123.608 L
cp
f
GR
GS
[0.75 0 0 0.75 0 0] CT
0.302 0.745 0.933 RC
N
726.347 164 M
732.32 164 L
732.32 136.146 L
726.347 136.146 L
cp
f
GR
GS
[0.75 0 0 0.75 0 0] CT
0.302 0.745 0.933 RC
N
752.48 164 M
758.453 164 L
758.453 139.214 L
752.48 139.214 L
cp
f
GR
GS
[0.75 0 0 0.75 0 0] CT
0.302 0.745 0.933 RC
N
778.613 164 M
784.587 164 L
784.587 138.969 L
778.613 138.969 L
cp
f
GR
GS
[0.75 0 0 0.75 0 0] CT
0.302 0.745 0.933 RC
N
804.747 164 M
810.72 164 L
810.72 130.174 L
804.747 130.174 L
cp
f
GR
GS
[0.75 0 0 0.75 0 0] CT
0.302 0.745 0.933 RC
N
830.88 164 M
836.853 164 L
836.853 135.722 L
830.88 135.722 L
cp
f
GR
GS
[0.75 0 0 0.75 0 0] CT
0.302 0.745 0.933 RC
N
857.013 164 M
862.987 164 L
862.987 128.341 L
857.013 128.341 L
cp
f
GR
GS
[0.75 0 0 0.75 0 0] CT
0.302 0.745 0.933 RC
N
883.147 164 M
889.12 164 L
889.12 135.56 L
883.147 135.56 L
cp
f
GR
GS
[0.75 0 0 0.75 0 0] CT
10.0 ML
0.667 LW
N
151.413 164 M
151.413 133.297 L
157.387 133.297 L
157.387 164 L
cp
S
GR
GS
[0.75 0 0 0.75 0 0] CT
10.0 ML
0.667 LW
N
177.547 164 M
177.547 135.174 L
183.52 135.174 L
183.52 164 L
cp
S
GR
GS
[0.75 0 0 0.75 0 0] CT
10.0 ML
0.667 LW
N
203.68 164 M
203.68 137.011 L
209.653 137.011 L
209.653 164 L
cp
S
GR
GS
[0.75 0 0 0.75 0 0] CT
10.0 ML
0.667 LW
N
229.813 164 M
229.813 135.923 L
235.787 135.923 L
235.787 164 L
cp
S
GR
GS
[0.75 0 0 0.75 0 0] CT
10.0 ML
0.667 LW
N
255.947 164 M
255.947 135.763 L
261.92 135.763 L
261.92 164 L
cp
S
GR
GS
[0.75 0 0 0.75 0 0] CT
10.0 ML
0.667 LW
N
282.08 164 M
282.08 140.203 L
288.053 140.203 L
288.053 164 L
cp
S
GR
GS
[0.75 0 0 0.75 0 0] CT
10.0 ML
0.667 LW
N
308.213 164 M
308.213 136.925 L
314.187 136.925 L
314.187 164 L
cp
S
GR
GS
[0.75 0 0 0.75 0 0] CT
10.0 ML
0.667 LW
N
334.347 164 M
334.347 140.232 L
340.32 140.232 L
340.32 164 L
cp
S
GR
GS
[0.75 0 0 0.75 0 0] CT
10.0 ML
0.667 LW
N
360.48 164 M
360.48 138.443 L
366.453 138.443 L
366.453 164 L
cp
S
GR
GS
[0.75 0 0 0.75 0 0] CT
10.0 ML
0.667 LW
N
386.613 164 M
386.613 141 L
392.587 141 L
392.587 164 L
cp
S
GR
GS
[0.75 0 0 0.75 0 0] CT
10.0 ML
0.667 LW
N
412.747 164 M
412.747 138.339 L
418.72 138.339 L
418.72 164 L
cp
S
GR
GS
[0.75 0 0 0.75 0 0] CT
10.0 ML
0.667 LW
N
438.88 164 M
438.88 135.924 L
444.853 135.924 L
444.853 164 L
cp
S
GR
GS
[0.75 0 0 0.75 0 0] CT
10.0 ML
0.667 LW
N
465.013 164 M
465.013 138.999 L
470.987 138.999 L
470.987 164 L
cp
S
GR
GS
[0.75 0 0 0.75 0 0] CT
10.0 ML
0.667 LW
N
491.147 164 M
491.147 139.278 L
497.12 139.278 L
497.12 164 L
cp
S
GR
GS
[0.75 0 0 0.75 0 0] CT
10.0 ML
0.667 LW
N
517.28 164 M
517.28 132.062 L
523.253 132.062 L
523.253 164 L
cp
S
GR
GS
[0.75 0 0 0.75 0 0] CT
10.0 ML
0.667 LW
N
543.413 164 M
543.413 139.409 L
549.387 139.409 L
549.387 164 L
cp
S
GR
GS
[0.75 0 0 0.75 0 0] CT
10.0 ML
0.667 LW
N
569.547 164 M
569.547 126.201 L
575.52 126.201 L
575.52 164 L
cp
S
GR
GS
[0.75 0 0 0.75 0 0] CT
10.0 ML
0.667 LW
N
595.68 164 M
595.68 135.421 L
601.653 135.421 L
601.653 164 L
cp
S
GR
GS
[0.75 0 0 0.75 0 0] CT
10.0 ML
0.667 LW
N
621.813 164 M
621.813 133.8 L
627.787 133.8 L
627.787 164 L
cp
S
GR
GS
[0.75 0 0 0.75 0 0] CT
10.0 ML
0.667 LW
N
647.947 164 M
647.947 139.852 L
653.92 139.852 L
653.92 164 L
cp
S
GR
GS
[0.75 0 0 0.75 0 0] CT
10.0 ML
0.667 LW
N
674.08 164 M
674.08 129.049 L
680.053 129.049 L
680.053 164 L
cp
S
GR
GS
[0.75 0 0 0.75 0 0] CT
10.0 ML
0.667 LW
N
700.213 164 M
700.213 123.608 L
706.187 123.608 L
706.187 164 L
cp
S
GR
GS
[0.75 0 0 0.75 0 0] CT
10.0 ML
0.667 LW
N
726.347 164 M
726.347 136.146 L
732.32 136.146 L
732.32 164 L
cp
S
GR
GS
[0.75 0 0 0.75 0 0] CT
10.0 ML
0.667 LW
N
752.48 164 M
752.48 139.214 L
758.453 139.214 L
758.453 164 L
cp
S
GR
GS
[0.75 0 0 0.75 0 0] CT
10.0 ML
0.667 LW
N
778.613 164 M
778.613 138.969 L
784.587 138.969 L
784.587 164 L
cp
S
GR
GS
[0.75 0 0 0.75 0 0] CT
10.0 ML
0.667 LW
N
804.747 164 M
804.747 130.174 L
810.72 130.174 L
810.72 164 L
cp
S
GR
GS
[0.75 0 0 0.75 0 0] CT
10.0 ML
0.667 LW
N
830.88 164 M
830.88 135.722 L
836.853 135.722 L
836.853 164 L
cp
S
GR
GS
[0.75 0 0 0.75 0 0] CT
10.0 ML
0.667 LW
N
857.013 164 M
857.013 128.341 L
862.987 128.341 L
862.987 164 L
cp
S
GR
GS
[0.75 0 0 0.75 0 0] CT
10.0 ML
0.667 LW
N
883.147 164 M
883.147 135.56 L
889.12 135.56 L
889.12 164 L
cp
S
GR
GS
[0.75 0 0 0.75 0 0] CT
0.635 0.078 0.184 RC
N
158.88 164 M
164.853 164 L
164.853 104.051 L
158.88 104.051 L
cp
f
GR
GS
[0.75 0 0 0.75 0 0] CT
0.635 0.078 0.184 RC
N
185.013 164 M
190.987 164 L
190.987 104.547 L
185.013 104.547 L
cp
f
GR
GS
[0.75 0 0 0.75 0 0] CT
0.635 0.078 0.184 RC
N
211.147 164 M
217.12 164 L
217.12 108.153 L
211.147 108.153 L
cp
f
GR
GS
[0.75 0 0 0.75 0 0] CT
0.635 0.078 0.184 RC
N
237.28 164 M
243.253 164 L
243.253 101.503 L
237.28 101.503 L
cp
f
GR
GS
[0.75 0 0 0.75 0 0] CT
0.635 0.078 0.184 RC
N
263.413 164 M
269.387 164 L
269.387 103.946 L
263.413 103.946 L
cp
f
GR
GS
[0.75 0 0 0.75 0 0] CT
0.635 0.078 0.184 RC
N
289.547 164 M
295.52 164 L
295.52 113.151 L
289.547 113.151 L
cp
f
GR
GS
[0.75 0 0 0.75 0 0] CT
0.635 0.078 0.184 RC
N
315.68 164 M
321.653 164 L
321.653 106.744 L
315.68 106.744 L
cp
f
GR
GS
[0.75 0 0 0.75 0 0] CT
0.635 0.078 0.184 RC
N
341.813 164 M
347.787 164 L
347.787 114.214 L
341.813 114.214 L
cp
f
GR
GS
[0.75 0 0 0.75 0 0] CT
0.635 0.078 0.184 RC
N
367.947 164 M
373.92 164 L
373.92 108.482 L
367.947 108.482 L
cp
f
GR
GS
[0.75 0 0 0.75 0 0] CT
0.635 0.078 0.184 RC
N
394.08 164 M
400.053 164 L
400.053 115.04 L
394.08 115.04 L
cp
f
GR
GS
[0.75 0 0 0.75 0 0] CT
0.635 0.078 0.184 RC
N
420.213 164 M
426.187 164 L
426.187 108.667 L
420.213 108.667 L
cp
f
GR
GS
[0.75 0 0 0.75 0 0] CT
0.635 0.078 0.184 RC
N
446.347 164 M
452.32 164 L
452.32 105.024 L
446.347 105.024 L
cp
f
GR
GS
[0.75 0 0 0.75 0 0] CT
0.635 0.078 0.184 RC
N
472.48 164 M
478.453 164 L
478.453 110.164 L
472.48 110.164 L
cp
f
GR
GS
[0.75 0 0 0.75 0 0] CT
0.635 0.078 0.184 RC
N
498.613 164 M
504.587 164 L
504.587 111.297 L
498.613 111.297 L
cp
f
GR
GS
[0.75 0 0 0.75 0 0] CT
0.635 0.078 0.184 RC
N
524.747 164 M
530.72 164 L
530.72 96.166 L
524.747 96.166 L
cp
f
GR
GS
[0.75 0 0 0.75 0 0] CT
0.635 0.078 0.184 RC
N
550.88 164 M
556.853 164 L
556.853 110.167 L
550.88 110.167 L
cp
f
GR
GS
[0.75 0 0 0.75 0 0] CT
0.635 0.078 0.184 RC
N
577.013 164 M
582.987 164 L
582.987 79.965 L
577.013 79.965 L
cp
f
GR
GS
[0.75 0 0 0.75 0 0] CT
0.635 0.078 0.184 RC
N
603.147 164 M
609.12 164 L
609.12 102.086 L
603.147 102.086 L
cp
f
GR
GS
[0.75 0 0 0.75 0 0] CT
0.635 0.078 0.184 RC
N
629.28 164 M
635.253 164 L
635.253 98.742 L
629.28 98.742 L
cp
f
GR
GS
[0.75 0 0 0.75 0 0] CT
0.635 0.078 0.184 RC
N
655.413 164 M
661.387 164 L
661.387 113.131 L
655.413 113.131 L
cp
f
GR
GS
[0.75 0 0 0.75 0 0] CT
0.635 0.078 0.184 RC
N
681.547 164 M
687.52 164 L
687.52 92.059 L
681.547 92.059 L
cp
f
GR
GS
[0.75 0 0 0.75 0 0] CT
0.635 0.078 0.184 RC
N
707.68 164 M
713.653 164 L
713.653 90.28 L
707.68 90.28 L
cp
f
GR
GS
[0.75 0 0 0.75 0 0] CT
0.635 0.078 0.184 RC
N
733.813 164 M
739.787 164 L
739.787 105.522 L
733.813 105.522 L
cp
f
GR
GS
[0.75 0 0 0.75 0 0] CT
0.635 0.078 0.184 RC
N
759.947 164 M
765.92 164 L
765.92 110.237 L
759.947 110.237 L
cp
f
GR
GS
[0.75 0 0 0.75 0 0] CT
0.635 0.078 0.184 RC
N
786.08 164 M
792.053 164 L
792.053 109.973 L
786.08 109.973 L
cp
f
GR
GS
[0.75 0 0 0.75 0 0] CT
0.635 0.078 0.184 RC
N
812.213 164 M
818.187 164 L
818.187 93.602 L
812.213 93.602 L
cp
f
GR
GS
[0.75 0 0 0.75 0 0] CT
0.635 0.078 0.184 RC
N
838.347 164 M
844.32 164 L
844.32 104.206 L
838.347 104.206 L
cp
f
GR
GS
[0.75 0 0 0.75 0 0] CT
0.635 0.078 0.184 RC
N
864.48 164 M
870.453 164 L
870.453 97.171 L
864.48 97.171 L
cp
f
GR
GS
[0.75 0 0 0.75 0 0] CT
0.635 0.078 0.184 RC
N
890.613 164 M
896.587 164 L
896.587 104.952 L
890.613 104.952 L
cp
f
GR
GS
[0.75 0 0 0.75 0 0] CT
10.0 ML
0.667 LW
N
158.88 164 M
158.88 104.051 L
164.853 104.051 L
164.853 164 L
cp
S
GR
GS
[0.75 0 0 0.75 0 0] CT
10.0 ML
0.667 LW
N
185.013 164 M
185.013 104.547 L
190.987 104.547 L
190.987 164 L
cp
S
GR
GS
[0.75 0 0 0.75 0 0] CT
10.0 ML
0.667 LW
N
211.147 164 M
211.147 108.153 L
217.12 108.153 L
217.12 164 L
cp
S
GR
GS
[0.75 0 0 0.75 0 0] CT
10.0 ML
0.667 LW
N
237.28 164 M
237.28 101.503 L
243.253 101.503 L
243.253 164 L
cp
S
GR
GS
[0.75 0 0 0.75 0 0] CT
10.0 ML
0.667 LW
N
263.413 164 M
263.413 103.946 L
269.387 103.946 L
269.387 164 L
cp
S
GR
GS
[0.75 0 0 0.75 0 0] CT
10.0 ML
0.667 LW
N
289.547 164 M
289.547 113.151 L
295.52 113.151 L
295.52 164 L
cp
S
GR
GS
[0.75 0 0 0.75 0 0] CT
10.0 ML
0.667 LW
N
315.68 164 M
315.68 106.744 L
321.653 106.744 L
321.653 164 L
cp
S
GR
GS
[0.75 0 0 0.75 0 0] CT
10.0 ML
0.667 LW
N
341.813 164 M
341.813 114.214 L
347.787 114.214 L
347.787 164 L
cp
S
GR
GS
[0.75 0 0 0.75 0 0] CT
10.0 ML
0.667 LW
N
367.947 164 M
367.947 108.482 L
373.92 108.482 L
373.92 164 L
cp
S
GR
GS
[0.75 0 0 0.75 0 0] CT
10.0 ML
0.667 LW
N
394.08 164 M
394.08 115.04 L
400.053 115.04 L
400.053 164 L
cp
S
GR
GS
[0.75 0 0 0.75 0 0] CT
10.0 ML
0.667 LW
N
420.213 164 M
420.213 108.667 L
426.187 108.667 L
426.187 164 L
cp
S
GR
GS
[0.75 0 0 0.75 0 0] CT
10.0 ML
0.667 LW
N
446.347 164 M
446.347 105.024 L
452.32 105.024 L
452.32 164 L
cp
S
GR
GS
[0.75 0 0 0.75 0 0] CT
10.0 ML
0.667 LW
N
472.48 164 M
472.48 110.164 L
478.453 110.164 L
478.453 164 L
cp
S
GR
GS
[0.75 0 0 0.75 0 0] CT
10.0 ML
0.667 LW
N
498.613 164 M
498.613 111.297 L
504.587 111.297 L
504.587 164 L
cp
S
GR
GS
[0.75 0 0 0.75 0 0] CT
10.0 ML
0.667 LW
N
524.747 164 M
524.747 96.166 L
530.72 96.166 L
530.72 164 L
cp
S
GR
GS
[0.75 0 0 0.75 0 0] CT
10.0 ML
0.667 LW
N
550.88 164 M
550.88 110.167 L
556.853 110.167 L
556.853 164 L
cp
S
GR
GS
[0.75 0 0 0.75 0 0] CT
10.0 ML
0.667 LW
N
577.013 164 M
577.013 79.965 L
582.987 79.965 L
582.987 164 L
cp
S
GR
GS
[0.75 0 0 0.75 0 0] CT
10.0 ML
0.667 LW
N
603.147 164 M
603.147 102.086 L
609.12 102.086 L
609.12 164 L
cp
S
GR
GS
[0.75 0 0 0.75 0 0] CT
10.0 ML
0.667 LW
N
629.28 164 M
629.28 98.742 L
635.253 98.742 L
635.253 164 L
cp
S
GR
GS
[0.75 0 0 0.75 0 0] CT
10.0 ML
0.667 LW
N
655.413 164 M
655.413 113.131 L
661.387 113.131 L
661.387 164 L
cp
S
GR
GS
[0.75 0 0 0.75 0 0] CT
10.0 ML
0.667 LW
N
681.547 164 M
681.547 92.059 L
687.52 92.059 L
687.52 164 L
cp
S
GR
GS
[0.75 0 0 0.75 0 0] CT
10.0 ML
0.667 LW
N
707.68 164 M
707.68 90.28 L
713.653 90.28 L
713.653 164 L
cp
S
GR
GS
[0.75 0 0 0.75 0 0] CT
10.0 ML
0.667 LW
N
733.813 164 M
733.813 105.522 L
739.787 105.522 L
739.787 164 L
cp
S
GR
GS
[0.75 0 0 0.75 0 0] CT
10.0 ML
0.667 LW
N
759.947 164 M
759.947 110.237 L
765.92 110.237 L
765.92 164 L
cp
S
GR
GS
[0.75 0 0 0.75 0 0] CT
10.0 ML
0.667 LW
N
786.08 164 M
786.08 109.973 L
792.053 109.973 L
792.053 164 L
cp
S
GR
GS
[0.75 0 0 0.75 0 0] CT
10.0 ML
0.667 LW
N
812.213 164 M
812.213 93.602 L
818.187 93.602 L
818.187 164 L
cp
S
GR
GS
[0.75 0 0 0.75 0 0] CT
10.0 ML
0.667 LW
N
838.347 164 M
838.347 104.206 L
844.32 104.206 L
844.32 164 L
cp
S
GR
GS
[0.75 0 0 0.75 0 0] CT
10.0 ML
0.667 LW
N
864.48 164 M
864.48 97.171 L
870.453 97.171 L
870.453 164 L
cp
S
GR
GS
[0.75 0 0 0.75 0 0] CT
10.0 ML
0.667 LW
N
890.613 164 M
890.613 104.952 L
896.587 104.952 L
896.587 164 L
cp
S
GR
GS
[0.75 0 0 0.75 0 0] CT
0.929 0.694 0.125 RC
1 LJ
2.667 LW
N
158.133 156.333 M
184.267 156.333 L
210.4 156.333 L
236.533 156.333 L
262.667 156.333 L
288.8 156.333 L
314.933 156.333 L
341.067 156.333 L
367.2 156.333 L
393.333 156.333 L
419.467 156.333 L
445.6 156.333 L
471.733 156.333 L
497.867 156.333 L
524 156.333 L
550.133 156.333 L
576.267 156.333 L
602.4 156.333 L
628.533 156.333 L
654.667 156.333 L
680.8 156.333 L
706.933 156.333 L
733.067 156.333 L
759.2 156.333 L
785.333 156.333 L
811.467 156.333 L
837.6 156.333 L
863.733 156.333 L
889.867 156.333 L
S
GR
GS
[0.75 0 0 0.75 0 0] CT
0.302 0.745 0.933 RC
[8 8] 0 setdash
2 LJ
2.667 LW
N
158.133 135.519 M
184.267 135.519 L
210.4 135.519 L
236.533 135.519 L
262.667 135.519 L
288.8 135.519 L
314.933 135.519 L
341.067 135.519 L
367.2 135.519 L
393.333 135.519 L
419.467 135.519 L
445.6 135.519 L
471.733 135.519 L
497.867 135.519 L
524 135.519 L
550.133 135.519 L
576.267 135.519 L
602.4 135.519 L
628.533 135.519 L
654.667 135.519 L
680.8 135.519 L
706.933 135.519 L
733.067 135.519 L
759.2 135.519 L
785.333 135.519 L
811.467 135.519 L
837.6 135.519 L
863.733 135.519 L
889.867 135.519 L
S
GR
GS
[0.75 0 0 0.75 0 0] CT
0.635 0.078 0.184 RC
[8 8] 0 setdash
2 LJ
2.667 LW
N
158.133 104.25 M
184.267 104.25 L
210.4 104.25 L
236.533 104.25 L
262.667 104.25 L
288.8 104.25 L
314.933 104.25 L
341.067 104.25 L
367.2 104.25 L
393.333 104.25 L
419.467 104.25 L
445.6 104.25 L
471.733 104.25 L
497.867 104.25 L
524 104.25 L
550.133 104.25 L
576.267 104.25 L
602.4 104.25 L
628.533 104.25 L
654.667 104.25 L
680.8 104.25 L
706.933 104.25 L
733.067 104.25 L
759.2 104.25 L
785.333 104.25 L
811.467 104.25 L
837.6 104.25 L
863.733 104.25 L
889.867 104.25 L
S
GR
GS
[0.75 0 0 0.75 389.25 53.80769] CT
/Helvetica 12 F
GS
[1 0 0 1 0 0] CT
0 4.5 moveto 
1 -1 scale
(v2) t 
GR
GR
GS
[0.75 0 0 0.75 0 0] CT
0.302 0.745 0.933 RC
N
476 77.641 M
476 65.846 L
516 65.846 L
516 77.641 L
cp
f
GR
GS
[0.75 0 0 0.75 0 0] CT
10.0 ML
0.667 LW
N
476 77.641 M
476 65.846 L
516 65.846 L
516 77.641 L
cp
S
GR
GS
[0.75 0 0 0.75 436.5 53.80769] CT
/Helvetica 12 F
GS
[1 0 0 1 0 0] CT
0 4.5 moveto 
1 -1 scale
(v2.1) t 
GR
GR
GS
[0.75 0 0 0.75 0 0] CT
0.635 0.078 0.184 RC
N
539 77.641 M
539 65.846 L
579 65.846 L
579 77.641 L
cp
f
GR
GS
[0.75 0 0 0.75 0 0] CT
10.0 ML
0.667 LW
N
539 77.641 M
539 65.846 L
579 65.846 L
579 77.641 L
cp
S
GR
GS
[0.75 0 0 0.75 492.75 53.80769] CT
/Helvetica 12 F
GS
[1 0 0 1 0 0] CT
0 4.5 moveto 
1 -1 scale
(original) t 
GR
GR
GS
[0.75 0 0 0.75 0 0] CT
0.929 0.694 0.125 RC
1 LJ
2.667 LW
N
614 71.744 M
654 71.744 L
S
GR
GS
[0.75 0 0 0.75 562.5 53.80769] CT
/Helvetica 12 F
GS
[1 0 0 1 0 0] CT
0 4.5 moveto 
1 -1 scale
(avg. v2) t 
GR
GR
GS
[0.75 0 0 0.75 0 0] CT
0.302 0.745 0.933 RC
[8 8] 0 setdash
2 LJ
2.667 LW
N
707 71.744 M
747 71.744 L
S
GR
GS
[0.75 0 0 0.75 632.25 53.80769] CT
/Helvetica 12 F
GS
[1 0 0 1 0 0] CT
0 4.5 moveto 
1 -1 scale
(avg. v2.1) t 
GR
GR
GS
[0.75 0 0 0.75 0 0] CT
0.635 0.078 0.184 RC
[8 8] 0 setdash
2 LJ
2.667 LW
N
800 71.744 M
840 71.744 L
S
GR
GS
[0.75 0 0 0.75 0 0] CT
1 GC
N
132 342 M
916 342 L
916 227 L
132 227 L
cp
f
GR
GS
[0.75 0 0 0.75 0 0] CT
0.149 GC
2 setlinecap
1 LJ
0.667 LW
N
132 342 M
916 342 L
S
GR
GS
[0.75 0 0 0.75 0 0] CT
0.149 GC
2 setlinecap
1 LJ
0.667 LW
N
158.133 342 M
158.133 334.16 L
S
GR
GS
[0.75 0 0 0.75 0 0] CT
0.149 GC
2 setlinecap
1 LJ
0.667 LW
N
184.267 342 M
184.267 334.16 L
S
GR
GS
[0.75 0 0 0.75 0 0] CT
0.149 GC
2 setlinecap
1 LJ
0.667 LW
N
210.4 342 M
210.4 334.16 L
S
GR
GS
[0.75 0 0 0.75 0 0] CT
0.149 GC
2 setlinecap
1 LJ
0.667 LW
N
236.533 342 M
236.533 334.16 L
S
GR
GS
[0.75 0 0 0.75 0 0] CT
0.149 GC
2 setlinecap
1 LJ
0.667 LW
N
262.667 342 M
262.667 334.16 L
S
GR
GS
[0.75 0 0 0.75 0 0] CT
0.149 GC
2 setlinecap
1 LJ
0.667 LW
N
288.8 342 M
288.8 334.16 L
S
GR
GS
[0.75 0 0 0.75 0 0] CT
0.149 GC
2 setlinecap
1 LJ
0.667 LW
N
314.933 342 M
314.933 334.16 L
S
GR
GS
[0.75 0 0 0.75 0 0] CT
0.149 GC
2 setlinecap
1 LJ
0.667 LW
N
341.067 342 M
341.067 334.16 L
S
GR
GS
[0.75 0 0 0.75 0 0] CT
0.149 GC
2 setlinecap
1 LJ
0.667 LW
N
367.2 342 M
367.2 334.16 L
S
GR
GS
[0.75 0 0 0.75 0 0] CT
0.149 GC
2 setlinecap
1 LJ
0.667 LW
N
393.333 342 M
393.333 334.16 L
S
GR
GS
[0.75 0 0 0.75 0 0] CT
0.149 GC
2 setlinecap
1 LJ
0.667 LW
N
419.467 342 M
419.467 334.16 L
S
GR
GS
[0.75 0 0 0.75 0 0] CT
0.149 GC
2 setlinecap
1 LJ
0.667 LW
N
445.6 342 M
445.6 334.16 L
S
GR
GS
[0.75 0 0 0.75 0 0] CT
0.149 GC
2 setlinecap
1 LJ
0.667 LW
N
471.733 342 M
471.733 334.16 L
S
GR
GS
[0.75 0 0 0.75 0 0] CT
0.149 GC
2 setlinecap
1 LJ
0.667 LW
N
497.867 342 M
497.867 334.16 L
S
GR
GS
[0.75 0 0 0.75 0 0] CT
0.149 GC
2 setlinecap
1 LJ
0.667 LW
N
524 342 M
524 334.16 L
S
GR
GS
[0.75 0 0 0.75 0 0] CT
0.149 GC
2 setlinecap
1 LJ
0.667 LW
N
550.133 342 M
550.133 334.16 L
S
GR
GS
[0.75 0 0 0.75 0 0] CT
0.149 GC
2 setlinecap
1 LJ
0.667 LW
N
576.267 342 M
576.267 334.16 L
S
GR
GS
[0.75 0 0 0.75 0 0] CT
0.149 GC
2 setlinecap
1 LJ
0.667 LW
N
602.4 342 M
602.4 334.16 L
S
GR
GS
[0.75 0 0 0.75 0 0] CT
0.149 GC
2 setlinecap
1 LJ
0.667 LW
N
628.533 342 M
628.533 334.16 L
S
GR
GS
[0.75 0 0 0.75 0 0] CT
0.149 GC
2 setlinecap
1 LJ
0.667 LW
N
654.667 342 M
654.667 334.16 L
S
GR
GS
[0.75 0 0 0.75 0 0] CT
0.149 GC
2 setlinecap
1 LJ
0.667 LW
N
680.8 342 M
680.8 334.16 L
S
GR
GS
[0.75 0 0 0.75 0 0] CT
0.149 GC
2 setlinecap
1 LJ
0.667 LW
N
706.933 342 M
706.933 334.16 L
S
GR
GS
[0.75 0 0 0.75 0 0] CT
0.149 GC
2 setlinecap
1 LJ
0.667 LW
N
733.067 342 M
733.067 334.16 L
S
GR
GS
[0.75 0 0 0.75 0 0] CT
0.149 GC
2 setlinecap
1 LJ
0.667 LW
N
759.2 342 M
759.2 334.16 L
S
GR
GS
[0.75 0 0 0.75 0 0] CT
0.149 GC
2 setlinecap
1 LJ
0.667 LW
N
785.333 342 M
785.333 334.16 L
S
GR
GS
[0.75 0 0 0.75 0 0] CT
0.149 GC
2 setlinecap
1 LJ
0.667 LW
N
811.467 342 M
811.467 334.16 L
S
GR
GS
[0.75 0 0 0.75 0 0] CT
0.149 GC
2 setlinecap
1 LJ
0.667 LW
N
837.6 342 M
837.6 334.16 L
S
GR
GS
[0.75 0 0 0.75 0 0] CT
0.149 GC
2 setlinecap
1 LJ
0.667 LW
N
863.733 342 M
863.733 334.16 L
S
GR
GS
[0.75 0 0 0.75 0 0] CT
0.149 GC
2 setlinecap
1 LJ
0.667 LW
N
889.867 342 M
889.867 334.16 L
S
GR
GS
[0.75 0 0 0.75 118.6 260.50001] CT
0.149 GC
/Helvetica 13.333 F
GS
[1 0 0 1 0 0] CT
-4.5 13 moveto 
1 -1 scale
(1) t 
GR
GR
GS
[0.75 0 0 0.75 138.2 260.50001] CT
0.149 GC
/Helvetica 13.333 F
GS
[1 0 0 1 0 0] CT
-4.5 13 moveto 
1 -1 scale
(2) t 
GR
GR
GS
[0.75 0 0 0.75 157.8 260.50001] CT
0.149 GC
/Helvetica 13.333 F
GS
[1 0 0 1 0 0] CT
-4.5 13 moveto 
1 -1 scale
(3) t 
GR
GR
GS
[0.75 0 0 0.75 177.40001 260.50001] CT
0.149 GC
/Helvetica 13.333 F
GS
[1 0 0 1 0 0] CT
-4.5 13 moveto 
1 -1 scale
(4) t 
GR
GR
GS
[0.75 0 0 0.75 196.99999 260.50001] CT
0.149 GC
/Helvetica 13.333 F
GS
[1 0 0 1 0 0] CT
-4.5 13 moveto 
1 -1 scale
(5) t 
GR
GR
GS
[0.75 0 0 0.75 216.59999 260.50001] CT
0.149 GC
/Helvetica 13.333 F
GS
[1 0 0 1 0 0] CT
-4.5 13 moveto 
1 -1 scale
(6) t 
GR
GR
GS
[0.75 0 0 0.75 236.19999 260.50001] CT
0.149 GC
/Helvetica 13.333 F
GS
[1 0 0 1 0 0] CT
-4.5 13 moveto 
1 -1 scale
(7) t 
GR
GR
GS
[0.75 0 0 0.75 255.80001 260.50001] CT
0.149 GC
/Helvetica 13.333 F
GS
[1 0 0 1 0 0] CT
-4.5 13 moveto 
1 -1 scale
(8) t 
GR
GR
GS
[0.75 0 0 0.75 275.40001 260.50001] CT
0.149 GC
/Helvetica 13.333 F
GS
[1 0 0 1 0 0] CT
-4.5 13 moveto 
1 -1 scale
(9) t 
GR
GR
GS
[0.75 0 0 0.75 295.00001 260.50001] CT
0.149 GC
/Helvetica 13.333 F
GS
[1 0 0 1 0 0] CT
-8.5 13 moveto 
1 -1 scale
(10) t 
GR
GR
GS
[0.75 0 0 0.75 314.60001 260.50001] CT
0.149 GC
/Helvetica 13.333 F
GS
[1 0 0 1 0 0] CT
-8.5 13 moveto 
1 -1 scale
(11) t 
GR
GR
GS
[0.75 0 0 0.75 334.2 260.50001] CT
0.149 GC
/Helvetica 13.333 F
GS
[1 0 0 1 0 0] CT
-8.5 13 moveto 
1 -1 scale
(12) t 
GR
GR
GS
[0.75 0 0 0.75 353.8 260.50001] CT
0.149 GC
/Helvetica 13.333 F
GS
[1 0 0 1 0 0] CT
-8.5 13 moveto 
1 -1 scale
(13) t 
GR
GR
GS
[0.75 0 0 0.75 373.4 260.50001] CT
0.149 GC
/Helvetica 13.333 F
GS
[1 0 0 1 0 0] CT
-8.5 13 moveto 
1 -1 scale
(14) t 
GR
GR
GS
[0.75 0 0 0.75 393 260.50001] CT
0.149 GC
/Helvetica 13.333 F
GS
[1 0 0 1 0 0] CT
-8.5 13 moveto 
1 -1 scale
(15) t 
GR
GR
GS
[0.75 0 0 0.75 412.60002 260.50001] CT
0.149 GC
/Helvetica 13.333 F
GS
[1 0 0 1 0 0] CT
-8.5 13 moveto 
1 -1 scale
(16) t 
GR
GR
GS
[0.75 0 0 0.75 432.2 260.50001] CT
0.149 GC
/Helvetica 13.333 F
GS
[1 0 0 1 0 0] CT
-8.5 13 moveto 
1 -1 scale
(17) t 
GR
GR
GS
[0.75 0 0 0.75 451.80002 260.50001] CT
0.149 GC
/Helvetica 13.333 F
GS
[1 0 0 1 0 0] CT
-8.5 13 moveto 
1 -1 scale
(18) t 
GR
GR
GS
[0.75 0 0 0.75 471.39999 260.50001] CT
0.149 GC
/Helvetica 13.333 F
GS
[1 0 0 1 0 0] CT
-8.5 13 moveto 
1 -1 scale
(19) t 
GR
GR
GS
[0.75 0 0 0.75 491.00002 260.50001] CT
0.149 GC
/Helvetica 13.333 F
GS
[1 0 0 1 0 0] CT
-8.5 13 moveto 
1 -1 scale
(20) t 
GR
GR
GS
[0.75 0 0 0.75 510.59999 260.50001] CT
0.149 GC
/Helvetica 13.333 F
GS
[1 0 0 1 0 0] CT
-8.5 13 moveto 
1 -1 scale
(21) t 
GR
GR
GS
[0.75 0 0 0.75 530.20001 260.50001] CT
0.149 GC
/Helvetica 13.333 F
GS
[1 0 0 1 0 0] CT
-8.5 13 moveto 
1 -1 scale
(22) t 
GR
GR
GS
[0.75 0 0 0.75 549.79999 260.50001] CT
0.149 GC
/Helvetica 13.333 F
GS
[1 0 0 1 0 0] CT
-8.5 13 moveto 
1 -1 scale
(23) t 
GR
GR
GS
[0.75 0 0 0.75 569.40001 260.50001] CT
0.149 GC
/Helvetica 13.333 F
GS
[1 0 0 1 0 0] CT
-8.5 13 moveto 
1 -1 scale
(24) t 
GR
GR
GS
[0.75 0 0 0.75 588.99998 260.50001] CT
0.149 GC
/Helvetica 13.333 F
GS
[1 0 0 1 0 0] CT
-8.5 13 moveto 
1 -1 scale
(25) t 
GR
GR
GS
[0.75 0 0 0.75 608.60001 260.50001] CT
0.149 GC
/Helvetica 13.333 F
GS
[1 0 0 1 0 0] CT
-8.5 13 moveto 
1 -1 scale
(27) t 
GR
GR
GS
[0.75 0 0 0.75 628.19998 260.50001] CT
0.149 GC
/Helvetica 13.333 F
GS
[1 0 0 1 0 0] CT
-8.5 13 moveto 
1 -1 scale
(28) t 
GR
GR
GS
[0.75 0 0 0.75 647.8 260.50001] CT
0.149 GC
/Helvetica 13.333 F
GS
[1 0 0 1 0 0] CT
-8.5 13 moveto 
1 -1 scale
(29) t 
GR
GR
GS
[0.75 0 0 0.75 667.39998 260.50001] CT
0.149 GC
/Helvetica 13.333 F
GS
[1 0 0 1 0 0] CT
-8.5 13 moveto 
1 -1 scale
(30) t 
GR
GR
GS
[0.75 0 0 0.75 393.00027 274.24999] CT
0.149 GC
/Helvetica 14.667 F
GS
[1 0 0 1 0 0] CT
-45.5 14 moveto 
1 -1 scale
(Point clouds) t 
GR
GR
GS
[0.75 0 0 0.75 0 0] CT
0.149 GC
2 setlinecap
1 LJ
0.667 LW
N
132 342 M
132 227 L
S
GR
GS
[0.75 0 0 0.75 0 0] CT
0.149 GC
2 setlinecap
1 LJ
0.667 LW
N
132 342 M
139.84 342 L
S
GR
GS
[0.75 0 0 0.75 0 0] CT
0.149 GC
2 setlinecap
1 LJ
0.667 LW
N
132 303.667 M
139.84 303.667 L
S
GR
GS
[0.75 0 0 0.75 0 0] CT
0.149 GC
2 setlinecap
1 LJ
0.667 LW
N
132 265.333 M
139.84 265.333 L
S
GR
GS
[0.75 0 0 0.75 0 0] CT
0.149 GC
2 setlinecap
1 LJ
0.667 LW
N
132 227 M
139.84 227 L
S
GR
GS
[0.75 0 0 0.75 95 256.5] CT
0.149 GC
/Helvetica 13.333 F
GS
[1 0 0 1 0 0] CT
-9 4.5 moveto 
1 -1 scale
(0) t 
GR
GR
GS
[0.75 0 0 0.75 95 227.74999] CT
0.149 GC
/Helvetica 13.333 F
GS
[1 0 0 1 0 0] CT
-9 4.5 moveto 
1 -1 scale
(5) t 
GR
GR
GS
[0.75 0 0 0.75 95 199.00001] CT
0.149 GC
/Helvetica 13.333 F
GS
[1 0 0 1 0 0] CT
-17 4.5 moveto 
1 -1 scale
(10) t 
GR
GR
GS
[0.75 0 0 0.75 95 170.25] CT
0.149 GC
/Helvetica 13.333 F
GS
[1 0 0 1 0 0] CT
-17 4.5 moveto 
1 -1 scale
(15) t 
GR
GR
GS
[0 -0.75 0.75 0 79.25 213.37495] CT
0.149 GC
/Helvetica 14.667 F
GS
[1 0 0 1 0 0] CT
-45 -4 moveto 
1 -1 scale
(speedup \(x\)) t 
GR
GR
GS
[0.75 0 0 0.75 393.00037 168.1875] CT
/Helvetica-Bold 14.667 F
GS
[1 0 0 1 0 0] CT
-133.5 -4 moveto 
1 -1 scale
(Speedup coefficient calculation) t 
GR
GR
GS
[0.75 0 0 0.75 0 0] CT
0.149 GC
1 LJ
0.667 LW
N
132 342 M
916 342 L
S
GR
GS
[0.75 0 0 0.75 0 0] CT
0.302 0.745 0.933 RC
N
151.413 342 M
157.387 342 L
157.387 311.55 L
151.413 311.55 L
cp
f
GR
GS
[0.75 0 0 0.75 0 0] CT
0.302 0.745 0.933 RC
N
177.547 342 M
183.52 342 L
183.52 313.662 L
177.547 313.662 L
cp
f
GR
GS
[0.75 0 0 0.75 0 0] CT
0.302 0.745 0.933 RC
N
203.68 342 M
209.653 342 L
209.653 315.488 L
203.68 315.488 L
cp
f
GR
GS
[0.75 0 0 0.75 0 0] CT
0.302 0.745 0.933 RC
N
229.813 342 M
235.787 342 L
235.787 314.247 L
229.813 314.247 L
cp
f
GR
GS
[0.75 0 0 0.75 0 0] CT
0.302 0.745 0.933 RC
N
255.947 342 M
261.92 342 L
261.92 314.423 L
255.947 314.423 L
cp
f
GR
GS
[0.75 0 0 0.75 0 0] CT
0.302 0.745 0.933 RC
N
282.08 342 M
288.053 342 L
288.053 318.521 L
282.08 318.521 L
cp
f
GR
GS
[0.75 0 0 0.75 0 0] CT
0.302 0.745 0.933 RC
N
308.213 342 M
314.187 342 L
314.187 315.731 L
308.213 315.731 L
cp
f
GR
GS
[0.75 0 0 0.75 0 0] CT
0.302 0.745 0.933 RC
N
334.347 342 M
340.32 342 L
340.32 318.585 L
334.347 318.585 L
cp
f
GR
GS
[0.75 0 0 0.75 0 0] CT
0.302 0.745 0.933 RC
N
360.48 342 M
366.453 342 L
366.453 316.563 L
360.48 316.563 L
cp
f
GR
GS
[0.75 0 0 0.75 0 0] CT
0.302 0.745 0.933 RC
N
386.613 342 M
392.587 342 L
392.587 319.412 L
386.613 319.412 L
cp
f
GR
GS
[0.75 0 0 0.75 0 0] CT
0.302 0.745 0.933 RC
N
412.747 342 M
418.72 342 L
418.72 316.738 L
412.747 316.738 L
cp
f
GR
GS
[0.75 0 0 0.75 0 0] CT
0.302 0.745 0.933 RC
N
438.88 342 M
444.853 342 L
444.853 314.054 L
438.88 314.054 L
cp
f
GR
GS
[0.75 0 0 0.75 0 0] CT
0.302 0.745 0.933 RC
N
465.013 342 M
470.987 342 L
470.987 317.239 L
465.013 317.239 L
cp
f
GR
GS
[0.75 0 0 0.75 0 0] CT
0.302 0.745 0.933 RC
N
491.147 342 M
497.12 342 L
497.12 317.211 L
491.147 317.211 L
cp
f
GR
GS
[0.75 0 0 0.75 0 0] CT
0.302 0.745 0.933 RC
N
517.28 342 M
523.253 342 L
523.253 310.505 L
517.28 310.505 L
cp
f
GR
GS
[0.75 0 0 0.75 0 0] CT
0.302 0.745 0.933 RC
N
543.413 342 M
549.387 342 L
549.387 317.581 L
543.413 317.581 L
cp
f
GR
GS
[0.75 0 0 0.75 0 0] CT
0.302 0.745 0.933 RC
N
569.547 342 M
575.52 342 L
575.52 304.205 L
569.547 304.205 L
cp
f
GR
GS
[0.75 0 0 0.75 0 0] CT
0.302 0.745 0.933 RC
N
595.68 342 M
601.653 342 L
601.653 313.741 L
595.68 313.741 L
cp
f
GR
GS
[0.75 0 0 0.75 0 0] CT
0.302 0.745 0.933 RC
N
621.813 342 M
627.787 342 L
627.787 312.25 L
621.813 312.25 L
cp
f
GR
GS
[0.75 0 0 0.75 0 0] CT
0.302 0.745 0.933 RC
N
647.947 342 M
653.92 342 L
653.92 318.283 L
647.947 318.283 L
cp
f
GR
GS
[0.75 0 0 0.75 0 0] CT
0.302 0.745 0.933 RC
N
674.08 342 M
680.053 342 L
680.053 308.429 L
674.08 308.429 L
cp
f
GR
GS
[0.75 0 0 0.75 0 0] CT
0.302 0.745 0.933 RC
N
700.213 342 M
706.187 342 L
706.187 302.108 L
700.213 302.108 L
cp
f
GR
GS
[0.75 0 0 0.75 0 0] CT
0.302 0.745 0.933 RC
N
726.347 342 M
732.32 342 L
732.32 314.476 L
726.347 314.476 L
cp
f
GR
GS
[0.75 0 0 0.75 0 0] CT
0.302 0.745 0.933 RC
N
752.48 342 M
758.453 342 L
758.453 317.453 L
752.48 317.453 L
cp
f
GR
GS
[0.75 0 0 0.75 0 0] CT
0.302 0.745 0.933 RC
N
778.613 342 M
784.587 342 L
784.587 317.088 L
778.613 317.088 L
cp
f
GR
GS
[0.75 0 0 0.75 0 0] CT
0.302 0.745 0.933 RC
N
804.747 342 M
810.72 342 L
810.72 309.095 L
804.747 309.095 L
cp
f
GR
GS
[0.75 0 0 0.75 0 0] CT
0.302 0.745 0.933 RC
N
830.88 342 M
836.853 342 L
836.853 314.505 L
830.88 314.505 L
cp
f
GR
GS
[0.75 0 0 0.75 0 0] CT
0.302 0.745 0.933 RC
N
857.013 342 M
862.987 342 L
862.987 306.788 L
857.013 306.788 L
cp
f
GR
GS
[0.75 0 0 0.75 0 0] CT
0.302 0.745 0.933 RC
N
883.147 342 M
889.12 342 L
889.12 314.586 L
883.147 314.586 L
cp
f
GR
GS
[0.75 0 0 0.75 0 0] CT
10.0 ML
0.667 LW
N
151.413 342 M
151.413 311.55 L
157.387 311.55 L
157.387 342 L
cp
S
GR
GS
[0.75 0 0 0.75 0 0] CT
10.0 ML
0.667 LW
N
177.547 342 M
177.547 313.662 L
183.52 313.662 L
183.52 342 L
cp
S
GR
GS
[0.75 0 0 0.75 0 0] CT
10.0 ML
0.667 LW
N
203.68 342 M
203.68 315.488 L
209.653 315.488 L
209.653 342 L
cp
S
GR
GS
[0.75 0 0 0.75 0 0] CT
10.0 ML
0.667 LW
N
229.813 342 M
229.813 314.247 L
235.787 314.247 L
235.787 342 L
cp
S
GR
GS
[0.75 0 0 0.75 0 0] CT
10.0 ML
0.667 LW
N
255.947 342 M
255.947 314.423 L
261.92 314.423 L
261.92 342 L
cp
S
GR
GS
[0.75 0 0 0.75 0 0] CT
10.0 ML
0.667 LW
N
282.08 342 M
282.08 318.521 L
288.053 318.521 L
288.053 342 L
cp
S
GR
GS
[0.75 0 0 0.75 0 0] CT
10.0 ML
0.667 LW
N
308.213 342 M
308.213 315.731 L
314.187 315.731 L
314.187 342 L
cp
S
GR
GS
[0.75 0 0 0.75 0 0] CT
10.0 ML
0.667 LW
N
334.347 342 M
334.347 318.585 L
340.32 318.585 L
340.32 342 L
cp
S
GR
GS
[0.75 0 0 0.75 0 0] CT
10.0 ML
0.667 LW
N
360.48 342 M
360.48 316.563 L
366.453 316.563 L
366.453 342 L
cp
S
GR
GS
[0.75 0 0 0.75 0 0] CT
10.0 ML
0.667 LW
N
386.613 342 M
386.613 319.412 L
392.587 319.412 L
392.587 342 L
cp
S
GR
GS
[0.75 0 0 0.75 0 0] CT
10.0 ML
0.667 LW
N
412.747 342 M
412.747 316.738 L
418.72 316.738 L
418.72 342 L
cp
S
GR
GS
[0.75 0 0 0.75 0 0] CT
10.0 ML
0.667 LW
N
438.88 342 M
438.88 314.054 L
444.853 314.054 L
444.853 342 L
cp
S
GR
GS
[0.75 0 0 0.75 0 0] CT
10.0 ML
0.667 LW
N
465.013 342 M
465.013 317.239 L
470.987 317.239 L
470.987 342 L
cp
S
GR
GS
[0.75 0 0 0.75 0 0] CT
10.0 ML
0.667 LW
N
491.147 342 M
491.147 317.211 L
497.12 317.211 L
497.12 342 L
cp
S
GR
GS
[0.75 0 0 0.75 0 0] CT
10.0 ML
0.667 LW
N
517.28 342 M
517.28 310.505 L
523.253 310.505 L
523.253 342 L
cp
S
GR
GS
[0.75 0 0 0.75 0 0] CT
10.0 ML
0.667 LW
N
543.413 342 M
543.413 317.581 L
549.387 317.581 L
549.387 342 L
cp
S
GR
GS
[0.75 0 0 0.75 0 0] CT
10.0 ML
0.667 LW
N
569.547 342 M
569.547 304.205 L
575.52 304.205 L
575.52 342 L
cp
S
GR
GS
[0.75 0 0 0.75 0 0] CT
10.0 ML
0.667 LW
N
595.68 342 M
595.68 313.741 L
601.653 313.741 L
601.653 342 L
cp
S
GR
GS
[0.75 0 0 0.75 0 0] CT
10.0 ML
0.667 LW
N
621.813 342 M
621.813 312.25 L
627.787 312.25 L
627.787 342 L
cp
S
GR
GS
[0.75 0 0 0.75 0 0] CT
10.0 ML
0.667 LW
N
647.947 342 M
647.947 318.283 L
653.92 318.283 L
653.92 342 L
cp
S
GR
GS
[0.75 0 0 0.75 0 0] CT
10.0 ML
0.667 LW
N
674.08 342 M
674.08 308.429 L
680.053 308.429 L
680.053 342 L
cp
S
GR
GS
[0.75 0 0 0.75 0 0] CT
10.0 ML
0.667 LW
N
700.213 342 M
700.213 302.108 L
706.187 302.108 L
706.187 342 L
cp
S
GR
GS
[0.75 0 0 0.75 0 0] CT
10.0 ML
0.667 LW
N
726.347 342 M
726.347 314.476 L
732.32 314.476 L
732.32 342 L
cp
S
GR
GS
[0.75 0 0 0.75 0 0] CT
10.0 ML
0.667 LW
N
752.48 342 M
752.48 317.453 L
758.453 317.453 L
758.453 342 L
cp
S
GR
GS
[0.75 0 0 0.75 0 0] CT
10.0 ML
0.667 LW
N
778.613 342 M
778.613 317.088 L
784.587 317.088 L
784.587 342 L
cp
S
GR
GS
[0.75 0 0 0.75 0 0] CT
10.0 ML
0.667 LW
N
804.747 342 M
804.747 309.095 L
810.72 309.095 L
810.72 342 L
cp
S
GR
GS
[0.75 0 0 0.75 0 0] CT
10.0 ML
0.667 LW
N
830.88 342 M
830.88 314.505 L
836.853 314.505 L
836.853 342 L
cp
S
GR
GS
[0.75 0 0 0.75 0 0] CT
10.0 ML
0.667 LW
N
857.013 342 M
857.013 306.788 L
862.987 306.788 L
862.987 342 L
cp
S
GR
GS
[0.75 0 0 0.75 0 0] CT
10.0 ML
0.667 LW
N
883.147 342 M
883.147 314.586 L
889.12 314.586 L
889.12 342 L
cp
S
GR
GS
[0.75 0 0 0.75 0 0] CT
0.635 0.078 0.184 RC
N
158.88 342 M
164.853 342 L
164.853 275.88 L
158.88 275.88 L
cp
f
GR
GS
[0.75 0 0 0.75 0 0] CT
0.635 0.078 0.184 RC
N
185.013 342 M
190.987 342 L
190.987 277.814 L
185.013 277.814 L
cp
f
GR
GS
[0.75 0 0 0.75 0 0] CT
0.635 0.078 0.184 RC
N
211.147 342 M
217.12 342 L
217.12 281.874 L
211.147 281.874 L
cp
f
GR
GS
[0.75 0 0 0.75 0 0] CT
0.635 0.078 0.184 RC
N
237.28 342 M
243.253 342 L
243.253 276.062 L
237.28 276.062 L
cp
f
GR
GS
[0.75 0 0 0.75 0 0] CT
0.635 0.078 0.184 RC
N
263.413 342 M
269.387 342 L
269.387 278.916 L
263.413 278.916 L
cp
f
GR
GS
[0.75 0 0 0.75 0 0] CT
0.635 0.078 0.184 RC
N
289.547 342 M
295.52 342 L
295.52 287.567 L
289.547 287.567 L
cp
f
GR
GS
[0.75 0 0 0.75 0 0] CT
0.635 0.078 0.184 RC
N
315.68 342 M
321.653 342 L
321.653 280.229 L
315.68 280.229 L
cp
f
GR
GS
[0.75 0 0 0.75 0 0] CT
0.635 0.078 0.184 RC
N
341.813 342 M
347.787 342 L
347.787 288.049 L
341.813 288.049 L
cp
f
GR
GS
[0.75 0 0 0.75 0 0] CT
0.635 0.078 0.184 RC
N
367.947 342 M
373.92 342 L
373.92 282.78 L
367.947 282.78 L
cp
f
GR
GS
[0.75 0 0 0.75 0 0] CT
0.635 0.078 0.184 RC
N
394.08 342 M
400.053 342 L
400.053 290.179 L
394.08 290.179 L
cp
f
GR
GS
[0.75 0 0 0.75 0 0] CT
0.635 0.078 0.184 RC
N
420.213 342 M
426.187 342 L
426.187 283.879 L
420.213 283.879 L
cp
f
GR
GS
[0.75 0 0 0.75 0 0] CT
0.635 0.078 0.184 RC
N
446.347 342 M
452.32 342 L
452.32 278.041 L
446.347 278.041 L
cp
f
GR
GS
[0.75 0 0 0.75 0 0] CT
0.635 0.078 0.184 RC
N
472.48 342 M
478.453 342 L
478.453 284.54 L
472.48 284.54 L
cp
f
GR
GS
[0.75 0 0 0.75 0 0] CT
0.635 0.078 0.184 RC
N
498.613 342 M
504.587 342 L
504.587 284.772 L
498.613 284.772 L
cp
f
GR
GS
[0.75 0 0 0.75 0 0] CT
0.635 0.078 0.184 RC
N
524.747 342 M
530.72 342 L
530.72 269.947 L
524.747 269.947 L
cp
f
GR
GS
[0.75 0 0 0.75 0 0] CT
0.635 0.078 0.184 RC
N
550.88 342 M
556.853 342 L
556.853 284.88 L
550.88 284.88 L
cp
f
GR
GS
[0.75 0 0 0.75 0 0] CT
0.635 0.078 0.184 RC
N
577.013 342 M
582.987 342 L
582.987 252.597 L
577.013 252.597 L
cp
f
GR
GS
[0.75 0 0 0.75 0 0] CT
0.635 0.078 0.184 RC
N
603.147 342 M
609.12 342 L
609.12 276.372 L
603.147 276.372 L
cp
f
GR
GS
[0.75 0 0 0.75 0 0] CT
0.635 0.078 0.184 RC
N
629.28 342 M
635.253 342 L
635.253 272.948 L
629.28 272.948 L
cp
f
GR
GS
[0.75 0 0 0.75 0 0] CT
0.635 0.078 0.184 RC
N
655.413 342 M
661.387 342 L
661.387 287.776 L
655.413 287.776 L
cp
f
GR
GS
[0.75 0 0 0.75 0 0] CT
0.635 0.078 0.184 RC
N
681.547 342 M
687.52 342 L
687.52 267.533 L
681.547 267.533 L
cp
f
GR
GS
[0.75 0 0 0.75 0 0] CT
0.635 0.078 0.184 RC
N
707.68 342 M
713.653 342 L
713.653 259.769 L
707.68 259.769 L
cp
f
GR
GS
[0.75 0 0 0.75 0 0] CT
0.635 0.078 0.184 RC
N
733.813 342 M
739.787 342 L
739.787 278.761 L
733.813 278.761 L
cp
f
GR
GS
[0.75 0 0 0.75 0 0] CT
0.635 0.078 0.184 RC
N
759.947 342 M
765.92 342 L
765.92 284.481 L
759.947 284.481 L
cp
f
GR
GS
[0.75 0 0 0.75 0 0] CT
0.635 0.078 0.184 RC
N
786.08 342 M
792.053 342 L
792.053 284.203 L
786.08 284.203 L
cp
f
GR
GS
[0.75 0 0 0.75 0 0] CT
0.635 0.078 0.184 RC
N
812.213 342 M
818.187 342 L
818.187 268.368 L
812.213 268.368 L
cp
f
GR
GS
[0.75 0 0 0.75 0 0] CT
0.635 0.078 0.184 RC
N
838.347 342 M
844.32 342 L
844.32 279.415 L
838.347 279.415 L
cp
f
GR
GS
[0.75 0 0 0.75 0 0] CT
0.635 0.078 0.184 RC
N
864.48 342 M
870.453 342 L
870.453 267.11 L
864.48 267.11 L
cp
f
GR
GS
[0.75 0 0 0.75 0 0] CT
0.635 0.078 0.184 RC
N
890.613 342 M
896.587 342 L
896.587 280.026 L
890.613 280.026 L
cp
f
GR
GS
[0.75 0 0 0.75 0 0] CT
10.0 ML
0.667 LW
N
158.88 342 M
158.88 275.88 L
164.853 275.88 L
164.853 342 L
cp
S
GR
GS
[0.75 0 0 0.75 0 0] CT
10.0 ML
0.667 LW
N
185.013 342 M
185.013 277.814 L
190.987 277.814 L
190.987 342 L
cp
S
GR
GS
[0.75 0 0 0.75 0 0] CT
10.0 ML
0.667 LW
N
211.147 342 M
211.147 281.874 L
217.12 281.874 L
217.12 342 L
cp
S
GR
GS
[0.75 0 0 0.75 0 0] CT
10.0 ML
0.667 LW
N
237.28 342 M
237.28 276.062 L
243.253 276.062 L
243.253 342 L
cp
S
GR
GS
[0.75 0 0 0.75 0 0] CT
10.0 ML
0.667 LW
N
263.413 342 M
263.413 278.916 L
269.387 278.916 L
269.387 342 L
cp
S
GR
GS
[0.75 0 0 0.75 0 0] CT
10.0 ML
0.667 LW
N
289.547 342 M
289.547 287.567 L
295.52 287.567 L
295.52 342 L
cp
S
GR
GS
[0.75 0 0 0.75 0 0] CT
10.0 ML
0.667 LW
N
315.68 342 M
315.68 280.229 L
321.653 280.229 L
321.653 342 L
cp
S
GR
GS
[0.75 0 0 0.75 0 0] CT
10.0 ML
0.667 LW
N
341.813 342 M
341.813 288.049 L
347.787 288.049 L
347.787 342 L
cp
S
GR
GS
[0.75 0 0 0.75 0 0] CT
10.0 ML
0.667 LW
N
367.947 342 M
367.947 282.78 L
373.92 282.78 L
373.92 342 L
cp
S
GR
GS
[0.75 0 0 0.75 0 0] CT
10.0 ML
0.667 LW
N
394.08 342 M
394.08 290.179 L
400.053 290.179 L
400.053 342 L
cp
S
GR
GS
[0.75 0 0 0.75 0 0] CT
10.0 ML
0.667 LW
N
420.213 342 M
420.213 283.879 L
426.187 283.879 L
426.187 342 L
cp
S
GR
GS
[0.75 0 0 0.75 0 0] CT
10.0 ML
0.667 LW
N
446.347 342 M
446.347 278.041 L
452.32 278.041 L
452.32 342 L
cp
S
GR
GS
[0.75 0 0 0.75 0 0] CT
10.0 ML
0.667 LW
N
472.48 342 M
472.48 284.54 L
478.453 284.54 L
478.453 342 L
cp
S
GR
GS
[0.75 0 0 0.75 0 0] CT
10.0 ML
0.667 LW
N
498.613 342 M
498.613 284.772 L
504.587 284.772 L
504.587 342 L
cp
S
GR
GS
[0.75 0 0 0.75 0 0] CT
10.0 ML
0.667 LW
N
524.747 342 M
524.747 269.947 L
530.72 269.947 L
530.72 342 L
cp
S
GR
GS
[0.75 0 0 0.75 0 0] CT
10.0 ML
0.667 LW
N
550.88 342 M
550.88 284.88 L
556.853 284.88 L
556.853 342 L
cp
S
GR
GS
[0.75 0 0 0.75 0 0] CT
10.0 ML
0.667 LW
N
577.013 342 M
577.013 252.597 L
582.987 252.597 L
582.987 342 L
cp
S
GR
GS
[0.75 0 0 0.75 0 0] CT
10.0 ML
0.667 LW
N
603.147 342 M
603.147 276.372 L
609.12 276.372 L
609.12 342 L
cp
S
GR
GS
[0.75 0 0 0.75 0 0] CT
10.0 ML
0.667 LW
N
629.28 342 M
629.28 272.948 L
635.253 272.948 L
635.253 342 L
cp
S
GR
GS
[0.75 0 0 0.75 0 0] CT
10.0 ML
0.667 LW
N
655.413 342 M
655.413 287.776 L
661.387 287.776 L
661.387 342 L
cp
S
GR
GS
[0.75 0 0 0.75 0 0] CT
10.0 ML
0.667 LW
N
681.547 342 M
681.547 267.533 L
687.52 267.533 L
687.52 342 L
cp
S
GR
GS
[0.75 0 0 0.75 0 0] CT
10.0 ML
0.667 LW
N
707.68 342 M
707.68 259.769 L
713.653 259.769 L
713.653 342 L
cp
S
GR
GS
[0.75 0 0 0.75 0 0] CT
10.0 ML
0.667 LW
N
733.813 342 M
733.813 278.761 L
739.787 278.761 L
739.787 342 L
cp
S
GR
GS
[0.75 0 0 0.75 0 0] CT
10.0 ML
0.667 LW
N
759.947 342 M
759.947 284.481 L
765.92 284.481 L
765.92 342 L
cp
S
GR
GS
[0.75 0 0 0.75 0 0] CT
10.0 ML
0.667 LW
N
786.08 342 M
786.08 284.203 L
792.053 284.203 L
792.053 342 L
cp
S
GR
GS
[0.75 0 0 0.75 0 0] CT
10.0 ML
0.667 LW
N
812.213 342 M
812.213 268.368 L
818.187 268.368 L
818.187 342 L
cp
S
GR
GS
[0.75 0 0 0.75 0 0] CT
10.0 ML
0.667 LW
N
838.347 342 M
838.347 279.415 L
844.32 279.415 L
844.32 342 L
cp
S
GR
GS
[0.75 0 0 0.75 0 0] CT
10.0 ML
0.667 LW
N
864.48 342 M
864.48 267.11 L
870.453 267.11 L
870.453 342 L
cp
S
GR
GS
[0.75 0 0 0.75 0 0] CT
10.0 ML
0.667 LW
N
890.613 342 M
890.613 280.026 L
896.587 280.026 L
896.587 342 L
cp
S
GR
GS
[0.75 0 0 0.75 0 0] CT
0.929 0.694 0.125 RC
1 LJ
2.667 LW
N
158.133 334.333 M
184.267 334.333 L
210.4 334.333 L
236.533 334.333 L
262.667 334.333 L
288.8 334.333 L
314.933 334.333 L
341.067 334.333 L
367.2 334.333 L
393.333 334.333 L
419.467 334.333 L
445.6 334.333 L
471.733 334.333 L
497.867 334.333 L
524 334.333 L
550.133 334.333 L
576.267 334.333 L
602.4 334.333 L
628.533 334.333 L
654.667 334.333 L
680.8 334.333 L
706.933 334.333 L
733.067 334.333 L
759.2 334.333 L
785.333 334.333 L
811.467 334.333 L
837.6 334.333 L
863.733 334.333 L
889.867 334.333 L
S
GR
GS
[0.75 0 0 0.75 0 0] CT
0.302 0.745 0.933 RC
[8 8] 0 setdash
2 LJ
2.667 LW
N
158.133 313.949 M
184.267 313.949 L
210.4 313.949 L
236.533 313.949 L
262.667 313.949 L
288.8 313.949 L
314.933 313.949 L
341.067 313.949 L
367.2 313.949 L
393.333 313.949 L
419.467 313.949 L
445.6 313.949 L
471.733 313.949 L
497.867 313.949 L
524 313.949 L
550.133 313.949 L
576.267 313.949 L
602.4 313.949 L
628.533 313.949 L
654.667 313.949 L
680.8 313.949 L
706.933 313.949 L
733.067 313.949 L
759.2 313.949 L
785.333 313.949 L
811.467 313.949 L
837.6 313.949 L
863.733 313.949 L
889.867 313.949 L
S
GR
GS
[0.75 0 0 0.75 0 0] CT
0.635 0.078 0.184 RC
[8 8] 0 setdash
2 LJ
2.667 LW
N
158.133 278.095 M
184.267 278.095 L
210.4 278.095 L
236.533 278.095 L
262.667 278.095 L
288.8 278.095 L
314.933 278.095 L
341.067 278.095 L
367.2 278.095 L
393.333 278.095 L
419.467 278.095 L
445.6 278.095 L
471.733 278.095 L
497.867 278.095 L
524 278.095 L
550.133 278.095 L
576.267 278.095 L
602.4 278.095 L
628.533 278.095 L
654.667 278.095 L
680.8 278.095 L
706.933 278.095 L
733.067 278.095 L
759.2 278.095 L
785.333 278.095 L
811.467 278.095 L
837.6 278.095 L
863.733 278.095 L
889.867 278.095 L
S
GR
GS
[0.75 0 0 0.75 0 0] CT
1 GC
N
132 521 M
916 521 L
916 406 L
132 406 L
cp
f
GR
GS
[0.75 0 0 0.75 0 0] CT
0.149 GC
2 setlinecap
1 LJ
0.667 LW
N
132 521 M
916 521 L
S
GR
GS
[0.75 0 0 0.75 0 0] CT
0.149 GC
2 setlinecap
1 LJ
0.667 LW
N
158.133 521 M
158.133 513.16 L
S
GR
GS
[0.75 0 0 0.75 0 0] CT
0.149 GC
2 setlinecap
1 LJ
0.667 LW
N
184.267 521 M
184.267 513.16 L
S
GR
GS
[0.75 0 0 0.75 0 0] CT
0.149 GC
2 setlinecap
1 LJ
0.667 LW
N
210.4 521 M
210.4 513.16 L
S
GR
GS
[0.75 0 0 0.75 0 0] CT
0.149 GC
2 setlinecap
1 LJ
0.667 LW
N
236.533 521 M
236.533 513.16 L
S
GR
GS
[0.75 0 0 0.75 0 0] CT
0.149 GC
2 setlinecap
1 LJ
0.667 LW
N
262.667 521 M
262.667 513.16 L
S
GR
GS
[0.75 0 0 0.75 0 0] CT
0.149 GC
2 setlinecap
1 LJ
0.667 LW
N
288.8 521 M
288.8 513.16 L
S
GR
GS
[0.75 0 0 0.75 0 0] CT
0.149 GC
2 setlinecap
1 LJ
0.667 LW
N
314.933 521 M
314.933 513.16 L
S
GR
GS
[0.75 0 0 0.75 0 0] CT
0.149 GC
2 setlinecap
1 LJ
0.667 LW
N
341.067 521 M
341.067 513.16 L
S
GR
GS
[0.75 0 0 0.75 0 0] CT
0.149 GC
2 setlinecap
1 LJ
0.667 LW
N
367.2 521 M
367.2 513.16 L
S
GR
GS
[0.75 0 0 0.75 0 0] CT
0.149 GC
2 setlinecap
1 LJ
0.667 LW
N
393.333 521 M
393.333 513.16 L
S
GR
GS
[0.75 0 0 0.75 0 0] CT
0.149 GC
2 setlinecap
1 LJ
0.667 LW
N
419.467 521 M
419.467 513.16 L
S
GR
GS
[0.75 0 0 0.75 0 0] CT
0.149 GC
2 setlinecap
1 LJ
0.667 LW
N
445.6 521 M
445.6 513.16 L
S
GR
GS
[0.75 0 0 0.75 0 0] CT
0.149 GC
2 setlinecap
1 LJ
0.667 LW
N
471.733 521 M
471.733 513.16 L
S
GR
GS
[0.75 0 0 0.75 0 0] CT
0.149 GC
2 setlinecap
1 LJ
0.667 LW
N
497.867 521 M
497.867 513.16 L
S
GR
GS
[0.75 0 0 0.75 0 0] CT
0.149 GC
2 setlinecap
1 LJ
0.667 LW
N
524 521 M
524 513.16 L
S
GR
GS
[0.75 0 0 0.75 0 0] CT
0.149 GC
2 setlinecap
1 LJ
0.667 LW
N
550.133 521 M
550.133 513.16 L
S
GR
GS
[0.75 0 0 0.75 0 0] CT
0.149 GC
2 setlinecap
1 LJ
0.667 LW
N
576.267 521 M
576.267 513.16 L
S
GR
GS
[0.75 0 0 0.75 0 0] CT
0.149 GC
2 setlinecap
1 LJ
0.667 LW
N
602.4 521 M
602.4 513.16 L
S
GR
GS
[0.75 0 0 0.75 0 0] CT
0.149 GC
2 setlinecap
1 LJ
0.667 LW
N
628.533 521 M
628.533 513.16 L
S
GR
GS
[0.75 0 0 0.75 0 0] CT
0.149 GC
2 setlinecap
1 LJ
0.667 LW
N
654.667 521 M
654.667 513.16 L
S
GR
GS
[0.75 0 0 0.75 0 0] CT
0.149 GC
2 setlinecap
1 LJ
0.667 LW
N
680.8 521 M
680.8 513.16 L
S
GR
GS
[0.75 0 0 0.75 0 0] CT
0.149 GC
2 setlinecap
1 LJ
0.667 LW
N
706.933 521 M
706.933 513.16 L
S
GR
GS
[0.75 0 0 0.75 0 0] CT
0.149 GC
2 setlinecap
1 LJ
0.667 LW
N
733.067 521 M
733.067 513.16 L
S
GR
GS
[0.75 0 0 0.75 0 0] CT
0.149 GC
2 setlinecap
1 LJ
0.667 LW
N
759.2 521 M
759.2 513.16 L
S
GR
GS
[0.75 0 0 0.75 0 0] CT
0.149 GC
2 setlinecap
1 LJ
0.667 LW
N
785.333 521 M
785.333 513.16 L
S
GR
GS
[0.75 0 0 0.75 0 0] CT
0.149 GC
2 setlinecap
1 LJ
0.667 LW
N
811.467 521 M
811.467 513.16 L
S
GR
GS
[0.75 0 0 0.75 0 0] CT
0.149 GC
2 setlinecap
1 LJ
0.667 LW
N
837.6 521 M
837.6 513.16 L
S
GR
GS
[0.75 0 0 0.75 0 0] CT
0.149 GC
2 setlinecap
1 LJ
0.667 LW
N
863.733 521 M
863.733 513.16 L
S
GR
GS
[0.75 0 0 0.75 0 0] CT
0.149 GC
2 setlinecap
1 LJ
0.667 LW
N
889.867 521 M
889.867 513.16 L
S
GR
GS
[0.75 0 0 0.75 118.6 394.74998] CT
0.149 GC
/Helvetica 13.333 F
GS
[1 0 0 1 0 0] CT
-4.5 13 moveto 
1 -1 scale
(1) t 
GR
GR
GS
[0.75 0 0 0.75 138.2 394.74998] CT
0.149 GC
/Helvetica 13.333 F
GS
[1 0 0 1 0 0] CT
-4.5 13 moveto 
1 -1 scale
(2) t 
GR
GR
GS
[0.75 0 0 0.75 157.8 394.74998] CT
0.149 GC
/Helvetica 13.333 F
GS
[1 0 0 1 0 0] CT
-4.5 13 moveto 
1 -1 scale
(3) t 
GR
GR
GS
[0.75 0 0 0.75 177.40001 394.74998] CT
0.149 GC
/Helvetica 13.333 F
GS
[1 0 0 1 0 0] CT
-4.5 13 moveto 
1 -1 scale
(4) t 
GR
GR
GS
[0.75 0 0 0.75 196.99999 394.74998] CT
0.149 GC
/Helvetica 13.333 F
GS
[1 0 0 1 0 0] CT
-4.5 13 moveto 
1 -1 scale
(5) t 
GR
GR
GS
[0.75 0 0 0.75 216.59999 394.74998] CT
0.149 GC
/Helvetica 13.333 F
GS
[1 0 0 1 0 0] CT
-4.5 13 moveto 
1 -1 scale
(6) t 
GR
GR
GS
[0.75 0 0 0.75 236.19999 394.74998] CT
0.149 GC
/Helvetica 13.333 F
GS
[1 0 0 1 0 0] CT
-4.5 13 moveto 
1 -1 scale
(7) t 
GR
GR
GS
[0.75 0 0 0.75 255.80001 394.74998] CT
0.149 GC
/Helvetica 13.333 F
GS
[1 0 0 1 0 0] CT
-4.5 13 moveto 
1 -1 scale
(8) t 
GR
GR
GS
[0.75 0 0 0.75 275.40001 394.74998] CT
0.149 GC
/Helvetica 13.333 F
GS
[1 0 0 1 0 0] CT
-4.5 13 moveto 
1 -1 scale
(9) t 
GR
GR
GS
[0.75 0 0 0.75 295.00001 394.74998] CT
0.149 GC
/Helvetica 13.333 F
GS
[1 0 0 1 0 0] CT
-8.5 13 moveto 
1 -1 scale
(10) t 
GR
GR
GS
[0.75 0 0 0.75 314.60001 394.74998] CT
0.149 GC
/Helvetica 13.333 F
GS
[1 0 0 1 0 0] CT
-8.5 13 moveto 
1 -1 scale
(11) t 
GR
GR
GS
[0.75 0 0 0.75 334.2 394.74998] CT
0.149 GC
/Helvetica 13.333 F
GS
[1 0 0 1 0 0] CT
-8.5 13 moveto 
1 -1 scale
(12) t 
GR
GR
GS
[0.75 0 0 0.75 353.8 394.74998] CT
0.149 GC
/Helvetica 13.333 F
GS
[1 0 0 1 0 0] CT
-8.5 13 moveto 
1 -1 scale
(13) t 
GR
GR
GS
[0.75 0 0 0.75 373.4 394.74998] CT
0.149 GC
/Helvetica 13.333 F
GS
[1 0 0 1 0 0] CT
-8.5 13 moveto 
1 -1 scale
(14) t 
GR
GR
GS
[0.75 0 0 0.75 393 394.74998] CT
0.149 GC
/Helvetica 13.333 F
GS
[1 0 0 1 0 0] CT
-8.5 13 moveto 
1 -1 scale
(15) t 
GR
GR
GS
[0.75 0 0 0.75 412.60002 394.74998] CT
0.149 GC
/Helvetica 13.333 F
GS
[1 0 0 1 0 0] CT
-8.5 13 moveto 
1 -1 scale
(16) t 
GR
GR
GS
[0.75 0 0 0.75 432.2 394.74998] CT
0.149 GC
/Helvetica 13.333 F
GS
[1 0 0 1 0 0] CT
-8.5 13 moveto 
1 -1 scale
(17) t 
GR
GR
GS
[0.75 0 0 0.75 451.80002 394.74998] CT
0.149 GC
/Helvetica 13.333 F
GS
[1 0 0 1 0 0] CT
-8.5 13 moveto 
1 -1 scale
(18) t 
GR
GR
GS
[0.75 0 0 0.75 471.39999 394.74998] CT
0.149 GC
/Helvetica 13.333 F
GS
[1 0 0 1 0 0] CT
-8.5 13 moveto 
1 -1 scale
(19) t 
GR
GR
GS
[0.75 0 0 0.75 491.00002 394.74998] CT
0.149 GC
/Helvetica 13.333 F
GS
[1 0 0 1 0 0] CT
-8.5 13 moveto 
1 -1 scale
(20) t 
GR
GR
GS
[0.75 0 0 0.75 510.59999 394.74998] CT
0.149 GC
/Helvetica 13.333 F
GS
[1 0 0 1 0 0] CT
-8.5 13 moveto 
1 -1 scale
(21) t 
GR
GR
GS
[0.75 0 0 0.75 530.20001 394.74998] CT
0.149 GC
/Helvetica 13.333 F
GS
[1 0 0 1 0 0] CT
-8.5 13 moveto 
1 -1 scale
(22) t 
GR
GR
GS
[0.75 0 0 0.75 549.79999 394.74998] CT
0.149 GC
/Helvetica 13.333 F
GS
[1 0 0 1 0 0] CT
-8.5 13 moveto 
1 -1 scale
(23) t 
GR
GR
GS
[0.75 0 0 0.75 569.40001 394.74998] CT
0.149 GC
/Helvetica 13.333 F
GS
[1 0 0 1 0 0] CT
-8.5 13 moveto 
1 -1 scale
(24) t 
GR
GR
GS
[0.75 0 0 0.75 588.99998 394.74998] CT
0.149 GC
/Helvetica 13.333 F
GS
[1 0 0 1 0 0] CT
-8.5 13 moveto 
1 -1 scale
(25) t 
GR
GR
GS
[0.75 0 0 0.75 608.60001 394.74998] CT
0.149 GC
/Helvetica 13.333 F
GS
[1 0 0 1 0 0] CT
-8.5 13 moveto 
1 -1 scale
(27) t 
GR
GR
GS
[0.75 0 0 0.75 628.19998 394.74998] CT
0.149 GC
/Helvetica 13.333 F
GS
[1 0 0 1 0 0] CT
-8.5 13 moveto 
1 -1 scale
(28) t 
GR
GR
GS
[0.75 0 0 0.75 647.8 394.74998] CT
0.149 GC
/Helvetica 13.333 F
GS
[1 0 0 1 0 0] CT
-8.5 13 moveto 
1 -1 scale
(29) t 
GR
GR
GS
[0.75 0 0 0.75 667.39998 394.74998] CT
0.149 GC
/Helvetica 13.333 F
GS
[1 0 0 1 0 0] CT
-8.5 13 moveto 
1 -1 scale
(30) t 
GR
GR
GS
[0.75 0 0 0.75 393.00027 408.50002] CT
0.149 GC
/Helvetica 14.667 F
GS
[1 0 0 1 0 0] CT
-45.5 14 moveto 
1 -1 scale
(Point clouds) t 
GR
GR
GS
[0.75 0 0 0.75 0 0] CT
0.149 GC
2 setlinecap
1 LJ
0.667 LW
N
132 521 M
132 406 L
S
GR
GS
[0.75 0 0 0.75 0 0] CT
0.149 GC
2 setlinecap
1 LJ
0.667 LW
N
132 521 M
139.84 521 L
S
GR
GS
[0.75 0 0 0.75 0 0] CT
0.149 GC
2 setlinecap
1 LJ
0.667 LW
N
132 463.5 M
139.84 463.5 L
S
GR
GS
[0.75 0 0 0.75 0 0] CT
0.149 GC
2 setlinecap
1 LJ
0.667 LW
N
132 406 M
139.84 406 L
S
GR
GS
[0.75 0 0 0.75 95 390.75] CT
0.149 GC
/Helvetica 13.333 F
GS
[1 0 0 1 0 0] CT
-9 4.5 moveto 
1 -1 scale
(0) t 
GR
GR
GS
[0.75 0 0 0.75 95 347.625] CT
0.149 GC
/Helvetica 13.333 F
GS
[1 0 0 1 0 0] CT
-9 4.5 moveto 
1 -1 scale
(5) t 
GR
GR
GS
[0.75 0 0 0.75 95 304.5] CT
0.149 GC
/Helvetica 13.333 F
GS
[1 0 0 1 0 0] CT
-17 4.5 moveto 
1 -1 scale
(10) t 
GR
GR
GS
[0 -0.75 0.75 0 79.25 347.62495] CT
0.149 GC
/Helvetica 14.667 F
GS
[1 0 0 1 0 0] CT
-45 -4 moveto 
1 -1 scale
(speedup \(x\)) t 
GR
GR
GS
[0.75 0 0 0.75 393.00037 302.4375] CT
/Helvetica-Bold 14.667 F
GS
[1 0 0 1 0 0] CT
-119 -4 moveto 
1 -1 scale
(Speedup error-minimization) t 
GR
GR
GS
[0.75 0 0 0.75 0 0] CT
0.149 GC
1 LJ
0.667 LW
N
132 521 M
916 521 L
S
GR
GS
[0.75 0 0 0.75 0 0] CT
0.302 0.745 0.933 RC
N
151.413 521 M
157.387 521 L
157.387 467.014 L
151.413 467.014 L
cp
f
GR
GS
[0.75 0 0 0.75 0 0] CT
0.302 0.745 0.933 RC
N
177.547 521 M
183.52 521 L
183.52 464.169 L
177.547 464.169 L
cp
f
GR
GS
[0.75 0 0 0.75 0 0] CT
0.302 0.745 0.933 RC
N
203.68 521 M
209.653 521 L
209.653 467.353 L
203.68 467.353 L
cp
f
GR
GS
[0.75 0 0 0.75 0 0] CT
0.302 0.745 0.933 RC
N
229.813 521 M
235.787 521 L
235.787 462.39 L
229.813 462.39 L
cp
f
GR
GS
[0.75 0 0 0.75 0 0] CT
0.302 0.745 0.933 RC
N
255.947 521 M
261.92 521 L
261.92 455.761 L
255.947 455.761 L
cp
f
GR
GS
[0.75 0 0 0.75 0 0] CT
0.302 0.745 0.933 RC
N
282.08 521 M
288.053 521 L
288.053 474.55 L
282.08 474.55 L
cp
f
GR
GS
[0.75 0 0 0.75 0 0] CT
0.302 0.745 0.933 RC
N
308.213 521 M
314.187 521 L
314.187 462.749 L
308.213 462.749 L
cp
f
GR
GS
[0.75 0 0 0.75 0 0] CT
0.302 0.745 0.933 RC
N
334.347 521 M
340.32 521 L
340.32 474.463 L
334.347 474.463 L
cp
f
GR
GS
[0.75 0 0 0.75 0 0] CT
0.302 0.745 0.933 RC
N
360.48 521 M
366.453 521 L
366.453 475.86 L
360.48 475.86 L
cp
f
GR
GS
[0.75 0 0 0.75 0 0] CT
0.302 0.745 0.933 RC
N
386.613 521 M
392.587 521 L
392.587 473.506 L
386.613 473.506 L
cp
f
GR
GS
[0.75 0 0 0.75 0 0] CT
0.302 0.745 0.933 RC
N
412.747 521 M
418.72 521 L
418.72 466.024 L
412.747 466.024 L
cp
f
GR
GS
[0.75 0 0 0.75 0 0] CT
0.302 0.745 0.933 RC
N
438.88 521 M
444.853 521 L
444.853 472.082 L
438.88 472.082 L
cp
f
GR
GS
[0.75 0 0 0.75 0 0] CT
0.302 0.745 0.933 RC
N
465.013 521 M
470.987 521 L
470.987 474.155 L
465.013 474.155 L
cp
f
GR
GS
[0.75 0 0 0.75 0 0] CT
0.302 0.745 0.933 RC
N
491.147 521 M
497.12 521 L
497.12 482.386 L
491.147 482.386 L
cp
f
GR
GS
[0.75 0 0 0.75 0 0] CT
0.302 0.745 0.933 RC
N
517.28 521 M
523.253 521 L
523.253 453.989 L
517.28 453.989 L
cp
f
GR
GS
[0.75 0 0 0.75 0 0] CT
0.302 0.745 0.933 RC
N
543.413 521 M
549.387 521 L
549.387 474.536 L
543.413 474.536 L
cp
f
GR
GS
[0.75 0 0 0.75 0 0] CT
0.302 0.745 0.933 RC
N
569.547 521 M
575.52 521 L
575.52 458.244 L
569.547 458.244 L
cp
f
GR
GS
[0.75 0 0 0.75 0 0] CT
0.302 0.745 0.933 RC
N
595.68 521 M
601.653 521 L
601.653 461.857 L
595.68 461.857 L
cp
f
GR
GS
[0.75 0 0 0.75 0 0] CT
0.302 0.745 0.933 RC
N
621.813 521 M
627.787 521 L
627.787 457.461 L
621.813 457.461 L
cp
f
GR
GS
[0.75 0 0 0.75 0 0] CT
0.302 0.745 0.933 RC
N
647.947 521 M
653.92 521 L
653.92 471.721 L
647.947 471.721 L
cp
f
GR
GS
[0.75 0 0 0.75 0 0] CT
0.302 0.745 0.933 RC
N
674.08 521 M
680.053 521 L
680.053 419.313 L
674.08 419.313 L
cp
f
GR
GS
[0.75 0 0 0.75 0 0] CT
0.302 0.745 0.933 RC
N
700.213 521 M
706.187 521 L
706.187 448.444 L
700.213 448.444 L
cp
f
GR
GS
[0.75 0 0 0.75 0 0] CT
0.302 0.745 0.933 RC
N
726.347 521 M
732.32 521 L
732.32 468.145 L
726.347 468.145 L
cp
f
GR
GS
[0.75 0 0 0.75 0 0] CT
0.302 0.745 0.933 RC
N
752.48 521 M
758.453 521 L
758.453 474.264 L
752.48 474.264 L
cp
f
GR
GS
[0.75 0 0 0.75 0 0] CT
0.302 0.745 0.933 RC
N
778.613 521 M
784.587 521 L
784.587 476.578 L
778.613 476.578 L
cp
f
GR
GS
[0.75 0 0 0.75 0 0] CT
0.302 0.745 0.933 RC
N
804.747 521 M
810.72 521 L
810.72 437.064 L
804.747 437.064 L
cp
f
GR
GS
[0.75 0 0 0.75 0 0] CT
0.302 0.745 0.933 RC
N
830.88 521 M
836.853 521 L
836.853 451.795 L
830.88 451.795 L
cp
f
GR
GS
[0.75 0 0 0.75 0 0] CT
0.302 0.745 0.933 RC
N
857.013 521 M
862.987 521 L
862.987 457.64 L
857.013 457.64 L
cp
f
GR
GS
[0.75 0 0 0.75 0 0] CT
0.302 0.745 0.933 RC
N
883.147 521 M
889.12 521 L
889.12 450.988 L
883.147 450.988 L
cp
f
GR
GS
[0.75 0 0 0.75 0 0] CT
10.0 ML
0.667 LW
N
151.413 521 M
151.413 467.014 L
157.387 467.014 L
157.387 521 L
cp
S
GR
GS
[0.75 0 0 0.75 0 0] CT
10.0 ML
0.667 LW
N
177.547 521 M
177.547 464.169 L
183.52 464.169 L
183.52 521 L
cp
S
GR
GS
[0.75 0 0 0.75 0 0] CT
10.0 ML
0.667 LW
N
203.68 521 M
203.68 467.353 L
209.653 467.353 L
209.653 521 L
cp
S
GR
GS
[0.75 0 0 0.75 0 0] CT
10.0 ML
0.667 LW
N
229.813 521 M
229.813 462.39 L
235.787 462.39 L
235.787 521 L
cp
S
GR
GS
[0.75 0 0 0.75 0 0] CT
10.0 ML
0.667 LW
N
255.947 521 M
255.947 455.761 L
261.92 455.761 L
261.92 521 L
cp
S
GR
GS
[0.75 0 0 0.75 0 0] CT
10.0 ML
0.667 LW
N
282.08 521 M
282.08 474.55 L
288.053 474.55 L
288.053 521 L
cp
S
GR
GS
[0.75 0 0 0.75 0 0] CT
10.0 ML
0.667 LW
N
308.213 521 M
308.213 462.749 L
314.187 462.749 L
314.187 521 L
cp
S
GR
GS
[0.75 0 0 0.75 0 0] CT
10.0 ML
0.667 LW
N
334.347 521 M
334.347 474.463 L
340.32 474.463 L
340.32 521 L
cp
S
GR
GS
[0.75 0 0 0.75 0 0] CT
10.0 ML
0.667 LW
N
360.48 521 M
360.48 475.86 L
366.453 475.86 L
366.453 521 L
cp
S
GR
GS
[0.75 0 0 0.75 0 0] CT
10.0 ML
0.667 LW
N
386.613 521 M
386.613 473.506 L
392.587 473.506 L
392.587 521 L
cp
S
GR
GS
[0.75 0 0 0.75 0 0] CT
10.0 ML
0.667 LW
N
412.747 521 M
412.747 466.024 L
418.72 466.024 L
418.72 521 L
cp
S
GR
GS
[0.75 0 0 0.75 0 0] CT
10.0 ML
0.667 LW
N
438.88 521 M
438.88 472.082 L
444.853 472.082 L
444.853 521 L
cp
S
GR
GS
[0.75 0 0 0.75 0 0] CT
10.0 ML
0.667 LW
N
465.013 521 M
465.013 474.155 L
470.987 474.155 L
470.987 521 L
cp
S
GR
GS
[0.75 0 0 0.75 0 0] CT
10.0 ML
0.667 LW
N
491.147 521 M
491.147 482.386 L
497.12 482.386 L
497.12 521 L
cp
S
GR
GS
[0.75 0 0 0.75 0 0] CT
10.0 ML
0.667 LW
N
517.28 521 M
517.28 453.989 L
523.253 453.989 L
523.253 521 L
cp
S
GR
GS
[0.75 0 0 0.75 0 0] CT
10.0 ML
0.667 LW
N
543.413 521 M
543.413 474.536 L
549.387 474.536 L
549.387 521 L
cp
S
GR
GS
[0.75 0 0 0.75 0 0] CT
10.0 ML
0.667 LW
N
569.547 521 M
569.547 458.244 L
575.52 458.244 L
575.52 521 L
cp
S
GR
GS
[0.75 0 0 0.75 0 0] CT
10.0 ML
0.667 LW
N
595.68 521 M
595.68 461.857 L
601.653 461.857 L
601.653 521 L
cp
S
GR
GS
[0.75 0 0 0.75 0 0] CT
10.0 ML
0.667 LW
N
621.813 521 M
621.813 457.461 L
627.787 457.461 L
627.787 521 L
cp
S
GR
GS
[0.75 0 0 0.75 0 0] CT
10.0 ML
0.667 LW
N
647.947 521 M
647.947 471.721 L
653.92 471.721 L
653.92 521 L
cp
S
GR
GS
[0.75 0 0 0.75 0 0] CT
10.0 ML
0.667 LW
N
674.08 521 M
674.08 419.313 L
680.053 419.313 L
680.053 521 L
cp
S
GR
GS
[0.75 0 0 0.75 0 0] CT
10.0 ML
0.667 LW
N
700.213 521 M
700.213 448.444 L
706.187 448.444 L
706.187 521 L
cp
S
GR
GS
[0.75 0 0 0.75 0 0] CT
10.0 ML
0.667 LW
N
726.347 521 M
726.347 468.145 L
732.32 468.145 L
732.32 521 L
cp
S
GR
GS
[0.75 0 0 0.75 0 0] CT
10.0 ML
0.667 LW
N
752.48 521 M
752.48 474.264 L
758.453 474.264 L
758.453 521 L
cp
S
GR
GS
[0.75 0 0 0.75 0 0] CT
10.0 ML
0.667 LW
N
778.613 521 M
778.613 476.578 L
784.587 476.578 L
784.587 521 L
cp
S
GR
GS
[0.75 0 0 0.75 0 0] CT
10.0 ML
0.667 LW
N
804.747 521 M
804.747 437.064 L
810.72 437.064 L
810.72 521 L
cp
S
GR
GS
[0.75 0 0 0.75 0 0] CT
10.0 ML
0.667 LW
N
830.88 521 M
830.88 451.795 L
836.853 451.795 L
836.853 521 L
cp
S
GR
GS
[0.75 0 0 0.75 0 0] CT
10.0 ML
0.667 LW
N
857.013 521 M
857.013 457.64 L
862.987 457.64 L
862.987 521 L
cp
S
GR
GS
[0.75 0 0 0.75 0 0] CT
10.0 ML
0.667 LW
N
883.147 521 M
883.147 450.988 L
889.12 450.988 L
889.12 521 L
cp
S
GR
GS
[0.75 0 0 0.75 0 0] CT
0.635 0.078 0.184 RC
N
158.88 521 M
164.853 521 L
164.853 458.354 L
158.88 458.354 L
cp
f
GR
GS
[0.75 0 0 0.75 0 0] CT
0.635 0.078 0.184 RC
N
185.013 521 M
190.987 521 L
190.987 464.889 L
185.013 464.889 L
cp
f
GR
GS
[0.75 0 0 0.75 0 0] CT
0.635 0.078 0.184 RC
N
211.147 521 M
217.12 521 L
217.12 467.999 L
211.147 467.999 L
cp
f
GR
GS
[0.75 0 0 0.75 0 0] CT
0.635 0.078 0.184 RC
N
237.28 521 M
243.253 521 L
243.253 462.837 L
237.28 462.837 L
cp
f
GR
GS
[0.75 0 0 0.75 0 0] CT
0.635 0.078 0.184 RC
N
263.413 521 M
269.387 521 L
269.387 456.456 L
263.413 456.456 L
cp
f
GR
GS
[0.75 0 0 0.75 0 0] CT
0.635 0.078 0.184 RC
N
289.547 521 M
295.52 521 L
295.52 475.028 L
289.547 475.028 L
cp
f
GR
GS
[0.75 0 0 0.75 0 0] CT
0.635 0.078 0.184 RC
N
315.68 521 M
321.653 521 L
321.653 462.605 L
315.68 462.605 L
cp
f
GR
GS
[0.75 0 0 0.75 0 0] CT
0.635 0.078 0.184 RC
N
341.813 521 M
347.787 521 L
347.787 477.065 L
341.813 477.065 L
cp
f
GR
GS
[0.75 0 0 0.75 0 0] CT
0.635 0.078 0.184 RC
N
367.947 521 M
373.92 521 L
373.92 476.188 L
367.947 476.188 L
cp
f
GR
GS
[0.75 0 0 0.75 0 0] CT
0.635 0.078 0.184 RC
N
394.08 521 M
400.053 521 L
400.053 473.754 L
394.08 473.754 L
cp
f
GR
GS
[0.75 0 0 0.75 0 0] CT
0.635 0.078 0.184 RC
N
420.213 521 M
426.187 521 L
426.187 466.466 L
420.213 466.466 L
cp
f
GR
GS
[0.75 0 0 0.75 0 0] CT
0.635 0.078 0.184 RC
N
446.347 521 M
452.32 521 L
452.32 472.541 L
446.347 472.541 L
cp
f
GR
GS
[0.75 0 0 0.75 0 0] CT
0.635 0.078 0.184 RC
N
472.48 521 M
478.453 521 L
478.453 474.599 L
472.48 474.599 L
cp
f
GR
GS
[0.75 0 0 0.75 0 0] CT
0.635 0.078 0.184 RC
N
498.613 521 M
504.587 521 L
504.587 485.38 L
498.613 485.38 L
cp
f
GR
GS
[0.75 0 0 0.75 0 0] CT
0.635 0.078 0.184 RC
N
524.747 521 M
530.72 521 L
530.72 454.499 L
524.747 454.499 L
cp
f
GR
GS
[0.75 0 0 0.75 0 0] CT
0.635 0.078 0.184 RC
N
550.88 521 M
556.853 521 L
556.853 475.223 L
550.88 475.223 L
cp
f
GR
GS
[0.75 0 0 0.75 0 0] CT
0.635 0.078 0.184 RC
N
577.013 521 M
582.987 521 L
582.987 459.125 L
577.013 459.125 L
cp
f
GR
GS
[0.75 0 0 0.75 0 0] CT
0.635 0.078 0.184 RC
N
603.147 521 M
609.12 521 L
609.12 462.538 L
603.147 462.538 L
cp
f
GR
GS
[0.75 0 0 0.75 0 0] CT
0.635 0.078 0.184 RC
N
629.28 521 M
635.253 521 L
635.253 458.347 L
629.28 458.347 L
cp
f
GR
GS
[0.75 0 0 0.75 0 0] CT
0.635 0.078 0.184 RC
N
655.413 521 M
661.387 521 L
661.387 471.49 L
655.413 471.49 L
cp
f
GR
GS
[0.75 0 0 0.75 0 0] CT
0.635 0.078 0.184 RC
N
681.547 521 M
687.52 521 L
687.52 420.904 L
681.547 420.904 L
cp
f
GR
GS
[0.75 0 0 0.75 0 0] CT
0.635 0.078 0.184 RC
N
707.68 521 M
713.653 521 L
713.653 448.982 L
707.68 448.982 L
cp
f
GR
GS
[0.75 0 0 0.75 0 0] CT
0.635 0.078 0.184 RC
N
733.813 521 M
739.787 521 L
739.787 468.368 L
733.813 468.368 L
cp
f
GR
GS
[0.75 0 0 0.75 0 0] CT
0.635 0.078 0.184 RC
N
759.947 521 M
765.92 521 L
765.92 474.744 L
759.947 474.744 L
cp
f
GR
GS
[0.75 0 0 0.75 0 0] CT
0.635 0.078 0.184 RC
N
786.08 521 M
792.053 521 L
792.053 477.18 L
786.08 477.18 L
cp
f
GR
GS
[0.75 0 0 0.75 0 0] CT
0.635 0.078 0.184 RC
N
812.213 521 M
818.187 521 L
818.187 438.327 L
812.213 438.327 L
cp
f
GR
GS
[0.75 0 0 0.75 0 0] CT
0.635 0.078 0.184 RC
N
838.347 521 M
844.32 521 L
844.32 452.562 L
838.347 452.562 L
cp
f
GR
GS
[0.75 0 0 0.75 0 0] CT
0.635 0.078 0.184 RC
N
864.48 521 M
870.453 521 L
870.453 458.001 L
864.48 458.001 L
cp
f
GR
GS
[0.75 0 0 0.75 0 0] CT
0.635 0.078 0.184 RC
N
890.613 521 M
896.587 521 L
896.587 451.627 L
890.613 451.627 L
cp
f
GR
GS
[0.75 0 0 0.75 0 0] CT
10.0 ML
0.667 LW
N
158.88 521 M
158.88 458.354 L
164.853 458.354 L
164.853 521 L
cp
S
GR
GS
[0.75 0 0 0.75 0 0] CT
10.0 ML
0.667 LW
N
185.013 521 M
185.013 464.889 L
190.987 464.889 L
190.987 521 L
cp
S
GR
GS
[0.75 0 0 0.75 0 0] CT
10.0 ML
0.667 LW
N
211.147 521 M
211.147 467.999 L
217.12 467.999 L
217.12 521 L
cp
S
GR
GS
[0.75 0 0 0.75 0 0] CT
10.0 ML
0.667 LW
N
237.28 521 M
237.28 462.837 L
243.253 462.837 L
243.253 521 L
cp
S
GR
GS
[0.75 0 0 0.75 0 0] CT
10.0 ML
0.667 LW
N
263.413 521 M
263.413 456.456 L
269.387 456.456 L
269.387 521 L
cp
S
GR
GS
[0.75 0 0 0.75 0 0] CT
10.0 ML
0.667 LW
N
289.547 521 M
289.547 475.028 L
295.52 475.028 L
295.52 521 L
cp
S
GR
GS
[0.75 0 0 0.75 0 0] CT
10.0 ML
0.667 LW
N
315.68 521 M
315.68 462.605 L
321.653 462.605 L
321.653 521 L
cp
S
GR
GS
[0.75 0 0 0.75 0 0] CT
10.0 ML
0.667 LW
N
341.813 521 M
341.813 477.065 L
347.787 477.065 L
347.787 521 L
cp
S
GR
GS
[0.75 0 0 0.75 0 0] CT
10.0 ML
0.667 LW
N
367.947 521 M
367.947 476.188 L
373.92 476.188 L
373.92 521 L
cp
S
GR
GS
[0.75 0 0 0.75 0 0] CT
10.0 ML
0.667 LW
N
394.08 521 M
394.08 473.754 L
400.053 473.754 L
400.053 521 L
cp
S
GR
GS
[0.75 0 0 0.75 0 0] CT
10.0 ML
0.667 LW
N
420.213 521 M
420.213 466.466 L
426.187 466.466 L
426.187 521 L
cp
S
GR
GS
[0.75 0 0 0.75 0 0] CT
10.0 ML
0.667 LW
N
446.347 521 M
446.347 472.541 L
452.32 472.541 L
452.32 521 L
cp
S
GR
GS
[0.75 0 0 0.75 0 0] CT
10.0 ML
0.667 LW
N
472.48 521 M
472.48 474.599 L
478.453 474.599 L
478.453 521 L
cp
S
GR
GS
[0.75 0 0 0.75 0 0] CT
10.0 ML
0.667 LW
N
498.613 521 M
498.613 485.38 L
504.587 485.38 L
504.587 521 L
cp
S
GR
GS
[0.75 0 0 0.75 0 0] CT
10.0 ML
0.667 LW
N
524.747 521 M
524.747 454.499 L
530.72 454.499 L
530.72 521 L
cp
S
GR
GS
[0.75 0 0 0.75 0 0] CT
10.0 ML
0.667 LW
N
550.88 521 M
550.88 475.223 L
556.853 475.223 L
556.853 521 L
cp
S
GR
GS
[0.75 0 0 0.75 0 0] CT
10.0 ML
0.667 LW
N
577.013 521 M
577.013 459.125 L
582.987 459.125 L
582.987 521 L
cp
S
GR
GS
[0.75 0 0 0.75 0 0] CT
10.0 ML
0.667 LW
N
603.147 521 M
603.147 462.538 L
609.12 462.538 L
609.12 521 L
cp
S
GR
GS
[0.75 0 0 0.75 0 0] CT
10.0 ML
0.667 LW
N
629.28 521 M
629.28 458.347 L
635.253 458.347 L
635.253 521 L
cp
S
GR
GS
[0.75 0 0 0.75 0 0] CT
10.0 ML
0.667 LW
N
655.413 521 M
655.413 471.49 L
661.387 471.49 L
661.387 521 L
cp
S
GR
GS
[0.75 0 0 0.75 0 0] CT
10.0 ML
0.667 LW
N
681.547 521 M
681.547 420.904 L
687.52 420.904 L
687.52 521 L
cp
S
GR
GS
[0.75 0 0 0.75 0 0] CT
10.0 ML
0.667 LW
N
707.68 521 M
707.68 448.982 L
713.653 448.982 L
713.653 521 L
cp
S
GR
GS
[0.75 0 0 0.75 0 0] CT
10.0 ML
0.667 LW
N
733.813 521 M
733.813 468.368 L
739.787 468.368 L
739.787 521 L
cp
S
GR
GS
[0.75 0 0 0.75 0 0] CT
10.0 ML
0.667 LW
N
759.947 521 M
759.947 474.744 L
765.92 474.744 L
765.92 521 L
cp
S
GR
GS
[0.75 0 0 0.75 0 0] CT
10.0 ML
0.667 LW
N
786.08 521 M
786.08 477.18 L
792.053 477.18 L
792.053 521 L
cp
S
GR
GS
[0.75 0 0 0.75 0 0] CT
10.0 ML
0.667 LW
N
812.213 521 M
812.213 438.327 L
818.187 438.327 L
818.187 521 L
cp
S
GR
GS
[0.75 0 0 0.75 0 0] CT
10.0 ML
0.667 LW
N
838.347 521 M
838.347 452.562 L
844.32 452.562 L
844.32 521 L
cp
S
GR
GS
[0.75 0 0 0.75 0 0] CT
10.0 ML
0.667 LW
N
864.48 521 M
864.48 458.001 L
870.453 458.001 L
870.453 521 L
cp
S
GR
GS
[0.75 0 0 0.75 0 0] CT
10.0 ML
0.667 LW
N
890.613 521 M
890.613 451.627 L
896.587 451.627 L
896.587 521 L
cp
S
GR
GS
[0.75 0 0 0.75 0 0] CT
0.929 0.694 0.125 RC
1 LJ
2.667 LW
N
158.133 509.5 M
184.267 509.5 L
210.4 509.5 L
236.533 509.5 L
262.667 509.5 L
288.8 509.5 L
314.933 509.5 L
341.067 509.5 L
367.2 509.5 L
393.333 509.5 L
419.467 509.5 L
445.6 509.5 L
471.733 509.5 L
497.867 509.5 L
524 509.5 L
550.133 509.5 L
576.267 509.5 L
602.4 509.5 L
628.533 509.5 L
654.667 509.5 L
680.8 509.5 L
706.933 509.5 L
733.067 509.5 L
759.2 509.5 L
785.333 509.5 L
811.467 509.5 L
837.6 509.5 L
863.733 509.5 L
889.867 509.5 L
S
GR
GS
[0.75 0 0 0.75 0 0] CT
0.302 0.745 0.933 RC
[8 8] 0 setdash
2 LJ
2.667 LW
N
158.133 463.259 M
184.267 463.259 L
210.4 463.259 L
236.533 463.259 L
262.667 463.259 L
288.8 463.259 L
314.933 463.259 L
341.067 463.259 L
367.2 463.259 L
393.333 463.259 L
419.467 463.259 L
445.6 463.259 L
471.733 463.259 L
497.867 463.259 L
524 463.259 L
550.133 463.259 L
576.267 463.259 L
602.4 463.259 L
628.533 463.259 L
654.667 463.259 L
680.8 463.259 L
706.933 463.259 L
733.067 463.259 L
759.2 463.259 L
785.333 463.259 L
811.467 463.259 L
837.6 463.259 L
863.733 463.259 L
889.867 463.259 L
S
GR
GS
[0.75 0 0 0.75 0 0] CT
0.635 0.078 0.184 RC
[8 8] 0 setdash
2 LJ
2.667 LW
N
158.133 463.658 M
184.267 463.658 L
210.4 463.658 L
236.533 463.658 L
262.667 463.658 L
288.8 463.658 L
314.933 463.658 L
341.067 463.658 L
367.2 463.658 L
393.333 463.658 L
419.467 463.658 L
445.6 463.658 L
471.733 463.658 L
497.867 463.658 L
524 463.658 L
550.133 463.658 L
576.267 463.658 L
602.4 463.658 L
628.533 463.658 L
654.667 463.658 L
680.8 463.658 L
706.933 463.658 L
733.067 463.658 L
759.2 463.658 L
785.333 463.658 L
811.467 463.658 L
837.6 463.658 L
863.733 463.658 L
889.867 463.658 L
S
GR
%%Trailer
%%Pages: 1
%%EOF
